<svg xmlns="http://www.w3.org/2000/svg" width="32" height="32" viewBox="0 0 32 32">
    <defs>
        <style>
            .cls-1{fill:rgba(240,203,0,.4)}.cls-2{fill:none;stroke:#eda929;stroke-linecap:round;stroke-width:2px}
        </style>
    </defs>
    <g id="Group_4826" data-name="Group 4826" transform="translate(-435.701 -281)">
        <g id="Group_4771" data-name="Group 4771" transform="translate(436 281)">
            <rect id="Rectangle_2303" width="32" height="32" class="cls-1" data-name="Rectangle 2303" rx="16" transform="translate(-.299)"/>
        </g>
        <g id="Group_4810" data-name="Group 4810" transform="rotate(90 83.35 374.35)">
            <path id="Line_237" d="M0 0v12" class="cls-2" data-name="Line 237" transform="translate(6)"/>
        </g>
    </g>
</svg>
