<svg xmlns="http://www.w3.org/2000/svg" id="prefix__create-24px" width="24" height="24" viewBox="0 0 24 24">
    <path id="prefix__Path_4871" d="M3 17.25V21h3.75L17.81 9.94l-3.75-3.75zM20.71 7.04a1 1 0 000-1.41l-2.34-2.34a1 1 0 00-1.41 0l-1.83 1.83 3.75 3.75 1.83-1.83z" data-name="Path 4871" style="fill:#ffbd40"/>
    <path id="prefix__Path_4872" d="M0 0h24v24H0z" data-name="Path 4872" style="fill:none"/>
</svg>
