<svg xmlns="http://www.w3.org/2000/svg" id="prefix__Group_5245" width="16" height="16" data-name="Group 5245" viewBox="0 0 16 16">
    <path id="prefix__Rectangle_2614" d="M0 0H16V16H0z" data-name="Rectangle 2614" style="fill:none"/>
    <path id="prefix__Path_4831" d="M637.946 314.97l4 4-4 4" data-name="Path 4831" transform="translate(-631.446 -311)" style="stroke:#adadad;stroke-linecap:round;stroke-linejoin:round;stroke-width:2px;fill:none"/>
</svg>
