<svg xmlns="http://www.w3.org/2000/svg" width="18" height="18" viewBox="0 0 18 18">
    <path id="prefix__Union_13" d="M-7396.9-7044.895a7.07 7.07 0 01-5.015 2.078 7.093 7.093 0 01-7.092-7.092 7.093 7.093 0 017.092-7.092 7.091 7.091 0 017.091 7.092 7.069 7.069 0 01-2.077 5.015L-7393-7041z" data-name="Union 13" transform="translate(7410.001 7058.001)" style="fill:none;stroke:#4c4c4c;stroke-linecap:round;stroke-linejoin:round;stroke-width:2px"/>
</svg>
