<svg xmlns="http://www.w3.org/2000/svg" width="72.961" height="72.961" viewBox="0 0 72.961 72.961">
    <defs>
        <style>
            .prefix__cls-1{fill:#adadad}
        </style>
    </defs>
    <g id="prefix___001-payment" data-name="001-payment" transform="translate(-16 -16)">
        <path id="prefix__Path_5028" d="M383.638 168h-4.332a3.31 3.31 0 00-3.306 3.306v1.9a3.31 3.31 0 003.306 3.306h4.332a3.31 3.31 0 003.306-3.306v-1.9a3.31 3.31 0 00-3.306-3.306zm.874 5.206a.875.875 0 01-.874.874h-4.332a.875.875 0 01-.874-.874v-1.9a.875.875 0 01.874-.874h4.332a.875.875 0 01.874.874z" class="prefix__cls-1" data-name="Path 5028" transform="translate(-305.279 -128.896)"/>
        <path id="prefix__Path_5029" d="M81.665 74.369H64.641V52.48h17.015a4.879 4.879 0 004.873-4.873V28.169a4.879 4.879 0 00-4.873-4.869H64.641v-.011A7.293 7.293 0 0057.356 16H23.3a7.3 7.3 0 00-7.3 7.3v13.372a1.216 1.216 0 001.216 1.216H28.16v43.777a7.3 7.3 0 007.3 7.3h26.671a7.384 7.384 0 007.258-6.08h18.356a1.216 1.216 0 001.216-1.216 7.3 7.3 0 00-7.296-7.3zm-.009-24.32h-34.03a2.444 2.444 0 01-2.441-2.441V35.456H84.1v12.151a2.444 2.444 0 01-2.441 2.441zM45.184 30.592H84.1v2.432H45.184zM84.1 28.16H45.184a2.444 2.444 0 012.441-2.432h34.03A2.444 2.444 0 0184.1 28.16zM18.432 23.3a4.864 4.864 0 019.728 0v12.16h-9.728zm12.16 58.369V23.3a7.267 7.267 0 00-1.864-4.864h28.628a4.858 4.858 0 014.853 4.853v.011H47.626a4.879 4.879 0 00-4.873 4.873v19.434a4.879 4.879 0 004.873 4.873h14.583v21.889H47.616a7.3 7.3 0 00-7.3 7.3 4.864 4.864 0 01-9.728 0zm31.539 4.864H40.889a7.267 7.267 0 001.864-4.864 4.864 4.864 0 019.728 0 1.216 1.216 0 001.219 1.212h13.2a4.949 4.949 0 01-4.769 3.648zm-7.32-6.08A7.277 7.277 0 0053.05 76.8h28.615a4.873 4.873 0 014.71 3.648z" class="prefix__cls-1" data-name="Path 5029"/>
        <path id="prefix__Path_5030" d="M129.216 175.3h4.864a1.216 1.216 0 001.216-1.216v-4.864a1.216 1.216 0 00-1.216-1.22h-4.864a1.216 1.216 0 00-1.216 1.216v4.864a1.216 1.216 0 001.216 1.22zm1.216-4.864h2.432v2.432h-2.432z" class="prefix__cls-1" data-name="Path 5030" transform="translate(-94.976 -128.896)"/>
        <path id="prefix__Path_5031" d="M129.216 263.3h4.864a1.216 1.216 0 001.216-1.216v-4.864a1.216 1.216 0 00-1.216-1.22h-4.864a1.216 1.216 0 00-1.216 1.216v4.864a1.216 1.216 0 001.216 1.22zm1.216-4.864h2.432v2.432h-2.432z" class="prefix__cls-1" data-name="Path 5031" transform="translate(-94.976 -203.52)"/>
        <path id="prefix__Path_5032" d="M135.3 350.08v-4.864a1.216 1.216 0 00-1.22-1.216h-4.864a1.216 1.216 0 00-1.216 1.216v4.864a1.216 1.216 0 001.216 1.216h4.864a1.216 1.216 0 001.22-1.216zm-2.432-1.216h-2.432v-2.432h2.432z" class="prefix__cls-1" data-name="Path 5032" transform="translate(-94.976 -278.143)"/>
        <path id="prefix__Rectangle_2819" d="M0 0H17V3H0z" class="prefix__cls-1" data-name="Rectangle 2819" transform="translate(43 68)"/>
        <path id="prefix__Rectangle_2820" d="M0 0H17V2H0z" class="prefix__cls-1" data-name="Rectangle 2820" transform="translate(43 55)"/>
    </g>
</svg>
