<svg xmlns="http://www.w3.org/2000/svg" id="prefix__Grupo_5358" width="48" height="48" data-name="Grupo 5358" viewBox="0 0 48 48">
    <defs>
        <style>
            .prefix__cls-2{fill:#828282}
        </style>
    </defs>
    <path id="prefix__Retângulo_2715" d="M0 0H48V48H0z" data-name="Retângulo 2715" style="fill:none"/>
    <g id="prefix___009-settings" data-name="009-settings" transform="translate(14 14)">
        <g id="prefix__Grupo_5241" data-name="Grupo 5241" transform="translate(5.469 5.469)">
            <g id="prefix__Grupo_5240" data-name="Grupo 5240">
                <path id="prefix__Caminho_4959" d="M144.531 140a4.531 4.531 0 1 0 1.369 8.852.781.781 0 0 0-.472-1.49 2.965 2.965 0 1 1 1.953-2 .781.781 0 0 0 1.5.439 4.534 4.534 0 0 0-4.35-5.805z" class="prefix__cls-2" data-name="Caminho 4959" transform="translate(-140 -140)"/>
            </g>
        </g>
        <g id="prefix__Grupo_5243" data-name="Grupo 5243">
            <g id="prefix__Grupo_5242" data-name="Grupo 5242">
                <path id="prefix__Caminho_4960" d="M17.656 7.266h-.393a.26.26 0 0 1-.238-.164l-.007-.017a.262.262 0 0 1 .051-.287l.278-.278a2.346 2.346 0 0 0 0-3.315l-.552-.552a2.344 2.344 0 0 0-3.315 0l-.278.278a.262.262 0 0 1-.287.051l-.015-.006a.261.261 0 0 1-.166-.239v-.393A2.346 2.346 0 0 0 10.391 0h-.782a2.346 2.346 0 0 0-2.343 2.344v.394a.261.261 0 0 1-.165.239l-.015.006a.262.262 0 0 1-.286-.052l-.28-.278a2.344 2.344 0 0 0-3.315 0l-.552.552a2.346 2.346 0 0 0 0 3.315l.278.278a.263.263 0 0 1 .05.29v.011a.261.261 0 0 1-.239.166h-.398A2.346 2.346 0 0 0 0 9.609v.781a2.346 2.346 0 0 0 2.344 2.344h.393a.26.26 0 0 1 .238.164l.007.017a.262.262 0 0 1-.051.287l-.278.278a2.344 2.344 0 0 0 0 3.315l.552.552a2.344 2.344 0 0 0 3.315 0l.278-.278a.262.262 0 0 1 .287-.051l.015.006a.261.261 0 0 1 .166.239v.394A2.346 2.346 0 0 0 9.609 20h.781a2.346 2.346 0 0 0 2.344-2.344v-.394a.261.261 0 0 1 .165-.239l.015-.006a.262.262 0 0 1 .287.051l.278.278a2.344 2.344 0 0 0 3.315 0l.552-.552a2.344 2.344 0 0 0 0-3.315l-.278-.278a.262.262 0 0 1-.051-.287l.006-.014a.261.261 0 0 1 .239-.166h.393A2.346 2.346 0 0 0 20 10.391v-.782a2.346 2.346 0 0 0-2.344-2.343zm.781 3.125a.782.782 0 0 1-.781.781h-.393A1.818 1.818 0 0 0 15.58 12.3l-.005.012a1.819 1.819 0 0 0 .39 1.991l.278.278a.781.781 0 0 1 0 1.1l-.552.552a.781.781 0 0 1-1.1 0l-.278-.278a1.82 1.82 0 0 0-1.992-.389h-.011a1.818 1.818 0 0 0-1.132 1.683v.394a.782.782 0 0 1-.781.781h-.788a.782.782 0 0 1-.781-.781v-.394a1.819 1.819 0 0 0-1.128-1.67h-.011a1.845 1.845 0 0 0-.708-.142 1.811 1.811 0 0 0-1.283.531l-.278.278a.781.781 0 0 1-1.1 0l-.552-.552a.781.781 0 0 1 0-1.1l.278-.278a1.819 1.819 0 0 0 .39-1.991L4.42 12.3a1.819 1.819 0 0 0-1.683-1.132h-.393a.782.782 0 0 1-.781-.781v-.778a.782.782 0 0 1 .781-.781h.393a1.819 1.819 0 0 0 1.684-1.135v-.009a1.819 1.819 0 0 0-.389-1.992l-.278-.278a.782.782 0 0 1 0-1.1l.552-.552a.781.781 0 0 1 1.1 0l.278.278a1.819 1.819 0 0 0 1.992.389h.011a1.818 1.818 0 0 0 1.141-1.692v-.393a.782.782 0 0 1 .781-.781h.781a.782.782 0 0 1 .781.781v.394A1.819 1.819 0 0 0 12.3 4.421h.011a1.82 1.82 0 0 0 1.992-.389l.278-.278a.781.781 0 0 1 1.1 0l.552.552a.782.782 0 0 1 0 1.1l-.278.278a1.818 1.818 0 0 0-.39 1.989l.006.014a1.819 1.819 0 0 0 1.683 1.132h.393a.782.782 0 0 1 .781.781z" class="prefix__cls-2" data-name="Caminho 4960"/>
            </g>
        </g>
    </g>
</svg>
