<svg xmlns="http://www.w3.org/2000/svg" width="10.828" height="10.828" viewBox="0 0 10.828 10.828">
    <defs>
        <style>
            .prefix__cls-1{fill:none;stroke:#4c4c4c;stroke-linecap:round;stroke-linejoin:round;stroke-width:2px}
        </style>
    </defs>
    <g id="prefix__CLOSE_SMALL" data-name="CLOSE SMALL" transform="translate(1.414 1.414)">
        <g id="prefix__Grupo_5083" data-name="Grupo 5083" transform="translate(-605.946 -306.97)">
            <g id="prefix__Grupo_5082" data-name="Grupo 5082" transform="translate(-57 -8)">
                <g id="prefix__Grupo_5081" data-name="Grupo 5081">
                    <path id="prefix__Caminho_4825" d="M637.946 314.97l4 4-4 4" class="prefix__cls-1" data-name="Caminho 4825" transform="translate(25)"/>
                    <path id="prefix__Caminho_4826" d="M641.946 314.97l-4 4 4 4" class="prefix__cls-1" data-name="Caminho 4826" transform="translate(29)"/>
                </g>
            </g>
        </g>
    </g>
</svg>
