<svg xmlns="http://www.w3.org/2000/svg" width="334" height="322" viewBox="0 0 334 322">
    <defs>
        <clipPath id="prefix__clip-path"/>
        <clipPath id="prefix__clip-path-2">
            <path id="prefix__Caminho_4888-2" d="M0 0h334v328.191H0z" class="prefix__cls-2" data-name="Caminho 4888"/>
        </clipPath>
        <filter id="prefix__Retângulo_2790" width="394" height="382" x="-30" y="-20" filterUnits="userSpaceOnUse">
            <feOffset dy="10"/>
            <feGaussianBlur result="blur" stdDeviation="10"/>
            <feFlood flood-opacity=".161"/>
            <feComposite in2="blur" operator="in"/>
            <feComposite in="SourceGraphic"/>
        </filter>
        <filter id="prefix__Caminho_4888" width="346" height="1318.957" x="-4" y="-302.243" filterUnits="userSpaceOnUse">
            <feOffset dx="2"/>
            <feGaussianBlur result="blur-2" stdDeviation="2"/>
            <feFlood flood-opacity=".2"/>
            <feComposite in2="blur-2" operator="in"/>
            <feComposite in="SourceGraphic"/>
        </filter>
        <linearGradient id="prefix__linear-gradient" x1=".5" x2=".5" y2="1" gradientUnits="objectBoundingBox">
            <stop offset="0" stop-color="#f9de00"/>
            <stop offset="1" stop-color="#f5b700"/>
        </linearGradient>
        <style>
            .prefix__cls-2{fill:url(#prefix__linear-gradient)}.prefix__cls-7,.prefix__cls-8{fill:none}.prefix__cls-7{stroke-linecap:round;stroke:#a4a4a4;stroke-linejoin:round;stroke-width:2px}.prefix__cls-10{fill:#4c4c4c;font-size:20px;font-family:OpenSans-Bold,Open Sans;font-weight:700;letter-spacing:.016em}.prefix__cls-11{fill:#828282}.prefix__cls-12{fill:#ffa701}
        </style>
    </defs>
    <g id="prefix__Grupo_de_máscara_3" data-name="Grupo de máscara 3" transform="translate(-813 -407)">
        <g id="prefix__Menu_Completo_Aberto" data-name="Menu Completo Aberto" transform="translate(813 110.757)">
            <g id="prefix__BGMenu">
                <g transform="translate(0 296.24)">
                    <path id="prefix__Caminho_4888-3" d="M0 0h334v1306.957H0z" data-name="Caminho 4888" transform="translate(0 -296.24)" style="fill:#f1f1f1"/>
                </g>
                <g id="prefix__Submenu" transform="translate(0 297.798)">
                    <path id="prefix__Caminho_4961" d="M0 0h334v318.9H0z" data-name="Caminho 4961" style="fill:#fbfbfb"/>
                    <path id="prefix__Caminho_4962" d="M33 411.994v201.852" data-name="Caminho 4962" transform="translate(25.087 -314.8)" style="stroke-linecap:round;stroke:#ebebeb;stroke-width:4px;fill:none"/>
                    <path id="prefix__Caminho_4891" d="M0 0l5.809 5.809L0 11.617" class="prefix__cls-7" data-name="Caminho 4891" transform="rotate(-90 175.299 -126.753)"/>
                    <path id="prefix__Retângulo_2727" d="M0 0H70V69H0z" class="prefix__cls-8" data-name="Retângulo 2727" transform="translate(23 10.446)"/>
                    <g id="prefix__Componente_2_7" data-name="Componente 2 – 7" transform="translate(92.939 97.194)">
                        <path id="prefix__Retângulo_2729" d="M3.067 0H206a23 23 0 0 1 23 23 23 23 0 0 1-23 23H3.067A3.067 3.067 0 0 1 0 42.933V3.067A3.067 3.067 0 0 1 3.067 0z" data-name="Retângulo 2729" transform="translate(.061 .252)" style="fill:#ffc703"/>
                        <text id="prefix__ACH" class="prefix__cls-10" transform="translate(12.061 29.252)">
                            <tspan x="0" y="0">ACH</tspan>
                        </text>
                    </g>
                    <g id="prefix__Componente_2_8" data-name="Componente 2 – 8" transform="translate(104.557 159.637)">
                        <text id="prefix__P2C" class="prefix__cls-10" transform="translate(.443 20.809)">
                            <tspan x="0" y="0">P2C</tspan>
                        </text>
                    </g>
                    <g id="prefix__Componente_2_9" data-name="Componente 2 – 9" transform="translate(104.557 213.367)">
                        <text id="prefix__E-checks" class="prefix__cls-10" transform="translate(.443 21.078)">
                            <tspan x="0" y="0">E-checks</tspan>
                        </text>
                    </g>
                    <g id="prefix__Componente_2_10" data-name="Componente 2 – 10" transform="translate(104.557 267.098)">
                        <text id="prefix__Gift_Card" class="prefix__cls-10" data-name="Gift Card" transform="translate(.443 21.348)">
                            <tspan x="0" y="0">Gift Card</tspan>
                        </text>
                    </g>
                </g>
            </g>
            <g id="prefix__Accounts" transform="translate(23.235 146.67)">
                <path id="prefix__Retângulo_2709" d="M0 0H70V70H0z" class="prefix__cls-8" data-name="Retângulo 2709" transform="translate(-.235 -.426)"/>
                <text id="prefix__Accounts-2" class="prefix__cls-10" data-name="Accounts" transform="translate(69.765 42.574)">
                    <tspan x="0" y="0">Accounts</tspan>
                </text>
                <g id="prefix___005-bank" data-name="005-bank" transform="translate(20.33 20.33)">
                    <g id="prefix__Grupo_5237" data-name="Grupo 5237">
                        <g id="prefix__Grupo_5236" data-name="Grupo 5236">
                            <circle id="prefix__Elipse_137" cx="1.143" cy="1.143" r="1.143" class="prefix__cls-11" data-name="Elipse 137" transform="translate(13.493 4.917)"/>
                            <path id="prefix__Caminho_4953" d="M28.129 470H1.143a1.143 1.143 0 0 0 0 2.287h26.986a1.143 1.143 0 0 0 0-2.287z" class="prefix__cls-11" data-name="Caminho 4953" transform="translate(0 -443.243)"/>
                            <path id="prefix__Caminho_4954" d="M29.272 9.146a1.143 1.143 0 0 0-.679-1.046l-13.521-6a1.143 1.143 0 0 0-.93 0L.678 8.1A1.144 1.144 0 0 0 0 9.146V12.234a1.143 1.143 0 0 0 1.143 1.143 1.018 1.018 0 0 1 .972 1.143v10.805a1.143 1.143 0 0 0 1.143 1.143h22.87a1.143 1.143 0 1 0 0-2.287H22.7V14.52a1.143 1.143 0 0 1 2.287 0v5.061a1.143 1.143 0 1 0 2.287 0V14.52c0-.268.062-1.143.858-1.143a1.143 1.143 0 0 0 1.143-1.143v-.029-.029zM6.689 24.182H4.4V14.52a1.143 1.143 0 0 1 2.287 0zm4.574 0H8.976V14.52a1.143 1.143 0 0 1 2.287 0zm4.574 0H13.55V14.52a1.143 1.143 0 0 1 2.287 0zm4.574 0h-2.287V14.52a1.143 1.143 0 1 1 2.287 0zm6.575-13.15H2.287V9.888l12.322-5.494 12.376 5.495z" class="prefix__cls-11" data-name="Caminho 4954" transform="translate(0 -1.999)"/>
                        </g>
                    </g>
                </g>
            </g>
            <g id="prefix__Business_Settings" data-name="Business Settings" transform="translate(23.235 1025.235)">
                <text id="prefix__Business_Settings-2" class="prefix__cls-10" data-name="Business Settings" transform="translate(69.765 43.009)">
                    <tspan x="0" y="0">Business Settings</tspan>
                </text>
                <g id="prefix__Grupo_5195" data-name="Grupo 5195">
                    <path id="prefix__Retângulo_2715" d="M0 0H70V70H0z" class="prefix__cls-8" data-name="Retângulo 2715" transform="translate(-.235 .009)"/>
                    <g id="prefix___009-settings" data-name="009-settings" transform="translate(20.33 20.33)">
                        <g id="prefix__Grupo_5241" data-name="Grupo 5241" transform="translate(7.942 7.942)">
                            <g id="prefix__Grupo_5240" data-name="Grupo 5240">
                                <path id="prefix__Caminho_4959" d="M146.58 140a6.58 6.58 0 1 0 1.987 12.855 1.135 1.135 0 0 0-.685-2.163 4.305 4.305 0 1 1 2.836-2.9 1.135 1.135 0 0 0 2.178.637A6.585 6.585 0 0 0 146.58 140z" class="prefix__cls-11" data-name="Caminho 4959" transform="translate(-140 -140)"/>
                            </g>
                        </g>
                        <g id="prefix__Grupo_5243" data-name="Grupo 5243">
                            <g id="prefix__Grupo_5242" data-name="Grupo 5242">
                                <path id="prefix__Caminho_4960" d="M25.64 10.551h-.571a.378.378 0 0 1-.346-.238l-.01-.025a.38.38 0 0 1 .074-.417l.4-.4a3.407 3.407 0 0 0 0-4.813l-.8-.8a3.4 3.4 0 0 0-4.813 0l-.4.4a.38.38 0 0 1-.417.075l-.021-.009a.379.379 0 0 1-.241-.347V3.4a3.407 3.407 0 0 0-3.4-3.4h-1.14a3.407 3.407 0 0 0-3.4 3.4v.571a.378.378 0 0 1-.24.346l-.022.009a.38.38 0 0 1-.417-.074l-.4-.4a3.4 3.4 0 0 0-4.813 0l-.8.8a3.407 3.407 0 0 0 0 4.813l.4.4a.382.382 0 0 1 .073.421l-.007.017a.379.379 0 0 1-.347.241H3.4a3.407 3.407 0 0 0-3.4 3.4v1.135a3.407 3.407 0 0 0 3.4 3.4h.571a.378.378 0 0 1 .346.238l.01.025a.38.38 0 0 1-.074.417l-.4.4a3.4 3.4 0 0 0 0 4.813l.8.8a3.4 3.4 0 0 0 4.813 0l.4-.4a.38.38 0 0 1 .417-.075l.021.009a.379.379 0 0 1 .241.347v.571a3.407 3.407 0 0 0 3.4 3.4h1.135a3.407 3.407 0 0 0 3.4-3.4v-.571a.378.378 0 0 1 .24-.346l.022-.009a.38.38 0 0 1 .417.074l.4.4a3.4 3.4 0 0 0 4.813 0l.8-.8a3.4 3.4 0 0 0 0-4.813l-.4-.4a.38.38 0 0 1-.074-.417l.009-.021a.379.379 0 0 1 .347-.241h.571a3.407 3.407 0 0 0 3.4-3.4v-1.125a3.407 3.407 0 0 0-3.385-3.404zm1.135 4.538a1.136 1.136 0 0 1-1.135 1.135h-.571a2.641 2.641 0 0 0-2.444 1.644l-.007.018a2.642 2.642 0 0 0 .566 2.891l.4.4a1.135 1.135 0 0 1 0 1.6l-.8.8a1.135 1.135 0 0 1-1.6 0l-.4-.4a2.642 2.642 0 0 0-2.892-.565l-.016.007a2.641 2.641 0 0 0-1.644 2.444v.571a1.136 1.136 0 0 1-1.135 1.135h-1.143a1.136 1.136 0 0 1-1.134-1.129v-.571a2.641 2.641 0 0 0-1.645-2.445l-.015-.006a2.679 2.679 0 0 0-1.029-.206 2.63 2.63 0 0 0-1.863.772l-.4.4a1.135 1.135 0 0 1-1.6 0l-.8-.8a1.134 1.134 0 0 1 0-1.6l.4-.4a2.642 2.642 0 0 0 .566-2.891l-.007-.018a2.641 2.641 0 0 0-2.444-1.644H3.4a1.136 1.136 0 0 1-1.135-1.135v-1.142A1.136 1.136 0 0 1 3.4 12.82h.571a2.642 2.642 0 0 0 2.446-1.648l.005-.013a2.642 2.642 0 0 0-.565-2.892l-.4-.4a1.136 1.136 0 0 1 0-1.6l.8-.8a1.135 1.135 0 0 1 1.6 0l.4.4a2.642 2.642 0 0 0 2.892.565l.016-.007a2.641 2.641 0 0 0 1.655-2.45V3.4a1.136 1.136 0 0 1 1.135-1.135h1.135A1.136 1.136 0 0 1 16.224 3.4v.571a2.641 2.641 0 0 0 1.645 2.449l.015.006a2.642 2.642 0 0 0 2.892-.565l.4-.4a1.135 1.135 0 0 1 1.6 0l.8.8a1.136 1.136 0 0 1 0 1.6l-.4.4a2.64 2.64 0 0 0-.567 2.888l.009.021a2.641 2.641 0 0 0 2.444 1.644h.571a1.136 1.136 0 0 1 1.135 1.135z" class="prefix__cls-11" data-name="Caminho 4960"/>
                            </g>
                        </g>
                    </g>
                </g>
                <path id="prefix__Caminho_4895" d="M0 0l5.809 5.809L0 11.617" class="prefix__cls-7" data-name="Caminho 4895" transform="rotate(90 128.88 161.555)"/>
            </g>
            <g id="prefix__Get_Help" data-name="Get Help" transform="translate(23.235 1106.557)">
                <text id="prefix__Get_Help-2" class="prefix__cls-10" data-name="Get Help" transform="translate(69.765 42.687)">
                    <tspan x="0" y="0">Get Help</tspan>
                </text>
                <g id="prefix__Grupo_5195-2" data-name="Grupo 5195">
                    <path id="prefix__Retângulo_2715-2" d="M0 0H70V70H0z" class="prefix__cls-8" data-name="Retângulo 2715" transform="translate(-.235 -.313)"/>
                </g>
                <path id="prefix___008-question" d="M14.464 22.746a1.135 1.135 0 1 1 1.136-1.134 1.134 1.134 0 0 1-1.136 1.134zm1.136-5.105v-1.523a4.729 4.729 0 1 0-4.462-7.976A4.645 4.645 0 0 0 9.7 11.515a1.135 1.135 0 1 0 2.269 0 2.4 2.4 0 0 1 .742-1.739 2.51 2.51 0 0 1 1.853-.7 2.45 2.45 0 0 1 .448 4.847 2.121 2.121 0 0 0-1.682 2.081v1.635a1.135 1.135 0 1 0 2.269 0zm6.436 9.309a1.134 1.134 0 1 0-1.176-1.941 12.361 12.361 0 1 1 3.84-3.687 1.134 1.134 0 1 0 1.886 1.261A14.514 14.514 0 0 0 4.253 4.253a14.523 14.523 0 0 0 17.782 22.7zm0 0" class="prefix__cls-11" data-name="008-question" transform="translate(20.331 20.331)"/>
            </g>
            <g id="prefix__Invoice" transform="translate(23.235 781.27)">
                <text id="prefix__Invoice-2" class="prefix__cls-10" data-name="Invoice" transform="translate(69.765 42.974)">
                    <tspan x="0" y="0">Invoice</tspan>
                </text>
                <g id="prefix__Grupo_5212" data-name="Grupo 5212">
                    <path id="prefix__Retângulo_2710" d="M0 0H70V70H0z" class="prefix__cls-8" data-name="Retângulo 2710" transform="translate(-.235 -.026)"/>
                    <g id="prefix___001-invoice" data-name="001-invoice" transform="translate(21.783 20.33)">
                        <g id="prefix__Grupo_5229" data-name="Grupo 5229">
                            <g id="prefix__Grupo_5228" data-name="Grupo 5228">
                                <path id="prefix__Caminho_4927" d="M110.2 253h-.567a1.135 1.135 0 0 0 0 2.269h.567a1.135 1.135 0 0 0 0-2.269z" class="prefix__cls-11" data-name="Caminho 4927" transform="translate(-103.962 -238.648)"/>
                                <path id="prefix__Caminho_4928" d="M196.839 173h-7.2a1.135 1.135 0 0 0 0 2.269h7.2a1.135 1.135 0 0 0 0-2.269z" class="prefix__cls-11" data-name="Caminho 4928" transform="translate(-179.424 -163.186)"/>
                                <path id="prefix__Caminho_4929" d="M44.093 26.774H33.038a2.272 2.272 0 0 1-2.269-2.269V4.538a2.272 2.272 0 0 1 2.269-2.269h13.948a2.272 2.272 0 0 1 2.269 2.269v6.41a1.135 1.135 0 1 0 2.269 0v-6.41A4.543 4.543 0 0 0 46.986 0H33.038A4.543 4.543 0 0 0 28.5 4.538v19.967a4.543 4.543 0 0 0 4.538 4.538h11.055a1.135 1.135 0 0 0 0-2.269z" class="prefix__cls-11" data-name="Caminho 4929" transform="translate(-28.5)"/>
                                <path id="prefix__Caminho_4930" d="M110.2 333h-.567a1.135 1.135 0 0 0 0 2.269h.567a1.135 1.135 0 0 0 0-2.269z" class="prefix__cls-11" data-name="Caminho 4930" transform="translate(-103.962 -314.11)"/>
                                <path id="prefix__Caminho_4931" d="M196.839 93h-7.2a1.135 1.135 0 0 0 0 2.269h7.2a1.135 1.135 0 0 0 0-2.269z" class="prefix__cls-11" data-name="Caminho 4931" transform="translate(-179.424 -87.725)"/>
                                <path id="prefix__Caminho_4932" d="M351.98 259.067h-1.04a.931.931 0 0 1-.922-.939v-.153a.887.887 0 0 1 .922-.891h.983a.552.552 0 0 1 .588.517 1.135 1.135 0 0 0 2.269 0 2.81 2.81 0 0 0-2.327-2.737v-.73a1.134 1.134 0 1 0-2.269 0v.769a3.168 3.168 0 0 0-1.493.821 3.124 3.124 0 0 0-.942 2.251v.153a3.2 3.2 0 0 0 3.191 3.208h1.04a.927.927 0 0 1 .928.924v.539a.879.879 0 0 1-.928.865h-1.69a.535.535 0 0 1-.561-.533 1.134 1.134 0 1 0-2.269 0 2.768 2.768 0 0 0 .839 2 2.828 2.828 0 0 0 1.885.8v.626a1.134 1.134 0 1 0 2.269 0v-.657a3.116 3.116 0 0 0 2.724-3.1v-.539a3.2 3.2 0 0 0-3.197-3.194z" class="prefix__cls-11" data-name="Caminho 4932" transform="translate(-329.367 -238.648)"/>
                                <path id="prefix__Caminho_4933" d="M194.57 335.269a1.135 1.135 0 0 0 0-2.269h-4.935a1.135 1.135 0 0 0 0 2.269z" class="prefix__cls-11" data-name="Caminho 4933" transform="translate(-179.424 -314.11)"/>
                                <path id="prefix__Caminho_4934" d="M110.2 173h-.567a1.135 1.135 0 1 0 0 2.269h.567a1.135 1.135 0 1 0 0-2.269z" class="prefix__cls-11" data-name="Caminho 4934" transform="translate(-103.962 -163.186)"/>
                                <path id="prefix__Caminho_4935" d="M197.973 254.135a1.134 1.134 0 0 0-1.134-1.135h-7.2a1.135 1.135 0 0 0 0 2.269h7.2a1.134 1.134 0 0 0 1.134-1.134z" class="prefix__cls-11" data-name="Caminho 4935" transform="translate(-179.424 -238.648)"/>
                                <path id="prefix__Caminho_4936" d="M110.2 93h-.567a1.135 1.135 0 1 0 0 2.269h.567a1.135 1.135 0 1 0 0-2.269z" class="prefix__cls-11" data-name="Caminho 4936" transform="translate(-103.962 -87.725)"/>
                            </g>
                        </g>
                    </g>
                </g>
                <path id="prefix__Caminho_4889" d="M0 0l5.809 5.809L0 11.617" class="prefix__cls-7" data-name="Caminho 4889" transform="rotate(90 128.88 161.555)"/>
            </g>
            <g id="prefix__Funding_Schedule" data-name="Funding Schedule" transform="translate(23.235 862.591)">
                <path id="prefix__Retângulo_2711" d="M0 0H70V70H0z" class="prefix__cls-8" data-name="Retângulo 2711" transform="translate(-.235 -.348)"/>
                <text id="prefix__Funding_Schedule-2" class="prefix__cls-10" data-name="Funding Schedule" transform="translate(69.765 42.652)">
                    <tspan x="0" y="0">Funding Schedule</tspan>
                </text>
                <g id="prefix___004-calendar" data-name="004-calendar" transform="translate(20.33 20.33)">
                    <g id="prefix__Grupo_5235" data-name="Grupo 5235">
                        <g id="prefix__Grupo_5234" data-name="Grupo 5234">
                            <circle id="prefix__Elipse_128" cx="1.135" cy="1.135" r="1.135" class="prefix__cls-11" data-name="Elipse 128" transform="translate(15.826 10.778)"/>
                            <circle id="prefix__Elipse_129" cx="1.135" cy="1.135" r="1.135" class="prefix__cls-11" data-name="Elipse 129" transform="translate(15.826 15.713)"/>
                            <circle id="prefix__Elipse_130" cx="1.135" cy="1.135" r="1.135" class="prefix__cls-11" data-name="Elipse 130" transform="translate(20.762 10.778)"/>
                            <path id="prefix__Caminho_4952" d="M27.909 14.181a1.134 1.134 0 0 0 1.135-1.135V6.807a4.543 4.543 0 0 0-4.538-4.538h-1.475V1.135a1.135 1.135 0 0 0-2.269 0v1.134H15.6V1.135a1.135 1.135 0 1 0-2.269 0v1.134H8.225V1.135a1.135 1.135 0 0 0-2.269 0v1.134H4.538A4.543 4.543 0 0 0 0 6.807v17.7a4.543 4.543 0 0 0 4.538 4.538h14.295a1.138 1.138 0 0 0 .114-.006c.037 0 .075.006.112.006a1.134 1.134 0 0 0 .817-.348l8.849-9.19a1.134 1.134 0 0 0-.817-1.921h-5.445a4.543 4.543 0 0 0-4.538 4.538v4.651H4.538a2.272 2.272 0 0 1-2.269-2.269V6.807a2.272 2.272 0 0 1 2.269-2.269h1.418v1.135a1.135 1.135 0 0 0 2.269 0V4.538h5.105v1.135a1.135 1.135 0 1 0 2.269 0V4.538h5.162v1.135a1.135 1.135 0 1 0 2.269 0V4.538h1.475a2.272 2.272 0 0 1 2.269 2.269v6.24a1.134 1.134 0 0 0 1.135 1.134zm-7.715 7.942a2.272 2.272 0 0 1 2.269-2.269h2.778L20.194 25.1z" class="prefix__cls-11" data-name="Caminho 4952"/>
                            <circle id="prefix__Elipse_131" cx="1.135" cy="1.135" r="1.135" class="prefix__cls-11" data-name="Elipse 131" transform="translate(5.956 10.778)"/>
                            <circle id="prefix__Elipse_132" cx="1.135" cy="1.135" r="1.135" class="prefix__cls-11" data-name="Elipse 132" transform="translate(10.891 15.713)"/>
                            <circle id="prefix__Elipse_133" cx="1.135" cy="1.135" r="1.135" class="prefix__cls-11" data-name="Elipse 133" transform="translate(5.956 20.648)"/>
                            <circle id="prefix__Elipse_134" cx="1.135" cy="1.135" r="1.135" class="prefix__cls-11" data-name="Elipse 134" transform="translate(5.956 15.713)"/>
                            <circle id="prefix__Elipse_135" cx="1.135" cy="1.135" r="1.135" class="prefix__cls-11" data-name="Elipse 135" transform="translate(10.891 20.648)"/>
                            <circle id="prefix__Elipse_136" cx="1.135" cy="1.135" r="1.135" class="prefix__cls-11" data-name="Elipse 136" transform="translate(10.891 10.778)"/>
                        </g>
                    </g>
                </g>
            </g>
            <g id="prefix__Exports" transform="translate(23.235 943.913)">
                <text id="prefix__Exports-2" class="prefix__cls-10" data-name="Exports" transform="translate(69.765 42.33)">
                    <tspan x="0" y="0">Exports</tspan>
                </text>
                <path id="prefix__Retângulo_2714" d="M0 0H70V69H0z" class="prefix__cls-8" data-name="Retângulo 2714" transform="translate(-.235 .33)"/>
                <path id="prefix___007-share" d="M29.54 14.749V24.5A4.543 4.543 0 0 1 25 29.042H5.037A4.543 4.543 0 0 1 .5 24.5V4.539A4.543 4.543 0 0 1 5.037 0h12.989a1.135 1.135 0 1 1 0 2.269H5.037a2.271 2.271 0 0 0-2.269 2.27V24.5a2.271 2.271 0 0 0 2.269 2.269H25a2.271 2.271 0 0 0 2.272-2.269v-9.751a1.134 1.134 0 1 1 2.269 0zm-2.6-8.29a1.125 1.125 0 0 1 0 1.6l-4.552 4.521a1.134 1.134 0 0 0 1.6 1.609l4.549-4.521a3.394 3.394 0 0 0 0-4.819L23.988.328a1.134 1.134 0 0 0-1.6 1.609zm-2.448.741a1.134 1.134 0 0 0-1.134-1.13A15.315 15.315 0 0 0 8.043 21.385v.851a1.134 1.134 0 0 0 2.269 0v-.851A13.06 13.06 0 0 1 23.358 8.339 1.134 1.134 0 0 0 24.492 7.2zm0 0" class="prefix__cls-11" data-name="007-share" transform="translate(19.831 20.332)"/>
            </g>
            <g id="prefix__Chargebacks" transform="translate(23.235 618.626)">
                <text id="prefix__Chargebacks-2" class="prefix__cls-10" data-name="Chargebacks" transform="translate(69.765 42.617)">
                    <tspan x="0" y="0">Chargebacks</tspan>
                </text>
                <path id="prefix__Retângulo_2714-2" d="M0 0H70V70H0z" class="prefix__cls-8" data-name="Retângulo 2714" transform="translate(-.235 -.383)"/>
                <g id="prefix__inbox-24px" transform="translate(17.426 17.426)">
                    <path id="prefix__Caminho_4865" d="M0 0h34.852v34.852H0z" class="prefix__cls-8" data-name="Caminho 4865"/>
                </g>
                <g id="prefix___002-dollar" data-name="002-dollar" transform="translate(20.33 20.33)">
                    <g id="prefix__Grupo_5231" data-name="Grupo 5231">
                        <g id="prefix__Grupo_5230" data-name="Grupo 5230">
                            <path id="prefix__Caminho_4937" d="M46.783 99.61a1.134 1.134 0 1 1 .25-1.585 1.127 1.127 0 0 1-.25 1.585z" class="prefix__cls-11" data-name="Caminho 4937" transform="translate(-20.706 -92.042)"/>
                            <path id="prefix__Caminho_4938" d="M12.966 165.382a1.134 1.134 0 1 1 .728-1.43 1.126 1.126 0 0 1-.728 1.43z" class="prefix__cls-11" data-name="Caminho 4938" transform="translate(14.698 -153.923)"/>
                            <path id="prefix__Caminho_4939" d="M98.233 47.729a1.134 1.134 0 0 1-.667-.217 1.134 1.134 0 1 1 .667.217z" class="prefix__cls-11" data-name="Caminho 4939" transform="translate(-75.786 -42.904)"/>
                            <path id="prefix__Caminho_4940" d="M2.247 237.4c-.007.036-.016.072-.027.108s-.023.07-.037.1a1.1 1.1 0 0 1-.048.1 1.078 1.078 0 0 1-.057.1.933.933 0 0 1-.066.09 1.1 1.1 0 0 1-.158.158 1.051 1.051 0 0 1-.09.066 1.077 1.077 0 0 1-.1.057 1.087 1.087 0 0 1-.1.048c-.034.014-.069.027-.1.037s-.072.02-.108.027a1.028 1.028 0 0 1-.11.016 1.1 1.1 0 0 1-.223 0 1.069 1.069 0 0 1-.11-.016c-.036-.007-.072-.016-.108-.027s-.07-.023-.1-.037a1.1 1.1 0 0 1-.1-.048 1 1 0 0 1-.1-.057 1.045 1.045 0 0 1-.09-.066 1.1 1.1 0 0 1-.158-.158 1.052 1.052 0 0 1-.066-.09 1.181 1.181 0 0 1-.1-.2c-.014-.034-.027-.069-.037-.1s-.02-.072-.027-.108a1.015 1.015 0 0 1-.016-.11 1.1 1.1 0 0 1 0-.223 1.065 1.065 0 0 1 .016-.11c.007-.036.016-.072.027-.108s.023-.07.037-.1a1.1 1.1 0 0 1 .048-.1 1.074 1.074 0 0 1 .057-.1 1.118 1.118 0 0 1 .224-.247.941.941 0 0 1 .09-.066 1 1 0 0 1 .1-.057 1.079 1.079 0 0 1 .1-.048c.034-.014.069-.027.1-.037s.071-.02.108-.027a1.036 1.036 0 0 1 .11-.016 1.13 1.13 0 0 1 .223 0 1.069 1.069 0 0 1 .11.016c.036.007.072.016.108.027s.07.023.1.037a1.1 1.1 0 0 1 .1.048 1.077 1.077 0 0 1 .1.057.93.93 0 0 1 .09.066 1.1 1.1 0 0 1 .158.158.943.943 0 0 1 .066.09 1.181 1.181 0 0 1 .1.2c.014.034.027.069.037.1s.02.072.027.108a1.035 1.035 0 0 1 .016.11 1.1 1.1 0 0 1 0 .223 1.044 1.044 0 0 1-.016.109z" class="prefix__cls-11" data-name="Caminho 4940" transform="translate(26.831 -222.655)"/>
                            <path id="prefix__Caminho_4941" d="M163.865 14.233a1.134 1.134 0 1 1 1.079-.784 1.125 1.125 0 0 1-1.079.784z" class="prefix__cls-11" data-name="Caminho 4941" transform="translate(-145.148 -11.312)"/>
                            <path id="prefix__Caminho_4942" d="M170.065 92.744v.211a3.977 3.977 0 0 0 3.961 3.984h1.429a1.7 1.7 0 0 1 1.7 1.7v.741a1.7 1.7 0 0 1-1.7 1.7h-2.322a1.239 1.239 0 0 1-1.2-1.248 1.135 1.135 0 1 0-2.269 0 3.5 3.5 0 0 0 3.465 3.517h.279v1.191a1.134 1.134 0 1 0 2.269 0v-1.2a3.977 3.977 0 0 0 3.744-3.967v-.741a3.972 3.972 0 0 0-3.97-3.964h-1.429a1.705 1.705 0 0 1-1.692-1.715v-.211a1.7 1.7 0 0 1 1.692-1.7h1.351a1.2 1.2 0 0 1 1.211 1.191 1.135 1.135 0 1 0 2.269 0 3.472 3.472 0 0 0-3.177-3.446v-1.321a1.134 1.134 0 1 0-2.269 0v1.353a3.976 3.976 0 0 0-3.342 3.925z" class="prefix__cls-11" data-name="Caminho 4942" transform="translate(-160.025 -81.453)"/>
                            <path id="prefix__Caminho_4943" d="M461.37 308.949a1.135 1.135 0 1 1-.728 1.43 1.135 1.135 0 0 1 .728-1.43z" class="prefix__cls-11" data-name="Caminho 4943" transform="translate(-459.933 -291.365)"/>
                            <path id="prefix__Caminho_4944" d="M0 337.054v-.019c0-.029.008-.058.013-.087a1.125 1.125 0 0 1 .137-.348l.031-.051.022-.033c.015-.021.03-.042.046-.061l.018-.021c.018-.022.038-.043.057-.063l.013-.013c.02-.02.041-.039.063-.057l.022-.018c.02-.016.04-.031.061-.045l.032-.022.052-.032a1.125 1.125 0 0 1 .349-.131c.029-.006.059-.01.089-.014a1.128 1.128 0 0 1 .128-.008 12.315 12.315 0 0 0 10.476-5.9H9.016a1.135 1.135 0 0 1 0-2.269l3.319.005h.011a3.324 3.324 0 0 1 2.368.977 3.4 3.4 0 0 1 .994 2.432v3.28a1.135 1.135 0 1 1-2.269 0v-3.069a14.558 14.558 0 0 1-4.416 4.482 14.469 14.469 0 0 1-7.888 2.331 1.055 1.055 0 0 1-.111-.006h-.015c-.03 0-.061-.008-.091-.014a1.126 1.126 0 0 1-.347-.13l-.054-.033-.03-.02c-.022-.015-.043-.031-.063-.047l-.02-.016c-.022-.019-.044-.038-.064-.059l-.012-.012c-.02-.02-.04-.042-.058-.064l-.017-.02-.047-.062-.02-.03-.034-.055a1.126 1.126 0 0 1-.13-.348c-.006-.029-.01-.058-.013-.088v-.018a1.05 1.05 0 0 1-.009-.114 1.037 1.037 0 0 1 0-.11z" class="prefix__cls-11" data-name="Caminho 4944" transform="translate(13.389 -309.254)"/>
                            <path id="prefix__Caminho_4945" d="M236.673 3.108a1.135 1.135 0 0 1 1.135 1.135v3.069A14.521 14.521 0 0 1 250.117.5a1.145 1.145 0 0 1 .127.008c.03 0 .061.008.091.014a1.126 1.126 0 0 1 .347.13l.056.034a1.132 1.132 0 0 1 .111.083c.023.019.045.039.066.06l.01.01c.021.021.041.043.06.066l.015.016c.017.021.033.042.048.064l.019.028.034.056a1.127 1.127 0 0 1 .13.347c.006.029.01.059.013.088v.017a1.046 1.046 0 0 1 .006.112 1.064 1.064 0 0 1-.006.111v.017c0 .029-.008.059-.013.088a1.126 1.126 0 0 1-.13.348l-.034.055-.019.028-.047.064-.016.02c-.019.023-.039.044-.059.065l-.011.011c-.021.021-.043.041-.065.059l-.019.016c-.02.017-.042.032-.064.048l-.03.02-.054.033a1.126 1.126 0 0 1-.348.13c-.03.006-.06.01-.089.014h-.017a1.065 1.065 0 0 1-.11.006 12.315 12.315 0 0 0-10.476 5.9h2.593a1.135 1.135 0 0 1 0 2.269l-3.319-.005h-.017a3.325 3.325 0 0 1-2.369-.977 3.4 3.4 0 0 1-.994-2.432V4.243a1.134 1.134 0 0 1 1.136-1.135z" class="prefix__cls-11" data-name="Caminho 4945" transform="translate(-235.538 -.499)"/>
                            <path id="prefix__Caminho_4946" d="M427.561 374.734a1.135 1.135 0 1 1-.25 1.585 1.135 1.135 0 0 1 .25-1.585z" class="prefix__cls-11" data-name="Caminho 4946" transform="translate(-424.538 -353.259)"/>
                            <path id="prefix__Caminho_4947" d="M472.1 236.954c.007-.036.016-.072.027-.108s.023-.07.037-.1.03-.068.048-.1a1.016 1.016 0 0 1 .057-.1 1.15 1.15 0 0 1 .141-.172 1.039 1.039 0 0 1 .083-.075.947.947 0 0 1 .09-.066 1.181 1.181 0 0 1 .2-.1c.034-.014.069-.027.1-.037s.072-.02.108-.027a1.025 1.025 0 0 1 .11-.016 1.13 1.13 0 0 1 .223 0 1.056 1.056 0 0 1 .11.016c.036.007.072.016.108.027s.07.023.1.037a1.1 1.1 0 0 1 .1.048 1.077 1.077 0 0 1 .1.057.937.937 0 0 1 .09.066 1.109 1.109 0 0 1 .158.158 1.06 1.06 0 0 1 .066.09 1.016 1.016 0 0 1 .057.1 1.1 1.1 0 0 1 .048.1c.014.034.027.069.037.1s.02.072.027.108a1.02 1.02 0 0 1 .016.11 1.136 1.136 0 0 1-.016.334c-.007.036-.016.072-.027.108s-.023.07-.037.1-.03.068-.048.1a1.087 1.087 0 0 1-.057.1 1.14 1.14 0 0 1-.141.172 1.032 1.032 0 0 1-.083.075 1.053 1.053 0 0 1-.09.066 1.187 1.187 0 0 1-.2.1c-.034.014-.069.027-.1.037s-.072.02-.108.027a1.032 1.032 0 0 1-.11.016 1.1 1.1 0 0 1-.223 0 1.065 1.065 0 0 1-.11-.016c-.036-.007-.072-.016-.108-.027s-.07-.023-.1-.037a1.094 1.094 0 0 1-.1-.048 1.077 1.077 0 0 1-.1-.057 1.151 1.151 0 0 1-.172-.141 1.055 1.055 0 0 1-.075-.083 1.074 1.074 0 0 1-.066-.09 1.182 1.182 0 0 1-.1-.2c-.014-.034-.027-.069-.037-.1s-.02-.072-.027-.108a1.113 1.113 0 0 1-.016-.334 1.052 1.052 0 0 1 .01-.11z" class="prefix__cls-11" data-name="Caminho 4947" transform="translate(-472.079 -222.654)"/>
                            <path id="prefix__Caminho_4948" d="M376.778 426.832a1.134 1.134 0 1 1-1.585.25 1.134 1.134 0 0 1 1.585-.25z" class="prefix__cls-11" data-name="Caminho 4948" transform="translate(-369.458 -402.396)"/>
                            <path id="prefix__Caminho_4949" d="M310.818 460.163a1.134 1.134 0 1 1-1.43.728 1.135 1.135 0 0 1 1.43-.728z" class="prefix__cls-11" data-name="Caminho 4949" transform="translate(-300.084 -433.985)"/>
                        </g>
                    </g>
                </g>
            </g>
            <g id="prefix__Shippings" transform="translate(23.235 227.991)">
                <text id="prefix__Shippings-2" class="prefix__cls-10" data-name="Shippings" transform="translate(69.765 43.252)">
                    <tspan x="0" y="0">Shippings</tspan>
                </text>
                <path id="prefix__Retângulo_2714-3" d="M0 0H70V69H0z" class="prefix__cls-8" data-name="Retângulo 2714" transform="translate(-.235 .252)"/>
                <path id="prefix__Caminho_4893" d="M0 0l5.809 5.809L0 11.617" class="prefix__cls-7" data-name="Caminho 4893" transform="rotate(90 128.88 161.555)"/>
                <g id="prefix__local_shipping-24px" transform="translate(17.426 17.426)">
                    <path id="prefix__Caminho_4896" d="M0 0h34.852v34.852H0z" class="prefix__cls-8" data-name="Caminho 4896"/>
                </g>
                <path id="prefix__União_1" d="M21.668 26.3h-8.5a4.114 4.114 0 0 1-7.759 0 5.492 5.492 0 0 1-5.375-5.486v-5.846a1.372 1.372 0 1 1 2.743 0v5.846a2.747 2.747 0 0 0 2.637 2.74 4.114 4.114 0 0 1 7.757 0h8.5a4.113 4.113 0 0 1 7.757 0H32.4v-3.563a2.58 2.58 0 0 0-2.331-2.537H6.892a1.372 1.372 0 0 1 0-2.743H20.2V2.812H1.406a1.406 1.406 0 0 1 0-2.812h20.163a1.407 1.407 0 0 1 1.371 1.715v5.177h3.223a3.654 3.654 0 0 1 2.868 1.261 5.519 5.519 0 0 1 1.134 2.618l.786 4a5.358 5.358 0 0 1 4.2 5.224v4.938a1.372 1.372 0 0 1-1.376 1.367h-4.35a4.113 4.113 0 0 1-7.757 0zm2.506-1.372a1.372 1.372 0 1 0 1.372-1.372 1.374 1.374 0 0 0-1.372 1.373zm-16.253 0a1.372 1.372 0 1 0 1.372-1.372 1.374 1.374 0 0 0-1.372 1.373zM22.94 14.711h5.2l-.67-3.413a.021.021 0 0 1 0-.007c-.317-1.655-.89-1.655-1.309-1.655H22.94zM.851 11.865c-.47 0-.851-.63-.851-1.407s.381-1.406.851-1.406h7.844c.47 0 .851.63.851 1.406s-.382 1.407-.851 1.407zm.555-4.732a1.406 1.406 0 0 1 0-2.812h12.962a1.406 1.406 0 0 1 0 2.812z" class="prefix__cls-11" data-name="União 1" transform="translate(17.605 21.473)"/>
            </g>
            <g id="prefix__Customer_Service" data-name="Customer Service" transform="translate(23.235 699.948)">
                <text id="prefix__Customer_Service-2" class="prefix__cls-10" data-name="Customer Service" transform="translate(69.765 42.296)">
                    <tspan x="0" y="0">Customer Service</tspan>
                </text>
                <path id="prefix__Retângulo_2714-4" d="M0 0H70V69H0z" class="prefix__cls-8" data-name="Retângulo 2714" transform="translate(-.235 .296)"/>
                <path id="prefix__Caminho_4893-2" d="M0 0l5.809 5.809L0 11.617" class="prefix__cls-7" data-name="Caminho 4893" transform="rotate(90 128.88 161.555)"/>
                <g id="prefix___003-headset" data-name="003-headset" transform="translate(20.33 20.33)">
                    <g id="prefix__Grupo_5233" data-name="Grupo 5233">
                        <g id="prefix__Grupo_5232" data-name="Grupo 5232">
                            <path id="prefix__Caminho_4950" d="M6.807 11.515H4.565a9.986 9.986 0 0 1 19.324-2.726A1.135 1.135 0 1 0 26.017 8a12.254 12.254 0 0 0-23.746 4.125A4.54 4.54 0 0 0 0 16.053v3.857a4.543 4.543 0 0 0 4.538 4.538h2.269a1.134 1.134 0 0 0 1.135-1.135V12.65a1.134 1.134 0 0 0-1.135-1.135zM5.673 22.18H4.538a2.272 2.272 0 0 1-2.269-2.269v-3.858a2.272 2.272 0 0 1 2.269-2.269h1.135z" class="prefix__cls-11" data-name="Caminho 4950"/>
                            <path id="prefix__Caminho_4951" d="M228.253 203h-2.269a1.134 1.134 0 0 0-1.134 1.134v11.856a1.136 1.136 0 0 1-1.135 1.135h-3.46v.036a2.269 2.269 0 1 0 0 2.2v.036h3.46a3.407 3.407 0 0 0 3.4-3.4v-.057h1.135a4.543 4.543 0 0 0 4.538-4.538v-3.857a4.543 4.543 0 0 0-4.535-4.545zm2.269 8.4a2.272 2.272 0 0 1-2.269 2.269h-1.135v-8.4h1.135a2.272 2.272 0 0 1 2.269 2.269z" class="prefix__cls-11" data-name="Caminho 4951" transform="translate(-203.747 -191.485)"/>
                        </g>
                    </g>
                </g>
            </g>
            <g id="prefix__Withdraw" transform="translate(23.235 309.313)">
                <text id="prefix__Withdraw-2" class="prefix__cls-10" data-name="Withdraw" transform="translate(69.765 42.93)">
                    <tspan x="0" y="0">Withdraw</tspan>
                </text>
                <path id="prefix__Retângulo_2727-2" d="M0 0H70V70H0z" class="prefix__cls-8" data-name="Retângulo 2727" transform="translate(-.235 -.07)"/>
                <g id="prefix___006-withdraw" data-name="006-withdraw" transform="translate(20.33 20.33)">
                    <g id="prefix__Grupo_5239" data-name="Grupo 5239">
                        <g id="prefix__Grupo_5238" data-name="Grupo 5238">
                            <path id="prefix__Caminho_4955" d="M175.279 265.574l-2.1 2.071v-10.51a1.135 1.135 0 1 0-2.269 0v10.4l-1.982-1.959a1.135 1.135 0 1 0-1.595 1.614l2.359 2.331a3.4 3.4 0 0 0 4.818 0l2.359-2.331a1.135 1.135 0 0 0-1.595-1.614z" class="prefix__cls-12" data-name="Caminho 4955" transform="translate(-157.527 -241.478)"/>
                            <path id="prefix__Caminho_4956" d="M325.984 276a1.135 1.135 0 0 0-1.135 1.135 2.272 2.272 0 0 1-2.269 2.269h-5.446a1.134 1.134 0 1 0 0 2.269h5.446a4.543 4.543 0 0 0 4.538-4.538 1.135 1.135 0 0 0-1.134-1.135z" class="prefix__cls-12" data-name="Caminho 4956" transform="translate(-298.075 -260.344)"/>
                            <path id="prefix__Caminho_4957" d="M163.859 88.8a1.134 1.134 0 0 0 1.568-.34 6.381 6.381 0 0 0 1.032-3.46A5.742 5.742 0 1 0 155 85a6.236 6.236 0 0 0 .978 3.462 1.134 1.134 0 0 0 1.9-1.237 4.009 4.009 0 0 1-.609-2.225 3.481 3.481 0 1 1 6.921 0 4.117 4.117 0 0 1-.67 2.229 1.135 1.135 0 0 0 .339 1.571z" class="prefix__cls-12" data-name="Caminho 4957" transform="translate(-146.208 -74.404)"/>
                            <circle id="prefix__Elipse_138" cx="1.135" cy="1.135" r="1.135" class="prefix__cls-12" data-name="Elipse 138" transform="translate(22.407 9.473)"/>
                            <circle id="prefix__Elipse_139" cx="1.135" cy="1.135" r="1.135" class="prefix__cls-12" data-name="Elipse 139" transform="translate(4.368 9.473)"/>
                            <path id="prefix__Caminho_4958" d="M24.505 0H4.538A4.543 4.543 0 0 0 0 4.538v12.253a4.543 4.543 0 0 0 4.538 4.538h5.446a1.135 1.135 0 1 0 0-2.269H4.538a2.272 2.272 0 0 1-2.269-2.269V4.538a2.272 2.272 0 0 1 2.269-2.269h19.967a2.272 2.272 0 0 1 2.269 2.269v6.58a1.135 1.135 0 1 0 2.269 0v-6.58A4.543 4.543 0 0 0 24.505 0z" class="prefix__cls-12" data-name="Caminho 4958"/>
                        </g>
                    </g>
                </g>
            </g>
            <g id="prefix__BotMenu" transform="translate(0 1196.591)">
                <g id="prefix__Grupo_5223" data-name="Grupo 5223">
                    <path id="prefix__Caminho_4888-4" d="M0 0h334v328.191H0z" class="prefix__cls-2" data-name="Caminho 4888"/>
                </g>
                <g id="prefix__Grupo_de_máscara_1" data-name="Grupo de máscara 1">
                    <g id="prefix__Grupo_5244" data-name="Grupo 5244" transform="translate(-399.804 -108.913)">
                        <path id="prefix__Caminho_4087" d="M195.472 0C303.26 0 390.951 87.691 390.951 195.476S303.26 390.952 195.472 390.952a16.485 16.485 0 0 1 0-32.971c89.6 0 162.5-72.9 162.5-162.5s-72.9-162.505-162.5-162.505-162.5 72.9-162.5 162.505a16.485 16.485 0 1 1-32.971 0C0 87.691 87.688 0 195.472 0z" data-name="Caminho 4087" transform="rotate(-73 271.745 186.068)" style="opacity:.46;fill:#ffd95a"/>
                        <path id="prefix__Caminho_4088" d="M1086.077 1283.9c-143.728 0-260.658-116.931-260.658-260.659s116.931-260.66 260.658-260.66a21.982 21.982 0 1 1 0 43.963c-119.482 0-216.692 97.209-216.692 216.692s97.209 216.692 216.692 216.692 216.692-97.206 216.692-216.692a21.984 21.984 0 0 1 43.967 0c0 143.728-116.931 260.664-260.659 260.664z" data-name="Caminho 4088" transform="translate(-825.419 -762.581)" style="fill:#fff100;opacity:.46"/>
                        <path id="prefix__Caminho_4090" d="M586.344 884.064A124.065 124.065 0 1 1 710.412 760a124.2 124.2 0 0 1-124.068 124.064zm0-215.337A91.272 91.272 0 1 0 677.619 760a91.376 91.376 0 0 0-91.275-91.273z" data-name="Caminho 4090" transform="translate(158.254 -300.29)" style="opacity:.58;fill:#ff0"/>
                        <path id="prefix__Caminho_4091" d="M559.194 839.167A107.668 107.668 0 1 1 666.865 731.5a107.791 107.791 0 0 1-107.671 107.667zm0-186.877a79.211 79.211 0 1 0 79.211 79.21 79.3 79.3 0 0 0-79.211-79.21z" data-name="Caminho 4091" transform="translate(250.761 -413.139)" style="opacity:.58;fill:#fff"/>
                    </g>
                </g>
            </g>
        </g>
    </g>
</svg>
