<svg xmlns="http://www.w3.org/2000/svg" width="86" height="63" viewBox="0 0 86 63">
    <defs>
        <style>
            .prefix__cls-1{fill:#fed370;stroke-linejoin:round}.prefix__cls-1,.prefix__cls-2{stroke:#ffa701;stroke-linecap:round;stroke-width:6px}.prefix__cls-2,.prefix__cls-4{fill:none}.prefix__cls-3{stroke:none}
        </style>
    </defs>
    <g id="prefix__Grupo_5062" data-name="Grupo 5062" transform="translate(-681 -473)">
        <g id="prefix__Grupo_4783" data-name="Grupo 4783" transform="translate(4 -9)">
            <g id="prefix__Retângulo_2552" class="prefix__cls-1" data-name="Retângulo 2552" transform="translate(677 482)">
                <rect width="63" height="36" class="prefix__cls-3" rx="6"/>
                <rect width="57" height="30" x="3" y="3" class="prefix__cls-4" rx="3"/>
            </g>
            <path id="prefix__Caminho_3362" d="M126.04 8342.542h7.986" class="prefix__cls-2" data-name="Caminho 3362" transform="translate(561.373 -7849.728)"/>
            <path id="prefix__Caminho_3363" d="M124.04 8342.542h14.374" class="prefix__cls-2" data-name="Caminho 3363" transform="translate(591.323 -7849.728)"/>
            <path id="prefix__Caminho_3364" d="M119.04 8342.542h42.324" class="prefix__cls-2" data-name="Caminho 3364" transform="translate(568.373 -7840.145)"/>
        </g>
        <g id="prefix__Grupo_4828" data-name="Grupo 4828" transform="translate(27)">
            <g id="prefix__Retângulo_2552-2" class="prefix__cls-1" data-name="Retângulo 2552" transform="translate(677 482)">
                <rect width="63" height="36" class="prefix__cls-3" rx="6"/>
                <rect width="57" height="30" x="3" y="3" class="prefix__cls-4" rx="3"/>
            </g>
            <path id="prefix__Caminho_3362-2" d="M126.04 8342.542h7.986" class="prefix__cls-2" data-name="Caminho 3362" transform="translate(561.373 -7849.728)"/>
            <path id="prefix__Caminho_3363-2" d="M124.04 8342.542h14.374" class="prefix__cls-2" data-name="Caminho 3363" transform="translate(591.323 -7849.728)"/>
            <path id="prefix__Caminho_3364-2" d="M119.04 8342.542h42.324" class="prefix__cls-2" data-name="Caminho 3364" transform="translate(568.373 -7840.145)"/>
        </g>
        <g id="prefix__Grupo_4829" data-name="Grupo 4829" transform="translate(12 18)">
            <g id="prefix__Retângulo_2552-3" class="prefix__cls-1" data-name="Retângulo 2552" transform="translate(677 482)">
                <rect width="63" height="36" class="prefix__cls-3" rx="6"/>
                <rect width="57" height="30" x="3" y="3" class="prefix__cls-4" rx="3"/>
            </g>
            <path id="prefix__Caminho_3362-3" d="M126.04 8342.542h7.986" class="prefix__cls-2" data-name="Caminho 3362" transform="translate(561.373 -7849.728)"/>
            <path id="prefix__Caminho_3363-3" d="M124.04 8342.542h14.374" class="prefix__cls-2" data-name="Caminho 3363" transform="translate(591.323 -7849.728)"/>
            <path id="prefix__Caminho_3364-3" d="M119.04 8342.542h42.324" class="prefix__cls-2" data-name="Caminho 3364" transform="translate(568.373 -7840.145)"/>
        </g>
    </g>
</svg>
