<svg xmlns="http://www.w3.org/2000/svg" id="prefix__surface1" width="70.5" height="70.5" viewBox="0 0 70.5 70.5">
    <defs>
        <style>
            .prefix__cls-1{fill:#adadad}
        </style>
    </defs>
    <path id="prefix__Path_5040" d="M58.75 12.448V5.875A5.882 5.882 0 0052.875 0h-47A5.882 5.882 0 000 5.875v25.85a5.863 5.863 0 005.269 5.814L9.686 49a5.876 5.876 0 007.594 3.37l27.581-10.62a16.986 16.986 0 001.463 15.081l.676 1.08v11.414a1.175 1.175 0 001.175 1.175h21.15a1.175 1.175 0 001.175-1.175V30.54A15.377 15.377 0 0066 19.709zm0 7.027l3.566 9.257a3.525 3.525 0 01-2.024 4.555l-2.038.787a5.877 5.877 0 00.5-2.35zm-56.4 12.25V5.875A3.526 3.526 0 015.875 2.35h47A3.526 3.526 0 0156.4 5.875v7.468h-.01l.01.027v18.355a3.568 3.568 0 01-.08.609L45.557 21.569a6.269 6.269 0 00-9.047 8.669l4.59 5.012H5.875a3.526 3.526 0 01-3.525-3.525zM17.4 37.6l-8.352 3.217L7.811 37.6zm-.968 12.582a3.525 3.525 0 01-4.557-2.022L9.9 43.005l14.026-5.4v-.007h19.33l1.527 1.665zM68.15 68.15h-18.8v-9.4h18.8zm0-11.75H48.827l-.51-.814a14.652 14.652 0 01-.3-15.048 1.175 1.175 0 00-.154-1.377l-9.629-10.5a3.919 3.919 0 015.658-5.42l18.724 18.72 1.661-1.661-4.348-4.347 1.206-.47a5.875 5.875 0 003.369-7.591L60.53 17.559l3.806 3.814a13.012 13.012 0 013.814 9.167zm0 0" class="prefix__cls-1" data-name="Path 5040"/>
    <path id="prefix__Path_5041" d="M71.195 74.25a3.055 3.055 0 003.055-3.055v-5.64a3.055 3.055 0 00-3.055-3.055h-5.64a3.055 3.055 0 00-3.055 3.055v5.64a3.055 3.055 0 003.055 3.055zm-6.345-3.055V69.55h2.35V67.2h-2.35v-1.645a.705.705 0 01.705-.705h5.64a.705.705 0 01.705.705V67.2h-2.35v2.35h2.35v1.645a.705.705 0 01-.705.705h-5.64a.705.705 0 01-.705-.705zm0 0" class="prefix__cls-1" data-name="Path 5041" transform="translate(-57.8 -57.8)"/>
    <path id="prefix__Path_5042" d="M78.125 265.625h4.7v2.35h-4.7zm0 0" class="prefix__cls-1" data-name="Path 5042" transform="translate(-72.25 -245.65)"/>
    <path id="prefix__Path_5043" d="M78.125 359.375h4.7v2.35h-4.7zm0 0" class="prefix__cls-1" data-name="Path 5043" transform="translate(-72.25 -332.35)"/>
    <path id="prefix__Path_5044" d="M359.375 359.375h4.7v2.35h-4.7zm0 0" class="prefix__cls-1" data-name="Path 5044" transform="translate(-332.35 -332.35)"/>
    <path id="prefix__Path_5045" d="M171.875 265.625h4.7v2.35h-4.7zm0 0" class="prefix__cls-1" data-name="Path 5045" transform="translate(-158.95 -245.65)"/>
    <path id="prefix__Path_5046" d="M265.625 265.625h4.7v2.35h-4.7zm0 0" class="prefix__cls-1" data-name="Path 5046" transform="translate(-245.65 -245.65)"/>
    <path id="prefix__Path_5047" d="M359.375 265.625h4.7v2.35h-4.7zm0 0" class="prefix__cls-1" data-name="Path 5047" transform="translate(-332.35 -245.65)"/>
    <path id="prefix__Path_5048" d="M656.25 78.125h2.35v3.525h-2.35zm0 0" class="prefix__cls-1" data-name="Path 5048" transform="translate(-606.9 -72.25)"/>
    <path id="prefix__Path_5049" d="M593.75 78.125h2.35v3.525h-2.35zm0 0" class="prefix__cls-1" data-name="Path 5049" transform="translate(-549.1 -72.25)"/>
    <path id="prefix__Path_5050" d="M531.25 78.125h2.35v3.525h-2.35zm0 0" class="prefix__cls-1" data-name="Path 5050" transform="translate(-491.3 -72.25)"/>
    <path id="prefix__Path_5051" d="M468.75 78.125h2.35v3.525h-2.35zm0 0" class="prefix__cls-1" data-name="Path 5051" transform="translate(-433.5 -72.25)"/>
    <path id="prefix__Path_5052" d="M687.5 812.5h2.35v2.35h-2.35zm0 0" class="prefix__cls-1" data-name="Path 5052" transform="translate(-635.8 -751.4)"/>
</svg>
