<svg xmlns="http://www.w3.org/2000/svg" id="prefix__TRASH_ICON" width="32" height="32" data-name="TRASH ICON" viewBox="0 0 32 32">
    <defs>
        <style>
            .prefix__cls-2{fill:#4c4c4c}
        </style>
    </defs>
    <circle id="prefix__Elipse_511" cx="16" cy="16" r="16" data-name="Elipse 511" style="opacity:0;fill:#4c4c4c"/>
    <g id="prefix__Grupo_3120" data-name="Grupo 3120" transform="translate(-366.721 793.49)">
        <path id="prefix__Caminho_2225" d="M388.574-764.8h-9.359a2.521 2.521 0 0 1-2.494-2.545v-12.145h14.328v12.149a2.52 2.52 0 0 1-2.475 2.541zm-10.551-13.358v10.814a1.2 1.2 0 0 0 1.179 1.209h9.372a1.194 1.194 0 0 0 1.172-1.209v-10.814z" class="prefix__cls-2" data-name="Caminho 2225" transform="translate(-.664 -2.694)"/>
        <path id="prefix__Caminho_2226" d="M389.76-779.483h-13.077a1.983 1.983 0 0 1-1.962-2 1.983 1.983 0 0 1 1.962-2h13.077a1.983 1.983 0 0 1 1.962 2 1.983 1.983 0 0 1-1.962 2zm-13.077-2.672a.661.661 0 0 0-.654.668.661.661 0 0 0 .654.668h13.077a.661.661 0 0 0 .654-.668.66.66 0 0 0-.654-.668z" class="prefix__cls-2" data-name="Caminho 2226" transform="translate(0 -1.328)"/>
        <path id="prefix__Caminho_2227" d="M389.736-783.482h-8.015v-2.672a1.336 1.336 0 0 1 1.336-1.336h5.343a1.335 1.335 0 0 1 1.336 1.336zm-6.679-1.336h5.343v-1.336h-5.343z" class="prefix__cls-2" data-name="Caminho 2227" transform="translate(-2.508)"/>
        <path id="prefix__Caminho_2228" d="M383.839-773.48a.667.667 0 0 1 .668.668v5.343a.668.668 0 0 1-.668.668.668.668 0 0 1-.668-.668v-5.343a.668.668 0 0 1 .668-.668z" class="prefix__cls-2" data-name="Caminho 2228" transform="translate(-2.935 -4.679)"/>
        <path id="prefix__Caminho_2229" d="M390.969-773.48a.667.667 0 0 1 .668.668v5.343a.668.668 0 0 1-.668.668.668.668 0 0 1-.668-.668v-5.343a.668.668 0 0 1 .668-.668z" class="prefix__cls-2" data-name="Caminho 2229" transform="translate(-5.411 -4.679)"/>
    </g>
</svg>
