<svg xmlns="http://www.w3.org/2000/svg" id="prefix__Grupo_5583" width="1440" height="900" data-name="Grupo 5583" viewBox="0 0 1440 900">
    <defs>
        <clipPath id="prefix__clip-path">
            <path id="prefix__Retângulo_2923" d="M0 0H219V899H0z" class="prefix__cls-1" data-name="Retângulo 2923"/>
        </clipPath>
        <clipPath id="prefix__clip-path-2">
            <path id="prefix__Retângulo_2926" d="M0 0H481V900H0z" class="prefix__cls-1" data-name="Retângulo 2926" transform="translate(959)"/>
        </clipPath>
        <clipPath id="prefix__clip-path-3">
            <path id="prefix__Caminho_4844" d="M22.637-.167L628 0v900H-80z" class="prefix__cls-2" data-name="Caminho 4844" transform="translate(812)"/>
        </clipPath>
        <clipPath id="prefix__clip-path-4">
            <path id="prefix__Retângulo_2924" d="M0 0H481V297H0z" class="prefix__cls-1" data-name="Retângulo 2924" transform="translate(959 603)"/>
        </clipPath>
        <linearGradient id="prefix__linear-gradient" x1=".334" x2=".317" y1=".977" y2=".2" gradientUnits="objectBoundingBox">
            <stop offset="0" stop-color="#ffe800"/>
            <stop offset="1" stop-color="#ffda00"/>
        </linearGradient>
        <linearGradient id="prefix__linear-gradient-2" x1=".5" x2=".5" y2="1" gradientUnits="objectBoundingBox">
            <stop offset="0" stop-color="#f7f7f7"/>
            <stop offset="1" stop-color="#e2e2e2"/>
        </linearGradient>
        <style>
            .prefix__cls-1,.prefix__cls-7{fill:#fff}.prefix__cls-1{stroke:#707070}.prefix__cls-2{fill:url(#prefix__linear-gradient)}.prefix__cls-4{fill:#ffda00}.prefix__cls-6{fill:none;stroke:#fff;stroke-width:4px}.prefix__cls-9{fill:#efefef;opacity:.46}
        </style>
    </defs>
    <path id="prefix__Retângulo_2925" d="M0 0H1440V900H0z" data-name="Retângulo 2925"/>
    <path id="prefix__Caminho_4813" d="M525.668 772.116a74.143 74.143 0 1 1 74.145-74.141 74.227 74.227 0 0 1-74.145 74.141zm0-128.687a54.546 54.546 0 1 0 54.546 54.546 54.608 54.608 0 0 0-54.546-54.547z" class="prefix__cls-4" data-name="Caminho 4813" transform="translate(665.551 -579.743)"/>
    <g id="prefix__Grupo_de_máscara_5" data-name="Grupo de máscara 5">
        <g id="prefix__Grupo_5219" data-name="Grupo 5219">
            <path id="prefix__Caminho_4829" d="M134.607 0c74.225 0 134.611 60.386 134.611 134.609s-60.386 134.609-134.611 134.609a11.352 11.352 0 0 1 0-22.7 111.9 111.9 0 1 0-111.9-111.9 11.352 11.352 0 1 1-22.7 0C0 60.386 60.384 0 134.607 0z" class="prefix__cls-6" data-name="Caminho 4829" transform="rotate(-73 553.401 585.62)"/>
            <path id="prefix__Caminho_4831" d="M525.668 772.116a74.143 74.143 0 1 1 74.145-74.141 74.227 74.227 0 0 1-74.145 74.141zm0-128.687a54.546 54.546 0 1 0 54.546 54.546 54.608 54.608 0 0 0-54.546-54.547z" class="prefix__cls-7" data-name="Caminho 4831" transform="translate(-507.449 -685.744)"/>
        </g>
    </g>
    <g id="prefix__Grupo_de_máscara_7" data-name="Grupo de máscara 7">
        <path id="prefix__Caminho_4827" d="M134.607 0c74.225 0 134.611 60.386 134.611 134.609s-60.386 134.609-134.611 134.609a11.352 11.352 0 0 1 0-22.7 111.9 111.9 0 1 0-111.9-111.9 11.352 11.352 0 1 1-22.7 0C0 60.386 60.384 0 134.607 0z" class="prefix__cls-9" data-name="Caminho 4827" transform="rotate(-73 1102.17 -218.177)"/>
        <path id="prefix__Caminho_4843" d="M24 0h604v900H-80z" class="prefix__cls-2" data-name="Caminho 4843" transform="translate(1202)"/>
        <g id="prefix__Grupo_de_máscara_2" data-name="Grupo de máscara 2" transform="translate(390)">
            <path id="prefix__Caminho_4087" d="M134.607 0c74.225 0 134.611 60.386 134.611 134.609s-60.386 134.609-134.611 134.609a11.352 11.352 0 0 1 0-22.7 111.9 111.9 0 1 0-111.9-111.9 11.352 11.352 0 1 1-22.7 0C0 60.386 60.384 0 134.607 0z" data-name="Caminho 4087" transform="rotate(-73 909.022 45.674)" style="opacity:.72;fill:#ffd95a"/>
            <path id="prefix__Caminho_4815" d="M134.607 0c74.225 0 134.611 60.386 134.611 134.609s-60.386 134.609-134.611 134.609a11.352 11.352 0 0 1 0-22.7 111.9 111.9 0 1 0-111.9-111.9 11.352 11.352 0 1 1-22.7 0C0 60.386 60.384 0 134.607 0z" class="prefix__cls-6" data-name="Caminho 4815" transform="rotate(-73 640.559 -809.672)"/>
            <path id="prefix__Caminho_4088" d="M1004.914 1121.57c-98.974 0-179.5-80.521-179.5-179.5s80.521-179.493 179.5-179.493a15.137 15.137 0 1 1 0 30.274c-82.278 0-149.219 66.94-149.219 149.219s66.941 149.219 149.219 149.219 149.219-66.938 149.219-149.219a15.138 15.138 0 0 1 30.277 0c0 98.979-80.521 179.5-179.496 179.5z" data-name="Caminho 4088" transform="translate(-235.733 -130.581)" style="fill:#fff100;opacity:.72"/>
            <path id="prefix__Caminho_4086" d="M1499.246 1616.531c-.116 0-.578 0-.69-.012-12.971-.036-26.679-.466-40.053-1.4a9.969 9.969 0 0 1 1.383-19.889c12.919.905 26.046 1.36 39.013 1.36a10.121 10.121 0 0 1 10.144 9.969 9.828 9.828 0 0 1-9.797 9.972zm40.045-1.431a9.971 9.971 0 0 1-.7-19.917c13.063-.925 26.233-2.337 39.145-4.179a9.968 9.968 0 1 1 2.827 19.734c-13.377 1.914-27.022 3.373-40.556 4.338-.237.015-.48.024-.716.024zm-119.942-4.163a9.946 9.946 0 0 1-1.411-.1c-13.442-1.906-26.955-4.322-40.154-7.174a9.965 9.965 0 0 1 4.2-19.482c12.74 2.748 25.779 5.072 38.754 6.914a9.97 9.97 0 0 1-1.392 19.841zm199.24-7.193a9.97 9.97 0 0 1-2.1-19.714c12.784-2.775 25.615-6.045 38.136-9.725a9.969 9.969 0 0 1 5.626 19.128c-12.983 3.816-26.286 7.209-39.536 10.08a10.206 10.206 0 0 1-2.126.23zm-277.552-9.7a9.989 9.989 0 0 1-2.8-.4c-13-3.8-26.026-8.118-38.722-12.847a9.969 9.969 0 0 1 6.954-18.685c12.25 4.558 24.822 8.729 37.358 12.4a9.97 9.97 0 0 1-2.791 19.539zm354.43-12.867a9.971 9.971 0 0 1-3.489-19.311c12.209-4.562 24.427-9.634 36.309-15.073a9.967 9.967 0 1 1 8.3 18.123c-12.317 5.642-24.981 10.9-37.633 15.627a10.028 10.028 0 0 1-3.487.631zm-429.561-15.1a9.976 9.976 0 0 1-4.131-.905c-12.293-5.611-24.579-11.759-36.513-18.274a9.969 9.969 0 0 1 9.554-17.5c11.516 6.292 23.374 12.221 35.237 17.636a9.973 9.973 0 0 1-4.147 19.044zm502.331-18.226a9.969 9.969 0 0 1-4.8-18.713c11.448-6.264 22.824-13.035 33.817-20.112a9.967 9.967 0 1 1 10.794 16.759c-11.388 7.337-23.179 14.351-35.038 20.846a9.932 9.932 0 0 1-4.773 1.221zm-572.689-20.208a9.892 9.892 0 0 1-5.383-1.587c-11.388-7.313-22.665-15.144-33.522-23.279a9.967 9.967 0 1 1 11.946-15.958c10.487 7.843 21.369 15.407 32.354 22.469a9.97 9.97 0 0 1-5.4 18.354zm640-23.159a9.969 9.969 0 0 1-5.989-17.943c10.458-7.839 20.763-16.157 30.635-24.726a9.969 9.969 0 1 1 13.066 15.061c-10.227 8.872-20.905 17.493-31.739 25.615a9.926 9.926 0 0 1-5.969 1.993zm-704.162-24.874a9.925 9.925 0 0 1-6.524-2.432c-10.212-8.84-20.26-18.187-29.87-27.781a9.967 9.967 0 1 1 14.08-14.112c9.283 9.263 18.988 18.286 28.841 26.819a9.969 9.969 0 0 1-6.527 17.5zm764.672-27.617a9.966 9.966 0 0 1-7.045-17.014c9.234-9.239 18.266-18.932 26.835-28.821a9.968 9.968 0 1 1 15.061 13.063c-8.876 10.24-18.23 20.284-27.8 29.854a9.945 9.945 0 0 1-7.047 2.919zM1074.7 1423a9.943 9.943 0 0 1-7.532-3.433c-8.88-10.224-17.5-20.9-25.631-31.724a9.968 9.968 0 1 1 15.942-11.97c7.843 10.451 16.169 20.751 24.746 30.619A9.971 9.971 0 0 1 1074.7 1423zm873.851-31.545a9.968 9.968 0 0 1-7.966-15.95c7.855-10.479 15.419-21.361 22.489-32.342a9.971 9.971 0 0 1 16.767 10.794c-7.325 11.376-15.164 22.648-23.306 33.51a9.964 9.964 0 0 1-7.983 3.986zm-921.944-32.5a9.949 9.949 0 0 1-8.381-4.562c-7.345-11.388-14.367-23.171-20.87-35.025a9.971 9.971 0 0 1 17.485-9.59c6.272 11.444 13.051 22.816 20.136 33.805a9.966 9.966 0 0 1-8.37 15.371zm965.335-34.9a9.965 9.965 0 0 1-8.737-14.749c6.285-11.492 12.221-23.343 17.656-35.225a9.967 9.967 0 0 1 18.131 8.286c-5.63 12.317-11.787 24.6-18.3 36.5a9.956 9.956 0 0 1-8.748 5.186zm-1003.826-35.3a9.97 9.97 0 0 1-9.067-5.818c-5.65-12.321-10.917-24.981-15.651-37.629a9.969 9.969 0 1 1 18.673-6.986c4.566 12.2 9.646 24.415 15.1 36.306a9.981 9.981 0 0 1-9.055 14.127zm1037.18-37.633a9.973 9.973 0 0 1-9.338-13.454c4.565-12.253 8.744-24.818 12.417-37.354a9.97 9.97 0 0 1 19.136 5.606c-3.808 12.987-8.138 26.014-12.871 38.71a9.975 9.975 0 0 1-9.34 6.493zm-1065.26-37.35a9.976 9.976 0 0 1-9.558-7.157c-3.824-12.987-7.225-26.285-10.108-39.528a9.971 9.971 0 0 1 19.487-4.235c2.775 12.776 6.057 25.6 9.745 38.132a9.972 9.972 0 0 1-9.566 12.788zm1087.793-39.523a9.991 9.991 0 0 1-9.757-12.082c2.759-12.744 5.1-25.779 6.946-38.746a9.967 9.967 0 0 1 19.734 2.811c-1.914 13.438-4.334 26.947-7.193 40.153a9.97 9.97 0 0 1-9.728 7.865zM942.984 1135.5a9.968 9.968 0 0 1-9.857-8.549c-1.918-13.366-3.389-27.007-4.362-40.548a9.969 9.969 0 0 1 19.885-1.436c.941 13.079 2.356 26.245 4.211 39.148a9.966 9.966 0 0 1-8.449 11.284 10.171 10.171 0 0 1-1.428.101zm1116.151-40.556c-.239 0-.471-.008-.714-.024a9.968 9.968 0 0 1-9.243-10.643c.917-13.031 1.379-26.269 1.379-39.356v-1.4a9.969 9.969 0 1 1 19.937 0v1.32c0 13.629-.482 27.338-1.427 40.835a9.971 9.971 0 0 1-9.932 9.268zM937.258 1055.6a9.967 9.967 0 0 1-9.969-9.969v-.542c0-13.506.462-26.975 1.38-40.2a9.968 9.968 0 0 1 19.889 1.38c-.885 12.764-1.332 25.771-1.332 38.658v.706a9.967 9.967 0 0 1-9.968 9.967zm1121.75-42.163a9.971 9.971 0 0 1-9.929-9.239c-.961-13.1-2.393-26.261-4.263-39.14a9.97 9.97 0 0 1 19.734-2.859c1.93 13.338 3.417 26.979 4.414 40.536a9.965 9.965 0 0 1-9.214 10.674c-.25.016-.495.024-.742.024zm-1116.2-37.749a10.476 10.476 0 0 1-1.4-.1 9.973 9.973 0 0 1-8.481-11.265c1.894-13.426 4.294-26.935 7.142-40.169a9.97 9.97 0 0 1 19.494 4.195c-2.751 12.764-5.068 25.807-6.894 38.758a9.964 9.964 0 0 1-9.86 8.577zm1104.7-41.521a9.974 9.974 0 0 1-9.733-7.844c-2.779-12.724-6.073-25.547-9.793-38.115a9.969 9.969 0 1 1 19.12-5.654c3.856 13.027 7.269 26.321 10.152 39.511a9.99 9.99 0 0 1-9.745 12.1zm-1087.86-36.796a10.154 10.154 0 0 1-2.8-.4 9.973 9.973 0 0 1-6.779-12.365c3.792-12.995 8.107-26.026 12.824-38.729a9.968 9.968 0 1 1 18.689 6.942c-4.55 12.257-8.712 24.83-12.369 37.374a9.984 9.984 0 0 1-9.565 7.178zM2024.8 857.345a9.971 9.971 0 0 1-9.331-6.468c-4.578-12.186-9.673-24.4-15.144-36.281a9.97 9.97 0 1 1 18.115-8.334c5.666 12.317 10.949 24.973 15.694 37.609a9.973 9.973 0 0 1-9.334 13.474zM987.552 822.24a9.979 9.979 0 0 1-9.06-14.107c5.61-12.317 11.755-24.606 18.254-36.525a9.968 9.968 0 1 1 17.5 9.55c-6.268 11.5-12.2 23.354-17.616 35.245a9.968 9.968 0 0 1-9.078 5.837zm1003.805-37.605a9.971 9.971 0 0 1-8.745-5.164c-6.3-11.444-13.083-22.812-20.176-33.777a9.967 9.967 0 1 1 16.735-10.83c7.357 11.364 14.386 23.139 20.91 35a9.97 9.97 0 0 1-8.725 14.773zm-965.415-32.789a9.966 9.966 0 0 1-8.378-15.352c7.321-11.4 15.148-22.685 23.263-33.534a9.968 9.968 0 1 1 15.966 11.938c-7.831 10.475-15.387 21.365-22.453 32.366a9.957 9.957 0 0 1-8.397 4.582zm921.924-34.446a9.963 9.963 0 0 1-7.971-3.972c-7.859-10.443-16.2-20.739-24.782-30.592a9.968 9.968 0 1 1 15.037-13.091c8.892 10.208 17.533 20.87 25.671 31.688a9.968 9.968 0 0 1-7.955 15.966zm-873.927-29.742a9.971 9.971 0 0 1-7.532-16.492c8.864-10.252 18.207-20.308 27.768-29.89a9.967 9.967 0 1 1 14.112 14.08c-9.227 9.251-18.242 18.956-26.8 28.853a9.937 9.937 0 0 1-7.548 3.448zm821.313-30.671a9.949 9.949 0 0 1-7.034-2.9c-9.274-9.239-18.988-18.25-28.873-26.792a9.969 9.969 0 1 1 13.039-15.084c10.236 8.848 20.3 18.179 29.9 27.748a9.967 9.967 0 0 1-7.034 17.03zm-764.723-26.058a9.969 9.969 0 0 1-6.548-17.493c10.192-8.856 20.858-17.485 31.7-25.647a9.966 9.966 0 1 1 11.986 15.926c-10.471 7.887-20.771 16.217-30.6 24.77a9.948 9.948 0 0 1-6.538 2.443zM1834.6 604.6a9.933 9.933 0 0 1-5.957-1.982c-10.452-7.807-21.349-15.359-32.382-22.433a9.969 9.969 0 0 1 10.762-16.783c11.432 7.329 22.721 15.148 33.55 23.243a9.968 9.968 0 0 1-5.973 17.955zm-640.049-21.8a9.97 9.97 0 0 1-5.419-18.342c11.356-7.337 23.135-14.363 35.013-20.886a9.97 9.97 0 0 1 9.6 17.477c-11.464 6.3-22.836 13.075-33.793 20.156a9.919 9.919 0 0 1-5.401 1.595zm572.566-21.468a9.912 9.912 0 0 1-4.757-1.216c-11.508-6.26-23.366-12.178-35.257-17.593a9.966 9.966 0 0 1 8.254-18.143c12.321 5.606 24.614 11.739 36.537 18.23a9.968 9.968 0 0 1-4.777 18.721zm-502.4-17.062a9.973 9.973 0 0 1-4.171-19.032c12.317-5.662 24.977-10.933 37.617-15.671a9.968 9.968 0 1 1 7 18.665c-12.2 4.573-24.407 9.661-36.293 15.12a9.9 9.9 0 0 1-4.149.913zm429.414-16.137a10.015 10.015 0 0 1-3.469-.626c-12.266-4.546-24.837-8.7-37.378-12.349a9.97 9.97 0 1 1 5.579-19.144c12.991 3.78 26.018 8.091 38.733 12.8a9.973 9.973 0 0 1-3.465 19.323zm-354.462-11.982a9.97 9.97 0 0 1-2.819-19.53c13.027-3.848 26.325-7.257 39.523-10.128a9.966 9.966 0 1 1 4.247 19.475c-12.732 2.779-25.56 6.065-38.124 9.773a9.932 9.932 0 0 1-2.823.405zm277.552-10.4a10.023 10.023 0 0 1-2.1-.227c-12.759-2.739-25.8-5.048-38.761-6.87a9.968 9.968 0 0 1 2.775-19.742c13.43 1.886 26.947 4.279 40.169 7.118a9.972 9.972 0 0 1-2.082 19.722zm-199.3-6.7a9.97 9.97 0 0 1-1.412-19.838c13.358-1.926 27-3.4 40.548-4.382a9.967 9.967 0 0 1 1.44 19.881c-13.075.949-26.245 2.376-39.141 4.239a10.312 10.312 0 0 1-1.43.097zm119.979-4.461q-.346 0-.693-.024c-12.657-.869-25.543-1.308-38.312-1.308h-1.057a9.969 9.969 0 1 1 0-19.937h1.057c13.218 0 26.568.454 39.675 1.356a9.968 9.968 0 0 1-.67 19.913z" data-name="Caminho 4086" transform="translate(-866.776 -1466.574)" style="opacity:.3;fill:#fff"/>
            <path id="prefix__Caminho_4090" d="M547.714 806.8a85.434 85.434 0 1 1 85.436-85.433 85.53 85.53 0 0 1-85.436 85.433zm0-148.286a62.852 62.852 0 1 0 62.854 62.854 62.924 62.924 0 0 0-62.854-62.853z" data-name="Caminho 4090" transform="translate(761.499 184.198)" style="fill:#ff0"/>
            <path id="prefix__Caminho_4091" d="M525.668 772.116a74.143 74.143 0 1 1 74.145-74.141 74.227 74.227 0 0 1-74.145 74.141zm0-128.687a54.546 54.546 0 1 0 54.546 54.546 54.608 54.608 0 0 0-54.546-54.547z" class="prefix__cls-7" data-name="Caminho 4091" transform="translate(943.551 71.256)"/>
            <path id="prefix__Caminho_4814" d="M676.3 1073.381c-123.946 0-224.781-100.835-224.781-224.771S552.358 623.83 676.3 623.83s224.785 100.835 224.785 224.78S800.24 1073.381 676.3 1073.381zm0-390.136c-91.182 0-165.366 74.183-165.366 165.365s74.184 165.366 165.366 165.366 165.37-74.193 165.37-165.366-74.194-165.365-165.37-165.365z" class="prefix__cls-4" data-name="Caminho 4814" transform="translate(882.915 -908.376)"/>
            <path id="prefix__Caminho_4826" d="M525.668 772.116a74.143 74.143 0 1 1 74.145-74.141 74.227 74.227 0 0 1-74.145 74.141zm0-128.687a54.546 54.546 0 1 0 54.546 54.546 54.608 54.608 0 0 0-54.546-54.547z" class="prefix__cls-4" data-name="Caminho 4826" transform="translate(269.551 -579.744)"/>
        </g>
        <g id="prefix__Grupo_de_máscara_6" data-name="Grupo de máscara 6">
            <path id="prefix__Caminho_4828" d="M1004.914 1121.57c-98.974 0-179.5-80.521-179.5-179.5s80.521-179.493 179.5-179.493a15.137 15.137 0 1 1 0 30.274c-82.278 0-149.219 66.94-149.219 149.219s66.941 149.219 149.219 149.219 149.219-66.938 149.219-149.219a15.138 15.138 0 0 1 30.277 0c0 98.979-80.521 179.5-179.496 179.5z" class="prefix__cls-9" data-name="Caminho 4828" transform="translate(153.266 -132.581)"/>
        </g>
    </g>
</svg>
