<svg xmlns="http://www.w3.org/2000/svg" width="600" height="205" viewBox="0 0 600 205">
    <defs>
        <filter id="prefix__Path_5960" width="215.341" height="120.44" x="333.441" y="95.289" filterUnits="userSpaceOnUse">
            <feOffset dy="20"/>
            <feGaussianBlur result="blur" stdDeviation="10"/>
            <feFlood flood-color="#d45704" flood-opacity=".278"/>
            <feComposite in2="blur" operator="in"/>
            <feComposite in="SourceGraphic"/>
        </filter>
        <filter id="prefix__Rectangle_3012" width="199.807" height="79.806" x="343.191" y="152.664" filterUnits="userSpaceOnUse">
            <feOffset dy="20"/>
            <feGaussianBlur result="blur-2" stdDeviation="10"/>
            <feFlood flood-color="#d45704" flood-opacity=".278"/>
            <feComposite in2="blur-2" operator="in"/>
            <feComposite in="SourceGraphic"/>
        </filter>
        <filter id="prefix__Path_6081" width="215.341" height="106.593" x="322.296" y="23.015" filterUnits="userSpaceOnUse">
            <feOffset dy="20"/>
            <feGaussianBlur result="blur-3" stdDeviation="10"/>
            <feFlood flood-color="#d45704" flood-opacity=".278"/>
            <feComposite in2="blur-3" operator="in"/>
            <feComposite in="SourceGraphic"/>
        </filter>
        <filter id="prefix__Ellipse_712" width="114" height="113" x="516.5" y="10.5" filterUnits="userSpaceOnUse">
            <feOffset dy="20"/>
            <feGaussianBlur result="blur-4" stdDeviation="10"/>
            <feFlood flood-color="#d45704" flood-opacity=".278"/>
            <feComposite in2="blur-4" operator="in"/>
            <feComposite in="SourceGraphic"/>
        </filter>
        <filter id="prefix__Ellipse_709" width="63.876" height="63.876" x="530.757" y="40.852" filterUnits="userSpaceOnUse">
            <feOffset dy="20"/>
            <feGaussianBlur result="blur-5" stdDeviation="10"/>
            <feFlood flood-opacity=".161"/>
            <feComposite in2="blur-5" operator="in"/>
            <feComposite in="SourceGraphic"/>
        </filter>
        <linearGradient id="prefix__linear-gradient" x1="-.116" x2=".945" y1="-.094" y2="1.085" gradientUnits="objectBoundingBox">
            <stop offset="0" stop-color="#f6f7f9"/>
            <stop offset="1" stop-color="#ebebeb"/>
        </linearGradient>
        <clipPath id="prefix__clip-path">
            <path id="prefix__Rectangle_3035" d="M0 0H600V205H0z" data-name="Rectangle 3035" transform="translate(20 32)" style="stroke:#707070;fill:#fff"/>
        </clipPath>
        <style>
            .prefix__cls-18,.prefix__cls-7{fill:#fff}.prefix__cls-13,.prefix__cls-7{stroke:#f1f1f1}.prefix__cls-10,.prefix__cls-11,.prefix__cls-8{fill:#4c4c4c}.prefix__cls-8{font-size:6px}.prefix__cls-10,.prefix__cls-8{font-family:OpenSans-Bold,Open Sans;font-weight:700}.prefix__cls-9{fill:#f7f7f7}.prefix__cls-10,.prefix__cls-11{font-size:4px;letter-spacing:.016em}.prefix__cls-11{font-family:OpenSans-Regular,Open Sans}.prefix__cls-12{fill:#ffd95a}.prefix__cls-13,.prefix__cls-19{fill:#4bb9b5}.prefix__cls-13,.prefix__cls-17,.prefix__cls-18,.prefix__cls-19,.prefix__cls-21{stroke-linecap:round;stroke-linejoin:round}.prefix__cls-13{stroke-width:1.357px}.prefix__cls-17{fill:#3c3c3b}.prefix__cls-17,.prefix__cls-18,.prefix__cls-19,.prefix__cls-21{stroke:#3c3c3b;stroke-width:1.4px}.prefix__cls-21{fill:#349b97}
        </style>
    </defs>
    <g id="prefix__Mask_Group_15" data-name="Mask Group 15" transform="translate(-20 -32)">
        <g id="prefix__Group_5938" data-name="Group 5938" transform="translate(-9644 986.742)">
            <path id="prefix__Path_6077" d="M23.711 0a23.711 23.711 0 1 1 0 47.422 2 2 0 0 1 0-4A19.712 19.712 0 1 0 4 23.711a2 2 0 1 1-4 0A23.738 23.738 0 0 1 23.711 0z" data-name="Path 6077" transform="rotate(-73 4318.422 -6913.768)" style="fill:none;stroke:#fff;stroke-width:2px"/>
            <path id="prefix__Path_6078" d="M491.118 703.018a39.594 39.594 0 1 1 39.595-39.593 39.639 39.639 0 0 1-39.595 39.593zm0-68.722a29.129 29.129 0 1 0 29.129 29.129 29.162 29.162 0 0 0-29.129-29.125z" data-name="Path 6078" transform="translate(9181.787 -1409.656)" style="fill:#ffda00"/>
        </g>
        <g id="prefix__Group_5939" data-name="Group 5939" transform="translate(-9668 844)">
            <path id="prefix__Path_6079" d="M500.912 713.2a38.632 38.632 0 1 1 38.633-38.631 38.676 38.676 0 0 1-38.633 38.631zm0-67.053a28.421 28.421 0 1 0 28.421 28.422 28.453 28.453 0 0 0-28.421-28.425z" data-name="Path 6079" transform="translate(9781.767 -1469.562)" style="opacity:.4;fill:#ff0"/>
            <path id="prefix__Path_6080" d="M534.358 780.09a72.079 72.079 0 1 1 72.08-72.077 72.159 72.159 0 0 1-72.08 72.077zm0-125.1a53.026 53.026 0 1 0 53.028 53.028 53.087 53.087 0 0 0-53.028-53.033z" data-name="Path 6080" transform="translate(9695.129 -1459.348)" style="fill:#ff0"/>
        </g>
        <g id="prefix__Group_5925" data-name="Group 5925" transform="translate(-9594.204 832.343)">
            <g id="prefix__Group_5930" data-name="Group 5930" transform="translate(9978.146 -694.554)">
                <g transform="translate(-363.94 -105.79)">
                    <path id="prefix__Path_5960-2" d="M3.355 0h147.631a3.442 3.442 0 0 1 3.355 3.522v52.4a3.442 3.442 0 0 1-3.355 3.522H3.355A3.442 3.442 0 0 1 0 55.918V3.522A3.442 3.442 0 0 1 3.355 0z" class="prefix__cls-7" data-name="Path 5960" transform="translate(363.94 105.79)"/>
                </g>
                <text id="prefix__Withdraws" class="prefix__cls-8" transform="translate(11.058 12.211)">
                    <tspan x="0" y="0">Withdraws</tspan>
                </text>
                <g id="prefix__Group_5857" data-name="Group 5857" transform="translate(9.75 24.055)">
                    <rect id="prefix__Rectangle_3011" width="139" height="20" class="prefix__cls-9" data-name="Rectangle 3011" rx="2" transform="translate(.309 14.157)"/>
                    <g transform="translate(-373.69 -129.84)">
                        <rect id="prefix__Rectangle_3012-2" width="138.807" height="18.806" class="prefix__cls-7" data-name="Rectangle 3012" rx="2" transform="translate(373.69 163.16)"/>
                    </g>
                    <text id="prefix__Account" class="prefix__cls-10" transform="translate(7.308 4.157)">
                        <tspan x="0" y="0">Account</tspan>
                    </text>
                    <text id="prefix__ACH_Amount" class="prefix__cls-10" data-name="ACH Amount" transform="translate(70.308 4.157)">
                        <tspan x="0" y="0">ACH Amount</tspan>
                    </text>
                    <text id="prefix__Main_Account" class="prefix__cls-11" data-name="Main Account" transform="translate(7.308 26.157)">
                        <tspan x="0" y="0">Main Account</tspan>
                    </text>
                    <text id="prefix___3_251_98" class="prefix__cls-11" data-name="$3,251.98" transform="translate(70.308 26.157)">
                        <tspan x="0" y="0">$3,251.98</tspan>
                    </text>
                    <text id="prefix___2_251_98" class="prefix__cls-11" data-name="$2,251.98" transform="translate(70.308 44.157)">
                        <tspan x="0" y="0">$2,251.98</tspan>
                    </text>
                    <text id="prefix__Pac_G" class="prefix__cls-11" data-name="Pac &amp; G" transform="translate(7.308 44.157)">
                        <tspan x="0" y="0">Pac &amp; G</tspan>
                    </text>
                </g>
            </g>
            <g transform="translate(9614.2 -800.34)">
                <path id="prefix__Path_6081-2" d="M3.355 0h147.631c1.853 0 3.355 1.21 3.355 2.7v40.19c0 1.492-1.5 2.7-3.355 2.7H3.355C1.5 45.593 0 44.384 0 42.891V2.7C0 1.21 1.5 0 3.355 0z" class="prefix__cls-7" data-name="Path 6081" transform="translate(352.8 33.52)"/>
            </g>
            <text id="prefix__Main_Account-2" class="prefix__cls-8" data-name="Main Account" transform="translate(9975.204 -756.343)">
                <tspan x="0" y="0">Main Account</tspan>
            </text>
            <g id="prefix__Group_5931" data-name="Group 5931" transform="translate(9975.586 -746.899)">
                <path id="prefix__Rectangle_2487" d="M0 0h136a4 4 0 0 1 4 4v10a4 4 0 0 1-4 4H0V0z" class="prefix__cls-9" data-name="Rectangle 2487" transform="translate(-.382 -.444)"/>
                <text id="prefix__Total_Funds_in_Account" class="prefix__cls-11" data-name="Total Funds in Account" transform="translate(5.618 9.556)">
                    <tspan x="0" y="0">Total Funds in Account</tspan>
                </text>
                <path id="prefix__Rectangle_2517" d="M0 0h53a4 4 0 0 1 4 4v10a4 4 0 0 1-4 4H0V0z" class="prefix__cls-12" data-name="Rectangle 2517" transform="translate(82.618 -.444)"/>
                <text id="prefix___2_432_867_98" class="prefix__cls-10" data-name="$2,432,867.98" transform="translate(113.618 9.556)">
                    <tspan x="-27.061" y="0">$2,432,867.98</tspan>
                </text>
                <path id="prefix__Rectangle_2518" d="M0 0v18V0z" class="prefix__cls-12" data-name="Rectangle 2518" transform="translate(-.382 -.444)"/>
            </g>
            <g id="prefix__Group_5932" data-name="Group 5932" transform="translate(10160.829 -779.343)">
                <g transform="translate(-546.63 -21)">
                    <ellipse id="prefix__Ellipse_712-2" cx="26.5" cy="26" class="prefix__cls-7" data-name="Ellipse 712" rx="26.5" ry="26" transform="translate(547 21)"/>
                </g>
                <g id="prefix__Group_5842" data-name="Group 5842" transform="translate(9.115 6.935)">
                    <path id="prefix__Path_5933" d="M108.872 268.476a1.655 1.655 0 0 0-1.655 1.655v14.743a1.655 1.655 0 0 0 1.655 1.654h25.483a1.655 1.655 0 0 0 1.655-1.654v-14.743a1.655 1.655 0 0 0-1.655-1.655h-.671" class="prefix__cls-7" data-name="Path 5933" transform="translate(-103.31 -256.565)"/>
                    <path id="prefix__Path_5934" d="M187.19 248.961l-3.8-21.467-7.883 1.4" class="prefix__cls-13" data-name="Path 5934" transform="translate(-155.231 -225.406)"/>
                    <path id="prefix__Path_5935" d="M187.367 251.812l-2.176-12.29a1.862 1.862 0 0 1-2.158-1.509l-3.353.594" class="prefix__cls-13" data-name="Path 5935" transform="translate(-158.405 -233.404)"/>
                    <path id="prefix__Rectangle_3000" d="M0 0H15.137V23.391H0z" class="prefix__cls-13" data-name="Rectangle 3000" transform="rotate(149.77 11.528 13.956)"/>
                    <path id="prefix__Path_5936" d="M131.966 254.4l6.316-3.677a1.861 1.861 0 0 1 .672-2.545l-8.016-13.77a1.862 1.862 0 0 1-2.545-.672l-6.315 3.677a1.861 1.861 0 0 1-.672 2.545l8.016 13.769a1.861 1.861 0 0 1 2.544.673z" class="prefix__cls-13" data-name="Path 5936" transform="translate(-114.097 -230.149)"/>
                    <circle id="prefix__Ellipse_708" cx="3.329" cy="3.329" r="3.329" data-name="Ellipse 708" transform="translate(12.753 10.586)" style="fill:#fff"/>
                    <rect id="prefix__Rectangle_3001" width="31.495" height="20.591" data-name="Rectangle 3001" rx="3" transform="rotate(-180 17.026 17.34)"/>
                    <path id="prefix__Rectangle_3002" d="M3.317 0h6.291a.663.663 0 0 1 .663.663v5.308a.663.663 0 0 1-.663.663H3.317A3.317 3.317 0 0 1 0 3.317 3.317 3.317 0 0 1 3.317 0z" class="prefix__cls-7" data-name="Rectangle 3002" transform="rotate(180 5.136 14.086)"/>
                    <g transform="translate(-555.74 -27.93)">
                        <circle id="prefix__Ellipse_709-2" cx="1.438" cy="1.438" r="1.438" data-name="Ellipse 709" transform="translate(561.26 51.35)" style="fill:#4bb9b5;stroke:#f1f1f1"/>
                    </g>
                </g>
            </g>
            <g id="prefix__Group_5933" data-name="Group 5933" transform="translate(10076.424 -761.424)">
                <path id="prefix__Path_5996" d="M421.814 2452.227s-.252 23.64-17.878 23.151c11.4 9.022 29.8 10.421 39.307 6.365z" class="prefix__cls-17" data-name="Path 5996" transform="translate(-366.703 -2447.293)"/>
                <path id="prefix__Path_5997" d="M506.251 2553.5c-3.464 5.423-9.9 10.926-20.845 14.8-9.652-9.652-11.136-27.56-11.025-31.056.115-2.236 2.416-3.6 3.443-.095 1.989 6.78 8.576 10.716 9.34 19.428a144.612 144.612 0 0 1 9.069-13.577c3.768-4.873 7.811-8.949 10.215-7.914 3.332 1.431 5.288 9.821-.197 18.414z" class="prefix__cls-18" data-name="Path 5997" transform="translate(-462.092 -2496.008)"/>
                <path id="prefix__Path_5998" d="M484.393 2553.5c-2.026-4.068-7.852-9.924-10.018-10.5 3.768-4.873 7.811-8.949 10.215-7.914 3.333 1.431 5.289 9.821-.197 18.414z" class="prefix__cls-19" data-name="Path 5998" transform="translate(-440.235 -2496.008)"/>
                <path id="prefix__Path_5999" d="M568.181 2524.83l-2.984-8.635-2.624 3.19-9.755-3.746s2.076 6.48 12.061 10.971" class="prefix__cls-18" data-name="Path 5999" transform="translate(-552.818 -2484.648)"/>
                <path id="prefix__Path_6000" d="M475.665 2801.735l11.81 45.275-10.138 5.351 18.847-2.231c.234-9.835-.237-51.52-.237-51.52z" class="prefix__cls-18" data-name="Path 6000" transform="translate(-449.184 -2651.346)"/>
                <path id="prefix__Path_6001" d="M318.733 2784.016c1.194 4.064 6.322 27.732 29.389 50.07 6.281-6.617 6.329-13.057 6.329-13.057l-5.983 4.427s-11.8-43.879-12.11-54.081c-10.631 3.917-21.715-1.275-17.625 12.641z" class="prefix__cls-18" data-name="Path 6001" transform="translate(-242.542 -2635.302)"/>
                <path id="prefix__Path_6002" d="M373.514 2619.948c-20.077 22.193-19.937 43.735-10.894 73.1 26.067 5.605 60.637 1.1 70.979-11.754-1.967-29.5-34.782-66.847-34.782-66.847-15.725.837-25.303 5.501-25.303 5.501z" data-name="Path 6002" transform="translate(-337.676 -2542.857)" style="fill:#707070;stroke:#3c3c3b;stroke-width:1.4px;stroke-linecap:round;stroke-linejoin:round"/>
                <path id="prefix__Path_6003" d="M413.7 2569.817c-2.658-11.448-7.152-21.24 7.335-37.537 4.135-4.966 27.456-3 29.52 1.259s-6.362 45.07-36.855 36.278z" class="prefix__cls-19" data-name="Path 6003" transform="translate(-377.165 -2492.726)"/>
                <path id="prefix__Path_6004" d="M468.2 2525l-5.852-.769-2.238 9.652 4.336-4.616 4.216 2.833 2.218-4.963z" class="prefix__cls-21" data-name="Path 6004" transform="translate(-417.418 -2489.709)"/>
                <path id="prefix__Path_6005" d="M437.441 2511.781l-2.015 9.059v10.035l13.289-10.841-1.574-8.743z" class="prefix__cls-18" data-name="Path 6005" transform="translate(-385.114 -2482.088)"/>
                <path id="prefix__Path_6006" d="M427.875 2474.411c.041.008.082.012.123.021.452.074.912.135 1.389.189.078.008.157.016.234.02a15.446 15.446 0 1 0-13.975-18.5l-.062-.079-4.3-.46s-.484 15.958 16.591 18.809z" class="prefix__cls-18" data-name="Path 6006" transform="translate(-372.702 -2442.325)"/>
                <path id="prefix__Path_6007" d="M361.236 2441.688s-1.07 13.77 11.521 17.521c1.069 15.949 6.314 18.817 16.806 18.4s12.589-14.128 12.589-14.128c-5.106 1.549-13.429.84-12.8-5.735s-7.763-22.391-28.116-16.058z" class="prefix__cls-17" data-name="Path 6007" transform="translate(-308.056 -2440.221)"/>
                <path id="prefix__Line_386" d="M0 0L3.686 0.394" class="prefix__cls-18" data-name="Line 386" transform="translate(48.365 11.837)"/>
                <path id="prefix__Path_6008" d="M426.745 2526.319l1.539 7.979 8.743-6.5-.738-3.567z" class="prefix__cls-21" data-name="Path 6008" transform="translate(-369.859 -2489.709)"/>
                <path id="prefix__Path_6009" d="M309.87 2537.09c2.681-2.284 8.644 11.07 15.918 23.729 11.121.419 25.249-5.388 25.249-5.388s5.77.43 1.486 4.028-12.6 10.441-29.111 9.362c-12.591-6.533-24.065-22.766-13.542-31.731z" class="prefix__cls-18" data-name="Path 6009" transform="translate(-237.218 -2497.134)"/>
                <path id="prefix__Path_6010" d="M405.039 2547.711c-3.4-1.081-8.387 6.866-9.3 8.383-4.282-6.62-5.321-13.963.6-19 1.715-1.471 4.793 3.513 8.7 10.617z" class="prefix__cls-19" data-name="Path 6010" transform="translate(-323.68 -2497.134)"/>
                <path id="prefix__Path_6011" d="M273.5 2579.266l8.892-2.1-1.29 3.924 8.385 6.235s-6.585 1.715-15.723-4.316" class="prefix__cls-18" data-name="Path 6011" transform="translate(-159.351 -2520.895)"/>
            </g>
        </g>
    </g>
</svg>
