<svg xmlns="http://www.w3.org/2000/svg" width="153.186" height="350.843" viewBox="0 0 153.186 350.843">
    <defs>
        <style>
            .cls-1{opacity:.3}.cls-2{fill:none;stroke:#fff;stroke-miterlimit:10;stroke-width:2px}
        </style>
    </defs>
    <g id="Group_4647" class="cls-1" data-name="Group 4647" transform="translate(-733.626 -172.186)">
        <g id="Group_4485" data-name="Group 4485" transform="translate(584.443 176.918)">
            <path id="Path_3295" d="M815.043 137.808L922.5 199.851v124.083l-107.457 62.041zM922.5 323.934l-107.457-62.042m-.5-75.195l43.226-24.955v-49.913L814.54 86.874zm0-48.939l43.223-24.958m-43.226 24.958v49.062m64.737-13.3v49.911l43.223 24.952 43.225-24.957v-49.911L922.5 148.559zm0 .973l43.223 24.951 43.225-24.955M922.5 199.444v47.016M814.54 434.253l43.226-24.953v-49.915l-43.226-24.957zm0-48.939l43.226-24.957m-43.226 24.957v48.038m0-122.57l43.226-24.957v-49.911l-43.226-24.956zm0-48.939l43.226-24.956m-43.226 24.956v48.039m64.737-11.5v49.911l43.223 24.956 43.225-24.957v-49.911L922.5 273.424zm0 .972L922.5 324.31l43.225-24.957M922.5 324.31v48.038" class="cls-2" data-name="Path 3295" transform="translate(-664.357 -89.874)"/>
        </g>
    </g>
</svg>
