<svg xmlns="http://www.w3.org/2000/svg" id="prefix__Grupo_5219" width="1440" height="900" data-name="Grupo 5219" viewBox="0 0 1440 900">
    <defs>
        <linearGradient id="prefix__linear-gradient" x1=".5" x2=".5" y1=".052" y2="1.042" gradientUnits="objectBoundingBox">
            <stop offset="0" stop-color="#f7f7f7"/>
            <stop offset="1" stop-color="#e2e2e2"/>
        </linearGradient>
        <clipPath id="prefix__clip-path">
            <path id="prefix__Retângulo_2920" d="M0 0H1440V900H0z" class="prefix__cls-1" data-name="Retângulo 2920"/>
        </clipPath>
        <style>
            .prefix__cls-1{fill:url(#prefix__linear-gradient)}.prefix__cls-3{fill:#efefef;opacity:.46}.prefix__cls-4{fill:#ffda00}
        </style>
    </defs>
    <g id="prefix__Grupo_de_máscara_4" data-name="Grupo de máscara 4">
        <g id="prefix__Grupo_5550" data-name="Grupo 5550">
            <path id="prefix__Retângulo_2919" d="M0 0H1440V900H0z" class="prefix__cls-1" data-name="Retângulo 2919"/>
            <path id="prefix__Caminho_4827" d="M134.607 0c74.225 0 134.611 60.386 134.611 134.609s-60.386 134.609-134.611 134.609a11.352 11.352 0 0 1 0-22.7 111.9 111.9 0 1 0-111.9-111.9 11.352 11.352 0 1 1-22.7 0C0 60.386 60.384 0 134.607 0z" class="prefix__cls-3" data-name="Caminho 4827" transform="rotate(-73 1236.91 -397.442)"/>
            <path id="prefix__Caminho_4828" d="M1004.914 1121.57c-98.974 0-179.5-80.521-179.5-179.5s80.521-179.493 179.5-179.493a15.137 15.137 0 1 1 0 30.274c-82.278 0-149.219 66.94-149.219 149.219s66.941 149.219 149.219 149.219 149.219-66.938 149.219-149.219a15.138 15.138 0 0 1 30.277 0c0 98.979-80.521 179.5-179.496 179.5z" class="prefix__cls-3" data-name="Caminho 4828" transform="translate(420.044 -130.581)"/>
            <path id="prefix__Caminho_4813" d="M525.668 772.116a74.143 74.143 0 1 1 74.145-74.141 74.227 74.227 0 0 1-74.145 74.141zm0-128.687a54.546 54.546 0 1 0 54.546 54.546 54.608 54.608 0 0 0-54.546-54.547z" class="prefix__cls-4" data-name="Caminho 4813" transform="translate(925.329 -579.744)"/>
            <path id="prefix__Caminho_4829" d="M134.607 0c74.225 0 134.611 60.386 134.611 134.609s-60.386 134.609-134.611 134.609a11.352 11.352 0 0 1 0-22.7 111.9 111.9 0 1 0-111.9-111.9 11.352 11.352 0 1 1-22.7 0C0 60.386 60.384 0 134.607 0z" data-name="Caminho 4829" transform="rotate(-73 496.75 560.432)" style="fill:none;stroke:#fff;stroke-width:4px"/>
            <path id="prefix__Caminho_4830" d="M547.714 806.8a85.434 85.434 0 1 1 85.436-85.433 85.53 85.53 0 0 1-85.436 85.433zm0-148.286a62.852 62.852 0 1 0 62.854 62.854 62.924 62.924 0 0 0-62.854-62.853z" class="prefix__cls-4" data-name="Caminho 4830" transform="translate(-561.501 -566.802)"/>
            <path id="prefix__Caminho_4831" d="M525.668 772.116a74.143 74.143 0 1 1 74.145-74.141 74.227 74.227 0 0 1-74.145 74.141zm0-128.687a54.546 54.546 0 1 0 54.546 54.546 54.608 54.608 0 0 0-54.546-54.547z" data-name="Caminho 4831" transform="translate(-208.646 -679.744)" style="fill:#fff"/>
        </g>
    </g>
</svg>
