<svg xmlns="http://www.w3.org/2000/svg" width="16.001" height="10.199" viewBox="0 0 16.001 10.199">
    <defs>
        <style>
            .cls-1{fill:#adadad}
        </style>
    </defs>
    <g id="Group_4561" data-name="Group 4561" transform="translate(-263.998 -18.731)">
        <g id="view" transform="translate(263.998 -74.104)">
            <g id="Group_4548" data-name="Group 4548" transform="translate(0 92.835)">
                <g id="Group_4547" data-name="Group 4547">
                    <path id="Path_3318" d="M15.9 97.623c-.143-.2-3.549-4.788-7.9-4.788S.244 97.428.1 97.623a.528.528 0 0 0 0 .623c.143.2 3.549 4.788 7.9 4.788s7.756-4.593 7.9-4.788a.527.527 0 0 0 0-.623zM8 101.979c-3.2 0-5.98-3.048-6.8-4.045.82-1 3.59-4.044 6.8-4.044s5.979 3.048 6.8 4.045c-.819.997-3.588 4.044-6.8 4.044z" class="cls-1" data-name="Path 3318" transform="translate(0 -92.835)"/>
                </g>
            </g>
            <g id="Group_4550" data-name="Group 4550" transform="translate(4.836 94.769)">
                <g id="Group_4549" data-name="Group 4549">
                    <path id="Path_3319" d="M157.887 154.725a3.165 3.165 0 1 0 3.165 3.165 3.169 3.169 0 0 0-3.165-3.165zm0 5.275a2.11 2.11 0 1 1 2.11-2.11 2.112 2.112 0 0 1-2.11 2.11z" class="cls-1" data-name="Path 3319" transform="translate(-154.722 -154.725)"/>
                </g>
            </g>
        </g>
    </g>
</svg>
