<svg xmlns="http://www.w3.org/2000/svg" width="296" height="75.485" viewBox="0 0 296 75.485">
    <defs>
        <style>
            .prefix__cls-1{fill:#4bb9b5}.prefix__cls-2{fill:#221f20}.prefix__cls-4{fill:#4dbab6}
        </style>
    </defs>
    <g id="prefix__logoQC" transform="translate(-65.169 -200.493)">
        <g id="prefix__Grupo_5222" data-name="Grupo 5222" transform="translate(180.493 224.731)">
            <path id="prefix__Caminho_4845" d="M343.86 284.774c-8.382 0-13.16-5.69-13.16-14.159 0-8.3 4.908-14.115 13.16-14.115 8.339 0 13.2 5.776 13.2 14.115 0 4-1.042 7.21-2.866 9.425l2.953 2.823-1.477 1.477a2.067 2.067 0 0 1-3.04.087l-1.564-1.433a13.561 13.561 0 0 1-7.206 1.78zm7.557-14.159c0-5.429-2.432-9.294-7.557-9.294s-7.514 4.039-7.514 9.294c0 5.386 2.345 9.425 7.514 9.425a8.3 8.3 0 0 0 1.694-.174 9.079 9.079 0 0 0 1.607-.565l-2.953-2.736.956-1.042a2.486 2.486 0 0 1 3.475-.434l1.564 1.173a10.573 10.573 0 0 0 1.214-5.647z" data-name="Caminho 4845" transform="translate(-330.7 -256.413)"/>
            <path id="prefix__Caminho_4846" d="M415.881 284.256c0 3.692-.912 6.124-2.823 7.3a12.5 12.5 0 0 1-6.3 1.65 10.859 10.859 0 0 1-6.08-1.824c-1.868-1.173-2.78-3.518-2.78-7.123V271.4h5.386v13.985c0 2.389 1.216 3.561 3.648 3.561s3.648-1.173 3.648-3.561v-11.292a2.314 2.314 0 0 1 2.606-2.693h2.736v12.856z" data-name="Caminho 4846" transform="translate(-368.714 -264.842)"/>
            <path id="prefix__Caminho_4847" d="M447.48 257.3a2.3 2.3 0 0 1 2.606 2.649v1.564H444.7V257.3zm0 6.124a2.3 2.3 0 0 1 2.606 2.606v18.806H444.7v-21.412z" data-name="Caminho 4847" transform="translate(-395.188 -256.866)"/>
            <path id="prefix__Caminho_4848" d="M473.646 292.894c-6.471 0-9.816-3.735-9.946-11.075 0-7.34 3.257-11.032 9.859-11.118 5.168 0 8.252 2.3 9.208 6.949H476.9a3.473 3.473 0 0 0-3.475-2.215c-2.823 0-4.256 2.128-4.256 6.384s1.477 6.384 4.473 6.341a4.289 4.289 0 0 0 3.257-1.52 2.5 2.5 0 0 1 1.824-.782h4.039c-.951 4.386-4.121 7.166-9.116 7.036z" data-name="Caminho 4848" transform="translate(-405.936 -264.446)"/>
            <path id="prefix__Caminho_4849" d="M519.429 260v11.857l6.645-7.6h6.471l-7.427 7.948 7.47 12.725h-6.428l-3.822-7.036q-1.042-1.824-2.085-1.824a1 1 0 0 0-.869 1.042v7.818H514V257.4h2.78a2.6 2.6 0 0 1 2.649 2.6z" data-name="Caminho 4849" transform="translate(-434.39 -256.921)"/>
            <path id="prefix__Caminho_4850" d="M571.682 284.661c-8.469 0-12.682-5.6-12.682-14.159 0-8.86 4.474-14.2 13.16-14.2a12.356 12.356 0 0 1 8.122 2.519 10.313 10.313 0 0 1 3.3 7.123h-3.388a2.8 2.8 0 0 1-2.649-1.65c-.912-2-2.736-3-5.429-3-5.212 0-7.514 3.692-7.514 9.251 0 5.385 2.215 9.207 7.383 9.207a5.788 5.788 0 0 0 6.167-4.995h5.472c-.524 6.299-4.993 9.904-11.942 9.904z" class="prefix__cls-1" data-name="Caminho 4850" transform="translate(-459.846 -256.3)"/>
            <path id="prefix__Caminho_4851" d="M626.894 276.507h-5.385c.651-3.952 3.431-5.907 8.382-5.907 5.907 0 8.9 1.954 9.034 5.907v7.3c0 5.907-3.561 8.556-9.338 8.947-5.125.391-8.686-2-8.686-6.732.13-5.125 3.865-6.515 9.251-7.036 2.3-.3 3.475-.955 3.475-2.128-.13-1.216-1.26-1.824-3.475-1.824-1.912-.004-2.952.474-3.258 1.473zm6.819 7.079v-2a25.191 25.191 0 0 1-4.3 1.3c-2.128.391-3.257 1.433-3.257 3a2.4 2.4 0 0 0 2.693 2.519c3.039.002 4.863-1.779 4.863-4.819z" class="prefix__cls-1" data-name="Caminho 4851" transform="translate(-494.862 -264.389)"/>
            <path id="prefix__Caminho_4852" d="M668.4 281.68c.174-6.906 3.865-10.38 11.032-10.38h.782v5.6h-1.824c-3 0-4.473 1.564-4.473 4.691v11.119h-5.472v-11.03z" class="prefix__cls-1" data-name="Caminho 4852" transform="translate(-521.731 -264.785)"/>
            <path id="prefix__Caminho_4853" d="M720.679 260.036v15.548c0 6.428-3.344 9.642-10.033 9.6-6.645-.13-9.946-3.735-9.946-10.858 0-7.3 2.823-11.032 8.556-11.205a6.763 6.763 0 0 1 6.124 3.3V257.3h2.693a2.7 2.7 0 0 1 2.606 2.736zm-14.419 14.028c-.043 4.343 1.433 6.515 4.473 6.515 3.084 0 4.6-2.172 4.6-6.515-.13-4.126-1.607-6.167-4.517-6.167s-4.426 2.042-4.557 6.168z" class="prefix__cls-1" data-name="Caminho 4853" transform="translate(-540.003 -256.866)"/>
        </g>
        <g id="prefix__Grupo_5223" data-name="Grupo 5223" transform="translate(65.169 200.493)">
            <path id="prefix__Caminho_4854" d="M134.385 280.21c-1.129-1.216-2.215-2.476-3.388-3.648-1.129-1.173-2.345-2.3-3.518-3.431-.217-.217-.217-.347-.043-.565.782-.825 1.564-1.694 2.345-2.519a7.647 7.647 0 0 1 5.168-2.258 6.158 6.158 0 0 1 4.691 1.52c.956.825 2 1.607 3 2.432.217.174.3.217.478-.087a24.5 24.5 0 0 0 2.476-7.687c.174-1.607.565-3.214.608-4.864.217-6.167-.478-12.161-3.6-17.633a5.825 5.825 0 0 0-.782-1.216c-.261-.3-.174-.478.087-.738a16.506 16.506 0 0 1 7.253-4.3 22.445 22.445 0 0 1 5.386-.825.766.766 0 0 1 .869.478 39.218 39.218 0 0 1 4.691 12.682 55.475 55.475 0 0 1 .738 13.681 40.052 40.052 0 0 1-3.822 15.2 24.757 24.757 0 0 1-3.344 5.125c-.217.3-.3.434.043.738 2.432 2.258 4.821 4.56 7.253 6.862.217.174.217.3.043.478-1.3 1.26-2.606 2.562-3.865 3.865-2.519 2.606-5.863 1.737-7.9.043-1.3-1.086-2.562-2.258-3.779-3.388-.3-.261-.434-.217-.738-.043a20.036 20.036 0 0 1-7.557 3.171 48.036 48.036 0 0 1-7.427 1.173c-7.557.478-14.854-.434-21.586-4.169a29.675 29.675 0 0 1-13.607-16.157 43.711 43.711 0 0 1-2.172-8.513c-.043-.347.043-.434.347-.434h14.072c.3 0 .391.087.478.391a21.6 21.6 0 0 0 5.212 10.771 16.873 16.873 0 0 0 9.685 5.168 25.384 25.384 0 0 0 7.9.087 13.851 13.851 0 0 0 4.305-1.39z" class="prefix__cls-2" data-name="Caminho 4854" transform="translate(-80.559 -219.663)"/>
            <path id="prefix__Caminho_4855" d="M217.158 226.074h-3.822a7.136 7.136 0 0 1-6.906-4.213 18.186 18.186 0 0 0-2.953-4.256 10.347 10.347 0 0 0-4.3-2.562 19.7 19.7 0 0 0-5.907-1.086 22.685 22.685 0 0 0-8.86 1.173 16.483 16.483 0 0 0-9.816 9.6 31.27 31.27 0 0 0-2 8.643 52.411 52.411 0 0 0-.174 7.383 32.323 32.323 0 0 0 .738 6.124c.087.347.087.434-.347.391a9.514 9.514 0 0 0-6.511 2.129 34.325 34.325 0 0 0-4.039 4.3c-.261.3 0 .391.13.521 2.128 1.954 4.3 3.909 6.471 5.907.087.087.3.174.261.347s-.261.174-.391.217a18.627 18.627 0 0 1-5.342.912c-.347.043-.478-.174-.608-.434a33.951 33.951 0 0 1-3.648-9.468 51.616 51.616 0 0 1-1.259-8.947c-.087-1.781-.174-3.518-.174-5.3a50.981 50.981 0 0 1 2.736-17.112c3.561-9.816 10.51-15.9 20.543-18.458a40.23 40.23 0 0 1 8.209-1.173 45.779 45.779 0 0 1 13.942 1.26 26.163 26.163 0 0 1 11.944 6.688 25.246 25.246 0 0 1 6.471 11.9 45.016 45.016 0 0 1 .825 4.734c.087.695.087.695-.652.695-1.564.085-3.084.085-4.561.085z" class="prefix__cls-1" data-name="Caminho 4855" transform="translate(-117.512 -200.577)"/>
            <path id="prefix__Caminho_4856" d="M139.1 202.147a28.069 28.069 0 0 0-9.034 6.254 30.833 30.833 0 0 0-3.865 4.691.807.807 0 0 1-.651.391 17.4 17.4 0 0 0-11.032 4.691 19.2 19.2 0 0 0-4.039 5.82.706.706 0 0 1-.738.478c-4.734-.043-9.512-.043-14.246 0-.521 0-.521-.13-.391-.565a33.262 33.262 0 0 1 6.6-12.552 30.437 30.437 0 0 1 8.947-6.992 35.264 35.264 0 0 1 13.116-3.692 42.307 42.307 0 0 1 14.94 1.26c.048.085.178.129.393.216z" class="prefix__cls-2" data-name="Caminho 4856" transform="translate(-82.063 -200.493)"/>
            <path id="prefix__Caminho_4857" d="M239.475 338.372c.521-.478 1.086-.956 1.607-1.477 1-1 1.954-2 3-3 .217-.217.3-.347.043-.651-2.258-2.215-4.517-4.473-6.862-6.645a10.539 10.539 0 0 0-1.263-.909c.782-.043 1.477-.087 2.128-.174a16.34 16.34 0 0 0 8.643-3.127 14.355 14.355 0 0 0 4.473-6.254 32.553 32.553 0 0 0 1.086-3.3c.087-.3.217-.434.521-.434 4.473 0 8.947.043 13.377 0 .565 0 .478.3.434.608a32.393 32.393 0 0 1-2.432 9.685c-3.084 6.992-8.426 11.509-15.592 13.942a37.551 37.551 0 0 1-9.038 1.864c-.039 0-.082-.084-.125-.128z" data-name="Caminho 4857" transform="translate(-161.805 -263.797)" style="fill:#4dbab5"/>
            <path id="prefix__Caminho_4858" d="M83.293 258.2h15.94a1.981 1.981 0 1 1 .261 3.952h-32.14a2.033 2.033 0 0 1-2.172-1.694 1.938 1.938 0 0 1 2.041-2.258h16.07z" class="prefix__cls-4" data-name="Caminho 4858" transform="translate(-65.169 -233.137)"/>
            <path id="prefix__Caminho_4859" d="M85.024 276.143h14.159a1.918 1.918 0 0 1 2 1.346 1.968 1.968 0 0 1-1.868 2.606H71a2.085 2.085 0 0 1-2.258-1.607 1.971 1.971 0 0 1 1.694-2.345 3.075 3.075 0 0 1 .608-.043c4.686.043 9.333.043 13.98.043z" class="prefix__cls-4" data-name="Caminho 4859" transform="translate(-67.16 -243.263)"/>
            <path id="prefix__Caminho_4860" d="M89.125 297.952H78.4a1.964 1.964 0 0 1-2-1.39A2.013 2.013 0 0 1 78.268 294h21.455a2.046 2.046 0 0 1 1.954.955 1.934 1.934 0 0 1-1.52 3c-.782.043-1.564 0-2.345 0z" class="prefix__cls-4" data-name="Caminho 4860" transform="translate(-71.479 -253.389)"/>
            <path id="prefix__Caminho_4861" d="M99.167 269.643h6.862c.434 0 .478.087.434.478-.174 1.216-.174 1.216-1.39 1.216H92.045c-.434 0-.565-.087-.478-.565.13-1.173.087-1.173 1.26-1.173 2.084.044 4.212.044 6.34.044z" data-name="Caminho 4861" transform="translate(-80.088 -239.586)" style="fill:#232021"/>
            <path id="prefix__Caminho_4862" d="M98.072 289.394H91.21c-.347 0-.608-1.346-.347-1.607a5.941 5.941 0 0 1 1.26-.087h12.9c.347 0 .478.043.478.478-.043 1.216 0 1.259-1.216 1.259-2.085-.043-4.129-.043-6.213-.043z" class="prefix__cls-2" data-name="Caminho 4862" transform="translate(-79.643 -249.825)"/>
            <path id="prefix__Caminho_4863" d="M212.942 368.785a28.138 28.138 0 0 1-5.342-.955c.043-.217.217-.217.347-.3a7.54 7.54 0 0 1 .825-.434c.478-.217.869-.738 1.346-.695.434.087.825.608 1.173.955.565.43 1.086.952 1.651 1.429z" class="prefix__cls-4" data-name="Caminho 4863" transform="translate(-145.74 -294.341)"/>
        </g>
    </g>
</svg>
