<svg xmlns="http://www.w3.org/2000/svg" width="80" height="80" viewBox="0 0 80 80">
    <defs>
        <style>
            .cls-1,.cls-3,.cls-5{fill:none}.cls-2{fill:#4c4c4c}.cls-3{stroke:#4c4c4c}.cls-3,.cls-5{stroke-linecap:round}.cls-4{fill:#00cc6e}.cls-5{stroke:#fff;stroke-linejoin:round;stroke-width:2px}
        </style>
    </defs>
    <g id="Group_4870" data-name="Group 4870" transform="translate(-156 -176)">
        <path id="Rectangle_2466" d="M0 0h80v80H0z" class="cls-1" data-name="Rectangle 2466" transform="translate(156 176)"/>
        <g id="Group_4787" data-name="Group 4787" transform="translate(165.641 194.25)">
            <g id="Group_3153" data-name="Group 3153">
                <path id="Path_2251" d="M838.013-749.411l17.114-7.487a.7.7 0 0 1 .279-.058.694.694 0 0 1 .279.058l17.114 7.487a.7.7 0 0 1 .419.64v21.392a.7.7 0 0 1-.382.622l-17.113 8.707a.715.715 0 0 1-.632 0l-16.557-8.475-.438-.219a1.07 1.07 0 0 1-.465-.451l-.037-.068v-21.51a.7.7 0 0 1 .419-.638zm18.091 29.6l15.717-8v-19.9l-5.021 2.2v6.755a.062.062 0 0 1-.034.055l-4.63 2.315a.7.7 0 0 1-.533.038.7.7 0 0 1-.4-.35.707.707 0 0 1-.074-.313v-6.023l-5.021 2.2zm6.418-23.824v5.5l2.882-1.441v-5.324zm2.156-2.464l-6.209-2.713-2.841 1.24 6.195 2.716zm-9.272 4.054l4.68-2.049-6.49-2.839a.7.7 0 0 1-.359-.92.7.7 0 0 1 .359-.359l4.589-2a.7.7 0 0 1 .559 0l7.669 3.352 4.358-1.91-15.365-6.73-.149.065-15.223 6.66zm-.7 1.218l-15.715-6.873v19.82l15.717 8.078z" class="cls-2" data-name="Path 2251" transform="translate(-826.68 756.956)"/>
                <path id="Line_353" d="M11.511 0H0" class="cls-3" data-name="Line 353" transform="translate(0 19.511)"/>
                <path id="Line_352" d="M11.511 0H0" class="cls-3" data-name="Line 352" transform="translate(4.933 24.444)"/>
                <path id="Line_354" d="M11.511 0H0" class="cls-3" data-name="Line 354" transform="translate(4.933 14.577)"/>
            </g>
            <g id="Group_3414" data-name="Group 3414" transform="translate(35.557 21.493)">
                <circle id="Ellipse_47" cx="11.355" cy="11.355" r="11.355" class="cls-4" data-name="Ellipse 47"/>
                <path id="Path_1910" d="M-17719.574-16437.561l3.465 3.506 7.182-7.238" class="cls-5" data-name="Path 1910" transform="translate(17725.631 16449.447)"/>
            </g>
        </g>
    </g>
</svg>
