<svg xmlns="http://www.w3.org/2000/svg" width="24.878" height="16" viewBox="0 0 24.878 16">
    <defs>
        <style>
            .cls-1{fill:#4c4c4c}
        </style>
    </defs>
    <path id="mastercard" d="M16.877 0a7.955 7.955 0 0 0-4.438 1.347A8 8 0 1 0 8 16a7.955 7.955 0 0 0 4.438-1.347A8 8 0 1 0 16.877 0zm0 14.542a6.546 6.546 0 0 1-5.615-3.188h.838a.729.729 0 0 0 0-1.458h-1.485a6.511 6.511 0 0 1-.207-.914h2.861a.729.729 0 0 0 0-1.458h-2.917a6.494 6.494 0 0 1 .132-.914H12.1a.729.729 0 1 0 0-1.458h-1.113a6.543 6.543 0 1 1 5.89 9.389zm0 0" class="cls-1"/>
</svg>
