<svg xmlns="http://www.w3.org/2000/svg" id="Group_4868" width="80" height="80" data-name="Group 4868" viewBox="0 0 80 80">
    <defs>
        <style>
            .cls-1{fill:none}.cls-2{fill:#4c4c4c}
        </style>
    </defs>
    <g id="Group_4853" data-name="Group 4853">
        <path id="Rectangle_2466" d="M0 0h80v80H0z" class="cls-1" data-name="Rectangle 2466"/>
        <g id="Group_4947" data-name="Group 4947" transform="translate(23 16)">
            <path id="Path_3421" d="M1720.058 779.378l-16.8-7.35a.685.685 0 0 0-.551 0l-16.8 7.348a.686.686 0 0 0-.411.628v22.036a.322.322 0 0 0 .132.138c1.6.727 17.2 8.042 17.2 8.042a.693.693 0 0 0 .614 0l10.941-5.6v-1.578l-10.633 5.466v-20.637l15.428-6.749v19.456l-1.755.9v1.584l2.127-1.089.427-.214a1.987 1.987 0 0 0 .45-.439l.037-.065v-21.25a.688.688 0 0 0-.406-.627zm-17.6 29.135l-15.674-7.2v-20.284l5.142 2.25v6.6a.059.059 0 0 0 .033.055l4.618 2.309a.7.7 0 0 0 .531.038.7.7 0 0 0 .474-.657v-5.931l4.887 2.138zm-6.418-23.424v5.4l-2.829-1.414v-5.22zm-2.074-2.436l6.117-2.671 2.8 1.218-6.1 2.675zm9.135 3.994l-4.61-2.019 6.395-2.8a.689.689 0 0 0 .359-.9v-.008a.685.685 0 0 0-.354-.356l-4.52-1.971a.684.684 0 0 0-.552 0l-7.544 3.309-4.292-1.881 15.136-6.626.152.064 15 6.561z" class="cls-2" data-name="Path 3421" transform="translate(-1685.5 -771.97)"/>
            <path id="Path_3422" d="M1716.427 792.315a3.318 3.318 0 0 0-3.315-3.315h-2.755a.76.76 0 0 0 0 1.52h2.755a1.8 1.8 0 0 1 1.794 1.794v10.1a1.8 1.8 0 0 1-1.794 1.794h-24.552l4.078-4.078a.761.761 0 0 0-1.076-1.075l-5.375 5.375a.763.763 0 0 0 0 1.077l5.375 5.375a.761.761 0 1 0 1.076-1.075l-4.078-4.078h24.552a3.318 3.318 0 0 0 3.315-3.315z" class="cls-2" data-name="Path 3422" transform="translate(-1685.258 -763.107)"/>
        </g>
    </g>
</svg>
