<svg xmlns="http://www.w3.org/2000/svg" id="prefix__POWERED_BY_ZCART" width="268" height="80" data-name="POWERED BY ZCART" viewBox="0 0 268 80">
    <defs>
        <style>
            .prefix__cls-3{fill:#4c4c4c}
        </style>
    </defs>
    <path id="prefix__Retângulo_2468" d="M0 0H268V80H0z" data-name="Retângulo 2468" style="fill:none"/>
    <g id="prefix__Grupo_4673" data-name="Grupo 4673" transform="translate(24 28)">
        <text id="prefix__Powered_by" data-name="Powered by" transform="translate(0 10)" style="font-size:16px;font-family:SourceSansPro-Regular,Source Sans Pro;fill:#4c4c4c">
            <tspan x="0" y="0">Powered by</tspan>
        </text>
        <g id="prefix__Grupo_5326" data-name="Grupo 5326" transform="translate(85.772 -7)">
            <path id="prefix__Caminho_5062" d="M311.247 279.313v-.04a7.354 7.354 0 0 1 14.7-.039v.039a7.1 7.1 0 0 1-1.225 3.971l.593.494a1.493 1.493 0 0 1 .553 1.146 1.425 1.425 0 0 1-2.43 1.028l-.751-.672a7.538 7.538 0 0 1-4.11 1.186 7.087 7.087 0 0 1-7.33-7.113zm7.192 1.561a1.433 1.433 0 0 1 1.423-1.442 1.405 1.405 0 0 1 1.008.415l1.521 1.363a4.846 4.846 0 0 0 .375-1.9v-.04a4.2 4.2 0 0 0-4.189-4.347 4.136 4.136 0 0 0-4.149 4.308v.039a4.2 4.2 0 0 0 4.189 4.347 4.154 4.154 0 0 0 1.818-.375l-1.442-1.225a1.492 1.492 0 0 1-.554-1.143z" class="prefix__cls-3" data-name="Caminho 5062" transform="translate(-272.378 -266.779)"/>
            <path id="prefix__Caminho_5063" d="M383.172 294.489a1.5 1.5 0 0 1-3 0v-.119a3.747 3.747 0 0 1-3.1 1.7c-2.272 0-3.6-1.5-3.6-3.932v-5.473a1.5 1.5 0 1 1 3 0v4.525c0 1.423.672 2.154 1.818 2.154s1.877-.731 1.877-2.154v-4.525a1.5 1.5 0 1 1 3 0z" class="prefix__cls-3" data-name="Caminho 5063" transform="translate(-318.577 -276.462)"/>
            <path id="prefix__Caminho_5064" d="M417.587 271.759a1.707 1.707 0 0 1 3.359 0v.04a1.7 1.7 0 0 1-3.359 0zm.178 3.913a1.5 1.5 0 1 1 3 0v7.828a1.5 1.5 0 0 1-3 0z" class="prefix__cls-3" data-name="Caminho 5064" transform="translate(-351.331 -265.469)"/>
            <path id="prefix__Caminho_5065" d="M435.079 290.408v-.04a5.437 5.437 0 0 1 5.552-5.513 5.3 5.3 0 0 1 3.616 1.186 1.331 1.331 0 0 1 .474 1.027 1.349 1.349 0 0 1-1.363 1.344 1.414 1.414 0 0 1-.869-.3 2.862 2.862 0 0 0-1.877-.672 2.706 2.706 0 0 0-2.569 2.885v.039a2.714 2.714 0 0 0 2.687 2.924 3.042 3.042 0 0 0 1.976-.731 1.4 1.4 0 0 1 .81-.277 1.274 1.274 0 0 1 .83 2.233 5.211 5.211 0 0 1-3.754 1.363 5.408 5.408 0 0 1-5.513-5.468z" class="prefix__cls-3" data-name="Caminho 5065" transform="translate(-364.318 -276.234)"/>
            <path id="prefix__Caminho_5066" d="M477.048 271.781a1.5 1.5 0 1 1 3 0v6.56l3.754-3.557a1.846 1.846 0 0 1 1.324-.672 1.315 1.315 0 0 1 1.324 1.344 1.8 1.8 0 0 1-.692 1.3l-2.371 2.035 2.825 3.814a1.582 1.582 0 0 1 .375.968 1.362 1.362 0 0 1-1.4 1.363 1.429 1.429 0 0 1-1.3-.691l-2.628-3.616-1.206 1.087v1.719a1.5 1.5 0 0 1-3 0z" class="prefix__cls-3" data-name="Caminho 5066" transform="translate(-395.479 -265.412)"/>
            <path id="prefix__Caminho_5067" d="M517.175 279.313v-.04a7.029 7.029 0 0 1 7.212-7.152 7.323 7.323 0 0 1 4.624 1.4 1.522 1.522 0 0 1 .593 1.206 1.485 1.485 0 0 1-1.5 1.482 1.6 1.6 0 0 1-.909-.3 4.55 4.55 0 0 0-2.826-.988 4.1 4.1 0 0 0-4.011 4.308v.039a4.108 4.108 0 0 0 4.011 4.347 4.439 4.439 0 0 0 3-1.087 1.409 1.409 0 1 1 1.818 2.154 7.288 7.288 0 0 1-12.013-5.374z" class="prefix__cls-3" data-name="Caminho 5067" transform="translate(-425.272 -266.779)"/>
            <path id="prefix__Caminho_5068" d="M568.657 292.829v-.039c0-2.312 1.759-3.379 4.268-3.379a7.529 7.529 0 0 1 2.588.434v-.178c0-1.245-.771-1.936-2.272-1.936a6.88 6.88 0 0 0-2.074.3 1.279 1.279 0 0 1-.435.079 1.223 1.223 0 0 1-1.245-1.225 1.245 1.245 0 0 1 .81-1.166 9.218 9.218 0 0 1 3.379-.553 4.89 4.89 0 0 1 3.576 1.185 4.617 4.617 0 0 1 1.146 3.379v4.821a1.442 1.442 0 0 1-1.462 1.442 1.345 1.345 0 0 1-1.443-1.245v-.02a4.072 4.072 0 0 1-3.2 1.344c-1.993-.002-3.636-1.148-3.636-3.243zm6.9-.691v-.538a4.66 4.66 0 0 0-1.917-.4c-1.285 0-2.075.514-2.075 1.462v.039c0 .81.672 1.285 1.64 1.285 1.395.014 2.348-.761 2.348-1.848z" class="prefix__cls-3" data-name="Caminho 5068" transform="translate(-463.495 -276.462)"/>
            <path id="prefix__Caminho_5069" d="M612.7 286.665a1.5 1.5 0 0 1 3 0v.474c.434-1.028 1.146-1.976 2.035-1.976a1.451 1.451 0 0 1 .336 2.865c-1.521.356-2.371 1.521-2.371 3.655v2.806a1.5 1.5 0 0 1-3 0z" class="prefix__cls-3" data-name="Caminho 5069" transform="translate(-496.193 -276.462)"/>
            <path id="prefix__Caminho_5070" d="M649.448 283.438a1.5 1.5 0 0 1-3 0v-.138a3.89 3.89 0 0 1-3.3 1.719c-2.47 0-4.821-1.936-4.821-5.473v-.039c0-3.537 2.312-5.473 4.821-5.473a4.067 4.067 0 0 1 3.3 1.581v-3.833a1.5 1.5 0 1 1 3 0zm-8.121-3.932v.039a2.6 2.6 0 1 0 5.157 0v-.039a2.6 2.6 0 1 0-5.157 0z" class="prefix__cls-3" data-name="Caminho 5070" transform="translate(-515.22 -265.412)"/>
            <path id="prefix__Caminho_5071" d="M263.022 316.191a2.3 2.3 0 0 0-1.468.543 7.15 7.15 0 0 1-4.337 1.739 3.949 3.949 0 0 1 .571 2.058 4.031 4.031 0 0 1-.854 2.482 11.105 11.105 0 0 0 7.556-2.8 2.268 2.268 0 0 0-1.468-4.021z" class="prefix__cls-3" data-name="Caminho 5071" transform="translate(-232.053 -299.499)"/>
            <path id="prefix__Caminho_5072" d="M230.255 255.259a11.828 11.828 0 0 0-7.468-2.265 12.027 12.027 0 0 0-5.708 1.383 11.068 11.068 0 0 0-4.261 4.042c-.073.12-.138.246-.207.37-.03.053-.061.106-.089.16l-.02.039-.059.116-.078.15c-.052.105-.1.212-.151.319l-.017.037c-.05.109-.1.219-.145.33s-.091.229-.135.345-.092.241-.134.363c-.035.1-.065.206-.1.309-.043.139-.089.278-.127.42-.009.032-.015.065-.024.1a11.934 11.934 0 0 0-.266 1.308v.007c-.024.166-.04.334-.057.5a3.989 3.989 0 0 1 3.973.9l.006.005.006.005.225.2.58.55.064-.3.419-1.931a6.566 6.566 0 0 1 4.239-4.871 6.373 6.373 0 0 1 2.034-.328 7.35 7.35 0 0 1 4.563 1.6 2.584 2.584 0 0 0 1.468.479 2.4 2.4 0 0 0 2.425-2.394 2.46 2.46 0 0 0-.956-1.948z" class="prefix__cls-3" data-name="Caminho 5072" transform="translate(-198.104 -252.578)"/>
            <g id="prefix__Grupo_5663" data-name="Grupo 5663">
                <path id="prefix__Caminho_5073" d="M183.348 257.875a5.284 5.284 0 0 0-3.392 3.931l-.417 1.924-.064.295-.484 2.238-1.661-1.576-.566-.538-.211-.189c-.1-.087-.2-.162-.292-.233a2.547 2.547 0 0 0-1.61-.54c-.082 0-.163.005-.243.012l-.1.011c-.046.006-.092.013-.137.021l-.12.024-.1.025c-.035.009-.089.023-.133.037h-.014a2.746 2.746 0 0 0-1.873 2.609 2.836 2.836 0 0 0 1.04 2.167l1.806 1.534a6.81 6.81 0 0 1-2.143.318 6.339 6.339 0 0 1-6.35-6.605v-.063a6.277 6.277 0 0 1 6.286-6.542 6.657 6.657 0 0 1 1.189.108c.051-.093.1-.187.157-.278l.021-.037.012-.017a12.4 12.4 0 0 1 3.992-4.044 13.05 13.05 0 0 0-5.307-1.095 12.018 12.018 0 0 0-12.319 11.968v.064c0 6.787 5.268 11.9 12.255 11.9a12.657 12.657 0 0 0 6.594-1.813l.963.861a2.718 2.718 0 0 0 4.635-1.954 2.839 2.839 0 0 0-1.043-2.171l-.674-.561a11.86 11.86 0 0 0 1.844-6.332v-.063a12.016 12.016 0 0 0-1.289-5.483c-.08.036-.167.059-.252.087z" class="prefix__cls-3" data-name="Caminho 5073" transform="translate(-160.321 -251.379)"/>
            </g>
        </g>
    </g>
</svg>
