<svg xmlns="http://www.w3.org/2000/svg" width="10.828" height="6.414" viewBox="0 0 10.828 6.414">
    <g id="prefix__Grupo_5292" data-name="Grupo 5292" transform="translate(1.414 1)">
        <path id="prefix__Caminho_4831" d="M0 0l4 4-4 4" data-name="Caminho 4831" transform="rotate(-90 2 2)" style="fill:none;stroke:#4c4c4c;stroke-linecap:round;stroke-linejoin:round;stroke-width:2px"/>
    </g>
</svg>
