<svg xmlns="http://www.w3.org/2000/svg" id="prefix__Customer_Service" width="48" height="48" data-name="Customer Service" viewBox="0 0 48 48">
    <defs>
        <style>
            .prefix__cls-2{fill:#828282}
        </style>
    </defs>
    <path id="prefix__Retângulo_2714" d="M0 0H48V48H0z" data-name="Retângulo 2714" style="fill:none"/>
    <g id="prefix___003-headset" data-name="003-headset" transform="translate(12 12)">
        <g id="prefix__Grupo_5233" data-name="Grupo 5233">
            <g id="prefix__Grupo_5232" data-name="Grupo 5232">
                <path id="prefix__Caminho_4950" d="M5.625 9.516H3.773A8.252 8.252 0 0 1 19.74 7.263a.938.938 0 0 0 1.76-.651 10.126 10.126 0 0 0-19.624 3.407A3.751 3.751 0 0 0 0 13.266v3.187A3.754 3.754 0 0 0 3.75 20.2h1.875a.937.937 0 0 0 .938-.937v-8.81a.937.937 0 0 0-.938-.937zm-.937 8.813H3.75a1.877 1.877 0 0 1-1.875-1.875v-3.188a1.877 1.877 0 0 1 1.875-1.875h.937z" class="prefix__cls-2" data-name="Caminho 4950"/>
                <path id="prefix__Caminho_4951" d="M226.125 203h-1.875a.937.937 0 0 0-.937.938v9.8a.939.939 0 0 1-.937.938h-2.859v.03a1.875 1.875 0 1 0 0 1.816v.03h2.859a2.816 2.816 0 0 0 2.813-2.812v-.047h.938a3.754 3.754 0 0 0 3.75-3.75v-3.193a3.754 3.754 0 0 0-3.752-3.75zm1.875 6.938a1.877 1.877 0 0 1-1.875 1.875h-.937v-6.937h.938A1.877 1.877 0 0 1 228 206.75z" class="prefix__cls-2" data-name="Caminho 4951" transform="translate(-205.875 -193.484)"/>
            </g>
        </g>
    </g>
</svg>
