<svg xmlns="http://www.w3.org/2000/svg" width="162" height="92" viewBox="0 0 162 92">
    <g id="prefix__Grupo_5317" data-name="Grupo 5317" transform="translate(-12 -12)">
        <rect id="prefix__Retângulo_2790" width="162" height="92" data-name="Retângulo 2790" rx="8" transform="translate(12 12)" style="fill:#4c4c4c"/>
        <path id="prefix__Retângulo_2791" d="M0 0H162V24H0z" data-name="Retângulo 2791" transform="translate(12 34)" style="fill:#d6d6d6"/>
        <text id="prefix___0101_0101_0101_0100" data-name="0101 0101 0101 0100" transform="translate(22 79)" style="fill:#9b9b9b;font-size:10px;font-family:OpenSans-Regular,Open Sans">
            <tspan x="0" y="0">0101 0101 0101 0100</tspan>
        </text>
        <text id="prefix___123" data-name="123" transform="translate(136 80)" style="fill:#fff;font-size:12px;font-family:OpenSans-Bold,Open Sans;font-weight:700">
            <tspan x="0" y="0">123</tspan>
        </text>
        <g id="prefix__Elipse_534" data-name="Elipse 534" transform="translate(128 57)" style="stroke:#ffd95a;stroke-width:3px;fill:none">
            <circle cx="18.5" cy="18.5" r="18.5" style="stroke:none"/>
            <circle cx="18.5" cy="18.5" r="17" style="fill:none"/>
        </g>
    </g>
</svg>
