<svg xmlns="http://www.w3.org/2000/svg" width="16.283" height="20" viewBox="0 0 16.283 20">
    <defs>
        <style>
            .prefix__cls-1{fill:#eda92a}
        </style>
    </defs>
    <g id="prefix__doc-file" transform="translate(-44.806)">
        <path id="prefix__Path_3367" d="M56.033 0H48a2.132 2.132 0 00-2.129 2.129V10h-.208a.858.858 0 00-.858.858v5.2a.858.858 0 00.858.858h.208v.954A2.131 2.131 0 0048 20h10.96a2.131 2.131 0 002.128-2.129V5.038zm-9.808 11.572a7.348 7.348 0 011.1-.075 2.323 2.323 0 011.477.385 1.6 1.6 0 01.61 1.36 1.829 1.829 0 01-.6 1.461 2.59 2.59 0 01-1.664.465 7.055 7.055 0 01-.926-.054v-3.542zM58.961 18.7H48a.826.826 0 01-.824-.825v-.954h10.217a.858.858 0 00.858-.858v-5.2a.858.858 0 00-.858-.863H47.176V2.129A.825.825 0 0148 1.3h7.545v2.786a1.477 1.477 0 001.476 1.476l2.732-.008.031 12.317a.825.825 0 01-.823.829zm-9.174-5.341a1.746 1.746 0 011.756-1.889 1.681 1.681 0 011.713 1.825 1.72 1.72 0 01-1.772 1.9 1.682 1.682 0 01-1.698-1.84zm5.853 1.156a2.044 2.044 0 00.68-.118l.123.637a2.317 2.317 0 01-.926.156 1.716 1.716 0 01-1.89-1.8 1.839 1.839 0 011.97-1.916 2.134 2.134 0 01.888.16l-.166.648a1.754 1.754 0 00-.685-.134 1.085 1.085 0 00-1.151 1.194 1.077 1.077 0 001.156 1.169z" class="prefix__cls-1" data-name="Path 3367"/>
        <path id="prefix__Path_3368" d="M100.257 293.421a1.035 1.035 0 00-1.135-1.145 1.686 1.686 0 00-.369.032v2.36a1.473 1.473 0 00.284.016 1.119 1.119 0 001.22-1.263z" class="prefix__cls-1" data-name="Path 3368" transform="translate(-51.709 -280.152)"/>
        <path id="prefix__Path_3369" d="M187.385 293.212c0-.647-.311-1.2-.872-1.2s-.873.525-.873 1.226.332 1.2.878 1.2.867-.524.867-1.226z" class="prefix__cls-1" data-name="Path 3369" transform="translate(-134.992 -279.895)"/>
    </g>
</svg>
