<svg xmlns="http://www.w3.org/2000/svg" width="3" height="13" viewBox="0 0 3 13">
    <defs>
        <style>
            .prefix__cls-1{fill:#fff}
        </style>
    </defs>
    <g id="prefix__Group_5238" data-name="Group 5238" transform="translate(-128.283 -11)">
        <path id="prefix__Rectangle_2736" d="M0 0H3V9H0z" class="prefix__cls-1" data-name="Rectangle 2736" transform="translate(128.283 15)"/>
        <path id="prefix__Rectangle_2737" d="M0 0H3V2H0z" class="prefix__cls-1" data-name="Rectangle 2737" transform="translate(128.283 11)"/>
    </g>
</svg>
