<svg xmlns="http://www.w3.org/2000/svg" id="prefix__group-3551" width="46.876" height="33.01" viewBox="0 0 46.876 33.01">
    <rect id="prefix__Rectangle_2327" width="46.876" height="33.01" data-name="Rectangle 2327" rx="4" style="fill:#36495d"/>
    <g id="prefix__Group_3550" data-name="Group 3550" transform="translate(8.875 7.505)">
        <path id="prefix__Rectangle_2328" d="M0 0h7.875v14.152H0z" data-name="Rectangle 2328" transform="translate(10.624 1.924)" style="fill:#f16522"/>
        <path id="prefix__Path_2439" d="M1102.126 697.075a8.985 8.985 0 013.438-7.076 9 9 0 100 14.152 8.985 8.985 0 01-3.438-7.076" data-name="Path 2439" transform="translate(-1091.002 -688.075)" style="fill:#e41b24"/>
        <path id="prefix__Path_2440" d="M1205.758 697.075a9 9 0 01-14.561 7.076 9 9 0 000-14.152 9 9 0 0114.561 7.076m-.859 5.577v-.29h.117v-.062h-.3v.059h.117v.29zm.578 0v-.352h-.092l-.1.24-.1-.24h-.091v.349h.064v-.264l.1.227h.067l.1-.228v.264z" data-name="Path 2440" transform="translate(-1176.634 -688.075)" style="fill:#f89e1c"/>
    </g>
</svg>
