<svg xmlns="http://www.w3.org/2000/svg" width="6.414" height="10.828" viewBox="0 0 6.414 10.828">
    <path id="prefix__Path_4893" d="M0 0l4 4-4 4" data-name="Path 4893" transform="translate(1.414 1.414)" style="fill:none;stroke:#ffa701;stroke-linecap:round;stroke-linejoin:round;stroke-width:2px"/>
</svg>
