<svg xmlns="http://www.w3.org/2000/svg" id="prefix__Shippings" width="48" height="48" viewBox="0 0 48 48">
    <defs>
        <style>
            .prefix__cls-1{fill:none}
        </style>
    </defs>
    <path id="prefix__Retângulo_2714" d="M0 0H48V48H0z" class="prefix__cls-1" data-name="Retângulo 2714"/>
    <g id="prefix__local_shipping-24px" transform="translate(12 12)">
        <path id="prefix__Caminho_4896" d="M0 0h24v24H0z" class="prefix__cls-1" data-name="Caminho 4896"/>
    </g>
    <path id="prefix__União_1" d="M17.9 21.733h-7.02a3.4 3.4 0 0 1-6.412 0A4.539 4.539 0 0 1 .028 17.2v-4.831a1.134 1.134 0 0 1 2.267 0V17.2a2.269 2.269 0 0 0 2.18 2.264 3.4 3.4 0 0 1 6.41 0H17.9a3.4 3.4 0 0 1 6.411 0h2.462V16.52a2.133 2.133 0 0 0-1.927-2.1H5.7a1.133 1.133 0 1 1 0-2.266h10.99v-9.83H1.162a1.162 1.162 0 0 1 0-2.324h16.661a1.163 1.163 0 0 1 1.134 1.416V5.7h2.663a3.017 3.017 0 0 1 2.37 1.042 4.551 4.551 0 0 1 .937 2.158l.649 3.3a4.427 4.427 0 0 1 3.468 4.316V20.6a1.133 1.133 0 0 1-1.133 1.133h-3.6a3.4 3.4 0 0 1-6.411 0zm2.076-1.133a1.134 1.134 0 1 0 1.134-1.134 1.135 1.135 0 0 0-1.134 1.134zm-13.431 0a1.134 1.134 0 1 0 1.133-1.134A1.135 1.135 0 0 0 6.546 20.6zm12.411-8.444h4.3l-.556-2.82v-.005c-.262-1.368-.735-1.368-1.082-1.368h-2.661zM.7 9.8c-.385 0-.7-.516-.7-1.157s.315-1.162.7-1.162h6.486c.388 0 .7.52.7 1.162S7.574 9.8 7.186 9.8zm.459-3.91a1.162 1.162 0 1 1 0-2.324h10.714a1.162 1.162 0 1 1 0 2.324z" data-name="União 1" transform="translate(9 12)" style="fill:#ffa701"/>
</svg>
