<svg xmlns="http://www.w3.org/2000/svg" width="48" height="48" viewBox="0 0 48 48">
    <defs>
        <style>
            .prefix__cls-2{fill:#828282}
        </style>
    </defs>
    <g id="prefix___006-withdraw" data-name="006-withdraw" transform="translate(14 14)">
        <path id="prefix__Retângulo_2841" d="M0 0H48V48H0z" data-name="Retângulo 2841" transform="translate(-14 -14)" style="fill:none"/>
        <g id="prefix__Grupo_5239" data-name="Grupo 5239">
            <g id="prefix__Grupo_5238" data-name="Grupo 5238">
                <path id="prefix__Caminho_4955" d="M172.7 262.593l-1.443 1.426v-7.237a.781.781 0 0 0-1.562 0v7.16l-1.365-1.349a.781.781 0 1 0-1.1 1.111l1.625 1.605a2.338 2.338 0 0 0 3.318 0l1.627-1.609a.781.781 0 0 0-1.1-1.111z" class="prefix__cls-2" data-name="Caminho 4955" transform="translate(-160.477 -246)"/>
                <path id="prefix__Caminho_4956" d="M322.875 276a.781.781 0 0 0-.781.781 1.564 1.564 0 0 1-1.562 1.563h-3.75a.781.781 0 0 0 0 1.563h3.75a3.129 3.129 0 0 0 3.125-3.125.781.781 0 0 0-.782-.782z" class="prefix__cls-2" data-name="Caminho 4956" transform="translate(-303.656 -265.219)"/>
                <path id="prefix__Caminho_4957" d="M161.1 85.711a.781.781 0 0 0 1.08-.234 4.394 4.394 0 0 0 .71-2.381 3.954 3.954 0 1 0-7.891 0 4.294 4.294 0 0 0 .673 2.384.781.781 0 0 0 1.31-.852 2.76 2.76 0 0 1-.421-1.532 2.4 2.4 0 1 1 4.766 0 2.835 2.835 0 0 1-.462 1.535.781.781 0 0 0 .235 1.08z" class="prefix__cls-2" data-name="Caminho 4957" transform="translate(-148.945 -75.797)"/>
                <circle id="prefix__Elipse_138" cx=".781" cy=".781" r=".781" class="prefix__cls-2" data-name="Elipse 138" transform="translate(15.43 6.523)"/>
                <circle id="prefix__Elipse_139" cx=".781" cy=".781" r=".781" class="prefix__cls-2" data-name="Elipse 139" transform="translate(3.008 6.523)"/>
                <path id="prefix__Caminho_4958" d="M16.875 0H3.125A3.129 3.129 0 0 0 0 3.125v8.438a3.129 3.129 0 0 0 3.125 3.125h3.75a.781.781 0 0 0 0-1.562h-3.75a1.564 1.564 0 0 1-1.562-1.562V3.125a1.564 1.564 0 0 1 1.562-1.562h13.75a1.564 1.564 0 0 1 1.563 1.563v4.53a.781.781 0 0 0 1.563 0V3.125A3.129 3.129 0 0 0 16.875 0z" class="prefix__cls-2" data-name="Caminho 4958"/>
            </g>
        </g>
    </g>
</svg>
