<svg xmlns="http://www.w3.org/2000/svg" width="97.632" height="9.283" viewBox="0 0 97.632 9.283">
  <g id="Grupo_5222" data-name="Grupo 5222" transform="translate(-181.053 -628.798)">
    <path id="Path_1888" d="M234.664,478.37h-6.628v5.848h6.628V482.16H231.19v-1.57h5.505v3.194a2.527,2.527,0,0,1-.481,1.733,2.561,2.561,0,0,1-1.817.433H228.09a2.871,2.871,0,0,1-1.817-.433,2.527,2.527,0,0,1-.481-1.733v-4.873a1.855,1.855,0,0,1,2.3-2.22H234.4a2.78,2.78,0,0,1,1.764.433,2.253,2.253,0,0,1,.481,1.624v.217l-2.084.379Z" transform="translate(-44.729 152.117)"/>
    <path id="Path_1889" d="M253.4,488v-8.212h6.734a2.105,2.105,0,0,1,1.336.352,1.637,1.637,0,0,1,.428,1.232v1.936a1.339,1.339,0,0,1-.428,1.173,1.8,1.8,0,0,1-1.336.352h-1.016l3.528,3.109h-2.619l-3.153-3.109h-1.71v3.109H253.4Zm5.986-6.8h-4.169v2.288h4.169a.9.9,0,0,0,.641-.176.572.572,0,0,0,.16-.528v-.939a1.009,1.009,0,0,0-.16-.528,2.464,2.464,0,0,0-.641-.117Z" transform="translate(-57.373 150.063)"/>
    <path id="Path_1890" d="M274.9,488.013V479.8h8.017v1.467h-6.147v1.76h3.581v1.408h-3.581v1.995h6.253v1.525H274.9Z" transform="translate(-67.221 150.055)"/>
    <path id="Path_1891" d="M295,488.013V479.8h8.017v1.467h-6.147v1.76h3.581v1.408h-3.581v1.995h6.253v1.525H295Z" transform="translate(-76.425 150.055)"/>
    <path id="Path_1892" d="M315.1,488.013V479.8h1.229l6.36,5.456V479.8h1.657v8.213h-1.283l-6.307-5.515v5.515Z" transform="translate(-85.62 150.055)"/>
    <path id="Path_1893" d="M339.9,485.95v-9.259h7.8a2.266,2.266,0,0,1,1.55.433,1.648,1.648,0,0,1,.481,1.354v1.137a1.477,1.477,0,0,1-.428,1.083,1.91,1.91,0,0,1-1.176.487,1.984,1.984,0,0,1,1.229.542,1.907,1.907,0,0,1,.428,1.191v1.191a1.461,1.461,0,0,1-.641,1.354,3.835,3.835,0,0,1-2.031.433Zm6.895-7.743h-4.81v2.22h4.81a1.69,1.69,0,0,0,.748-.162.632.632,0,0,0,.214-.542v-.866a.53.53,0,0,0-.214-.487A1.688,1.688,0,0,0,346.795,478.207Zm0,3.736h-4.81v2.328h4.81a1.346,1.346,0,0,0,.8-.162.954.954,0,0,0,.214-.65v-.7a.953.953,0,0,0-.214-.65A1.265,1.265,0,0,0,346.795,481.943Z" transform="translate(-96.968 152.117)"/>
    <path id="Path_1894" d="M364.525,481.725a2.484,2.484,0,0,1,.374-1.525,2.164,2.164,0,0,1,1.55-.411h5.772a1.555,1.555,0,0,1,1.924,1.935v4.34a2.207,2.207,0,0,1-.428,1.525,2.1,2.1,0,0,1-1.55.411H366.4a2.163,2.163,0,0,1-1.55-.411,1.937,1.937,0,0,1-.374-1.525Zm1.817,4.692h6.04v-5.1h-6.04Z" transform="translate(-108.021 150.066)"/>
    <path id="Path_1895" d="M387.053,488.013l3.688-4.224L387,479.8h2.459l2.512,2.64,2.352-2.64h2.084l-3.421,3.755,4.222,4.459H394.7l-2.886-3.051-2.619,3.051Z" transform="translate(-118.523 150.055)"/>
  </g>
</svg>
