<svg xmlns="http://www.w3.org/2000/svg" id="prefix__logoQC" width="44.475" height="32" viewBox="0 0 44.475 32">
  <defs>
    <linearGradient id="prefix__linear-gradient" x1=".5" x2=".5" y1="-.293" y2="1.232" gradientUnits="objectBoundingBox">
      <stop offset=".07" stop-color="#fff"/>
      <stop offset="1" stop-color="#fff" stop-opacity="0"/>
    </linearGradient>
    <style>
      .prefix__cls-2{fill:#4bb9b5}.prefix__cls-3{fill:none}
    </style>
  </defs>
  <g id="prefix__Camada_2" data-name="Camada 2">
    <g id="prefix__Camada_1" data-name="Camada 1">
      <path id="prefix__Caminho_33" d="M16.47 0C7.234 0 0 7.028 0 16v.086C0 25.159 7.044 32 16.384 32a16.911 16.911 0 0 0 8.821-2.426l1.288 1.151a3.632 3.632 0 0 0 6.2-2.611 3.8 3.8 0 0 0-1.394-2.9l-.9-.75A15.852 15.852 0 0 0 32.86 16v-.086C32.86 6.837 25.8 0 16.47 0zm8.4 16.086a10.169 10.169 0 0 1-.487 3.138L21.7 16.818a3.571 3.571 0 0 0-2.541-1.032 3.652 3.652 0 0 0-3.628 3.67 3.793 3.793 0 0 0 1.389 2.9l2.425 2.044a9.11 9.11 0 0 1-2.867.426 8.473 8.473 0 0 1-8.488-8.817v-.086A8.452 8.452 0 1 1 24.881 16z" data-name="Caminho 33" style="fill:#3c3c3b"/>
      <path id="prefix__Caminho_34" d="M158.97 101.132a3.074 3.074 0 0 0-1.963.726 9.483 9.483 0 0 1-5.8 2.324 5.293 5.293 0 0 1 .763 2.752 5.39 5.39 0 0 1-1.14 3.308 14.835 14.835 0 0 0 10.1-3.749 3.03 3.03 0 0 0-1.961-5.374z" class="prefix__cls-2" data-name="Caminho 34" transform="translate(-117.567 -78.818)"/>
      <path id="prefix__Caminho_35" d="M44.592 32.508a8.391 8.391 0 0 0-8.4 8.744v.086a8.467 8.467 0 0 0 8.488 8.821 9.11 9.11 0 0 0 2.867-.426l-2.426-2.051a3.793 3.793 0 0 1-1.389-2.9 3.652 3.652 0 0 1 3.637-3.661 3.571 3.571 0 0 1 2.541 1.032l2.686 2.406a10.169 10.169 0 0 0 .487-3.138v-.086a9.924 9.924 0 0 0-.163-1.813 8.8 8.8 0 0 0-1.925-4.113 8.286 8.286 0 0 0-6.403-2.901z" class="prefix__cls-3" data-name="Caminho 35" transform="translate(-28.209 -25.338)"/>
      <path id="prefix__Caminho_36" d="M103.25 33a1.812 1.812 0 0 0 .013.183 8.8 8.8 0 0 1 1.917 4.117c.024-.068.049-.139.073-.221 1.041-3.191 4.532-4.393 6.616-4.834a15.411 15.411 0 0 0-1.517-2.594l-3.088.845z" data-name="Caminho 36" transform="translate(-80.48 -23.111)" style="fill:#1d1d1b"/>
      <path id="prefix__Caminho_37" d="M44.592 32.51a8.391 8.391 0 0 0-8.4 8.744v.393a8.454 8.454 0 0 0 8.482 8.524 9.11 9.11 0 0 0 2.867-.426l-2.426-2.051a3.793 3.793 0 0 1-1.389-2.9 3.652 3.652 0 0 1 3.643-3.67 3.571 3.571 0 0 1 2.541 1.032l2.686 2.406a10.169 10.169 0 0 0 .487-3.138v-.084a10.227 10.227 0 0 0-.073-1.2 8.38 8.38 0 0 0-8.418-7.63z" class="prefix__cls-3" data-name="Caminho 37" transform="translate(-28.209 -25.34)"/>
      <path id="prefix__Caminho_38" d="M7.981 16v-.086A8.431 8.431 0 0 1 24.8 14.8h.37c2.6 0 5.165.1 7.664.291C32.419 6.429 25.523 0 16.47 0 7.234 0 0 7.028 0 16v.086a16.891 16.891 0 0 0 .128 2.049 80.643 80.643 0 0 1 7.86-1.828c-.002-.107-.007-.207-.007-.307z" data-name="Caminho 38"/>
      <path id="prefix__Caminho_39" d="M104.916 5.545a15.808 15.808 0 0 0-9.984-3.028A16.075 16.075 0 0 0 87.3 4.366a14.816 14.816 0 0 0-5.692 5.405c-.1.161-.185.329-.276.494-.04.071-.082.141-.121.221l-.026.051-.079.157c-.035.066-.071.132-.1.2-.071.141-.137.282-.2.426 0 .018-.015.033-.022.051-.066.146-.132.291-.194.441s-.119.3-.181.457-.123.322-.179.485-.088.276-.13.412c-.057.187-.119.373-.17.56a.575.575 0 0 1-.031.132 15.738 15.738 0 0 0-.355 1.749c-.031.221-.055.441-.075.662a5.293 5.293 0 0 1 1.636-.26 5.24 5.24 0 0 1 3.674 1.458l.322.3.767.734.086-.4c.236-1.092.558-2.578.56-2.58a8.769 8.769 0 0 1 5.666-6.512 8.488 8.488 0 0 1 2.719-.441 9.83 9.83 0 0 1 6.1 2.133 3.445 3.445 0 0 0 1.963.646 3.207 3.207 0 0 0 3.242-3.2 3.288 3.288 0 0 0-1.281-2.6z" class="prefix__cls-2" data-name="Caminho 39" transform="translate(-61.936 -1.962)"/>
    </g>
  </g>
</svg>
