<svg xmlns="http://www.w3.org/2000/svg" id="prefix__logoQC" width="125.481" height="32" viewBox="0 0 125.481 32">
    <defs>
        <style>
            .prefix__cls-1{fill:#4bb9b5}.prefix__cls-2{fill:#221f20}.prefix__cls-4{fill:#4dbab6}
        </style>
    </defs>
    <g id="prefix__Grupo_5355" data-name="Grupo 5355" transform="translate(48.889 10.275)">
        <path id="prefix__Caminho_5031" d="M336.279 268.486c-3.553 0-5.579-2.412-5.579-6 0-3.517 2.081-5.984 5.579-5.984 3.535 0 5.6 2.449 5.6 5.984a6.193 6.193 0 0 1-1.215 4l1.252 1.2-.626.626a.876.876 0 0 1-1.289.037l-.663-.608a5.749 5.749 0 0 1-3.059.745zm3.2-6c0-2.3-1.031-3.94-3.2-3.94s-3.185 1.712-3.185 3.94c0 2.283.994 4 3.185 4a3.515 3.515 0 0 0 .718-.074 3.847 3.847 0 0 0 .681-.239l-1.252-1.16.405-.442a1.054 1.054 0 0 1 1.473-.184l.663.5a4.482 4.482 0 0 0 .515-2.403z" data-name="Caminho 5031" transform="translate(-330.7 -256.463)"/>
        <path id="prefix__Caminho_5032" d="M405.522 276.85c0 1.565-.387 2.6-1.2 3.093a5.3 5.3 0 0 1-2.67.7 4.6 4.6 0 0 1-2.578-.773c-.792-.5-1.178-1.491-1.178-3.02v-5.45h2.283v5.929a1.547 1.547 0 0 0 3.093 0v-4.787a.981.981 0 0 1 1.1-1.142h1.16v5.45z" data-name="Caminho 5032" transform="translate(-385.527 -268.62)"/>
        <path id="prefix__Caminho_5033" d="M445.878 257.3a.975.975 0 0 1 1.1 1.123v.663H444.7V257.3zm0 2.6a.976.976 0 0 1 1.1 1.1v7.972H444.7V259.9z" data-name="Caminho 5033" transform="translate(-423.711 -257.116)"/>
        <path id="prefix__Caminho_5034" d="M467.916 280.108c-2.743 0-4.161-1.583-4.216-4.695 0-3.112 1.381-4.677 4.179-4.713 2.191 0 3.5.976 3.9 2.946H469.3a1.472 1.472 0 0 0-1.473-.939c-1.2 0-1.8.9-1.8 2.707s.626 2.707 1.9 2.688a1.818 1.818 0 0 0 1.381-.644 1.06 1.06 0 0 1 .773-.331h1.712a3.581 3.581 0 0 1-3.877 2.981z" data-name="Caminho 5034" transform="translate(-439.213 -268.049)"/>
        <path id="prefix__Caminho_5035" d="M516.3 258.5v5.026l2.817-3.222h2.743l-3.148 3.369 3.167 5.395h-2.725l-1.62-2.983q-.442-.773-.884-.773a.422.422 0 0 0-.368.442v3.314H514V257.4h1.178a1.1 1.1 0 0 1 1.122 1.1z" data-name="Caminho 5035" transform="translate(-480.251 -257.195)"/>
        <path id="prefix__Caminho_5036" d="M564.376 268.323c-3.59 0-5.376-2.375-5.376-6 0-3.756 1.9-6.021 5.579-6.021a5.238 5.238 0 0 1 3.443 1.068 4.372 4.372 0 0 1 1.4 3.02h-1.436a1.188 1.188 0 0 1-1.123-.7 2.281 2.281 0 0 0-2.3-1.27c-2.209 0-3.185 1.565-3.185 3.922 0 2.283.939 3.9 3.13 3.9a2.454 2.454 0 0 0 2.615-2.117h2.32c-.224 2.67-2.121 4.198-5.067 4.198z" class="prefix__cls-1" data-name="Caminho 5036" transform="translate(-516.966 -256.3)"/>
        <path id="prefix__Caminho_5037" d="M623.441 273.1h-2.283c.276-1.675 1.455-2.5 3.553-2.5 2.5 0 3.774.829 3.83 2.5v3.1c0 2.5-1.51 3.627-3.958 3.793-2.173.166-3.682-.847-3.682-2.854.055-2.173 1.639-2.762 3.922-2.983.976-.129 1.473-.405 1.473-.9-.055-.516-.534-.773-1.473-.773-.811-.005-1.253.198-1.382.617zm2.891 3v-.847a10.676 10.676 0 0 1-1.823.552c-.9.166-1.381.608-1.381 1.27a1.017 1.017 0 0 0 1.142 1.068 1.883 1.883 0 0 0 2.061-2.038z" class="prefix__cls-1" data-name="Caminho 5037" transform="translate(-567.469 -267.967)"/>
        <path id="prefix__Caminho_5038" d="M668.4 275.7c.074-2.927 1.639-4.4 4.677-4.4h.331v2.375h-.773c-1.27 0-1.9.663-1.9 1.988v4.713h-2.32V275.7z" class="prefix__cls-1" data-name="Caminho 5038" transform="translate(-606.224 -268.538)"/>
        <path id="prefix__Caminho_5039" d="M709.169 258.46v6.591c0 2.725-1.418 4.087-4.253 4.069-2.817-.055-4.216-1.583-4.216-4.6 0-3.093 1.2-4.677 3.627-4.75a2.867 2.867 0 0 1 2.6 1.4v-3.87h1.142a1.144 1.144 0 0 1 1.1 1.16zm-6.113 5.947c-.018 1.841.608 2.762 1.9 2.762 1.307 0 1.952-.921 1.952-2.762-.055-1.749-.681-2.614-1.915-2.614s-1.881.865-1.936 2.614z" class="prefix__cls-1" data-name="Caminho 5039" transform="translate(-632.577 -257.116)"/>
    </g>
    <g id="prefix__Grupo_5356" data-name="Grupo 5356">
        <path id="prefix__Caminho_5040" d="M110.184 253.809c-.479-.516-.939-1.049-1.436-1.547-.479-.5-.994-.976-1.491-1.455-.092-.092-.092-.147-.018-.239.331-.35.663-.718.994-1.068a3.242 3.242 0 0 1 2.191-.957 2.611 2.611 0 0 1 1.988.644c.405.35.847.681 1.27 1.031.092.074.129.092.2-.037a10.387 10.387 0 0 0 1.049-3.259c.074-.681.239-1.362.258-2.062a13.673 13.673 0 0 0-1.528-7.475 2.47 2.47 0 0 0-.331-.516c-.11-.129-.074-.2.037-.313a7 7 0 0 1 3.075-1.823 9.515 9.515 0 0 1 2.283-.35.325.325 0 0 1 .368.2 16.625 16.625 0 0 1 1.988 5.376 23.516 23.516 0 0 1 .313 5.8 16.979 16.979 0 0 1-1.62 6.444 10.494 10.494 0 0 1-1.418 2.173c-.092.129-.129.184.018.313 1.031.957 2.044 1.933 3.075 2.909.092.074.092.129.018.2-.552.534-1.1 1.086-1.639 1.639a2.393 2.393 0 0 1-3.351.018c-.552-.46-1.086-.957-1.6-1.436-.129-.11-.184-.092-.313-.018a8.494 8.494 0 0 1-3.2 1.344 20.36 20.36 0 0 1-3.148.5 16.25 16.25 0 0 1-9.151-1.767 12.58 12.58 0 0 1-5.763-6.849 18.532 18.532 0 0 1-.921-3.609c-.018-.147.018-.184.147-.184h5.965c.129 0 .166.037.2.166a9.157 9.157 0 0 0 2.209 4.566 7.153 7.153 0 0 0 4.106 2.191 10.76 10.76 0 0 0 3.351.037 5.872 5.872 0 0 0 1.825-.587z" class="prefix__cls-2" data-name="Caminho 5040" transform="translate(-87.367 -228.142)"/>
        <path id="prefix__Caminho_5041" d="M182.906 211.422h-1.62a3.025 3.025 0 0 1-2.927-1.786 7.709 7.709 0 0 0-1.252-1.8 4.386 4.386 0 0 0-1.823-1.086 8.353 8.353 0 0 0-2.5-.46 9.617 9.617 0 0 0-3.756.5 6.988 6.988 0 0 0-4.161 4.069 13.256 13.256 0 0 0-.847 3.664 22.215 22.215 0 0 0-.074 3.13 13.7 13.7 0 0 0 .313 2.6c.037.147.037.184-.147.166a4.033 4.033 0 0 0-2.762.9 14.548 14.548 0 0 0-1.712 1.823c-.111.129 0 .166.055.221.9.829 1.823 1.657 2.743 2.5.037.037.129.074.11.147s-.11.074-.166.092a7.9 7.9 0 0 1-2.265.387c-.147.018-.2-.074-.258-.184a14.392 14.392 0 0 1-1.547-4.014 21.879 21.879 0 0 1-.534-3.793c-.037-.755-.074-1.491-.074-2.246a21.612 21.612 0 0 1 1.16-7.254 11.861 11.861 0 0 1 8.709-7.825 17.054 17.054 0 0 1 3.48-.5 19.407 19.407 0 0 1 5.91.534 11.091 11.091 0 0 1 5.063 2.835 10.7 10.7 0 0 1 2.743 5.045 19.073 19.073 0 0 1 .35 2.007c.037.295.037.295-.276.295-.665.033-1.309.033-1.935.033z" class="prefix__cls-1" data-name="Caminho 5041" transform="translate(-140.664 -200.614)"/>
        <path id="prefix__Caminho_5042" d="M113.715 201.194a11.9 11.9 0 0 0-3.83 2.651 13.072 13.072 0 0 0-1.639 1.988.342.342 0 0 1-.276.166 7.376 7.376 0 0 0-4.677 1.988 8.138 8.138 0 0 0-1.712 2.467.3.3 0 0 1-.313.2c-2.007-.018-4.032-.018-6.039 0-.221 0-.221-.055-.166-.239a14.1 14.1 0 0 1 2.8-5.321 12.9 12.9 0 0 1 3.793-2.964 14.949 14.949 0 0 1 5.56-1.565 17.935 17.935 0 0 1 6.334.534c.018.04.073.059.165.095z" class="prefix__cls-2" data-name="Caminho 5042" transform="translate(-89.535 -200.493)"/>
        <path id="prefix__Caminho_5043" d="M237.473 323.41c.221-.2.46-.405.681-.626.423-.423.829-.847 1.27-1.27.092-.092.129-.147.018-.276-.957-.939-1.915-1.9-2.909-2.817a4.471 4.471 0 0 0-.534-.387c.331-.018.626-.037.9-.074a6.927 6.927 0 0 0 3.664-1.326 6.085 6.085 0 0 0 1.9-2.651 13.793 13.793 0 0 0 .46-1.4c.037-.129.092-.184.221-.184 1.9 0 3.793.018 5.671 0 .239 0 .2.129.184.258a13.733 13.733 0 0 1-1.031 4.106 10.586 10.586 0 0 1-6.61 5.91 15.92 15.92 0 0 1-3.83.792c-.018 0-.037-.036-.055-.055z" data-name="Caminho 5043" transform="translate(-204.547 -291.796)" style="fill:#4dbab5"/>
        <path id="prefix__Caminho_5044" d="M72.852 258.2h6.757a.84.84 0 1 1 .11 1.675H66.1a.862.862 0 0 1-.921-.718.822.822 0 0 1 .865-.957h6.812z" class="prefix__cls-4" data-name="Caminho 5044" transform="translate(-65.169 -247.575)"/>
        <path id="prefix__Caminho_5045" d="M75.614 276.118h6a.813.813 0 0 1 .847.571.834.834 0 0 1-.792 1.1h-12a.884.884 0 0 1-.957-.681.835.835 0 0 1 .718-.994 1.3 1.3 0 0 1 .258-.018c1.985.022 3.956.022 5.926.022z" class="prefix__cls-4" data-name="Caminho 5045" transform="translate(-68.041 -262.18)"/>
        <path id="prefix__Caminho_5046" d="M81.75 295.676H77.2a.832.832 0 0 1-.847-.589.853.853 0 0 1 .795-1.087h9.1a.867.867 0 0 1 .829.405.82.82 0 0 1-.644 1.27c-.331.018-.663 0-.994 0z" class="prefix__cls-4" data-name="Caminho 5046" transform="translate(-74.27 -276.784)"/>
        <path id="prefix__Caminho_5047" d="M94.774 269.618h2.909c.184 0 .2.037.184.2-.074.516-.074.516-.589.516h-5.523c-.184 0-.239-.037-.2-.239.055-.5.037-.5.534-.5.881.023 1.783.023 2.685.023z" data-name="Caminho 5047" transform="translate(-86.686 -256.876)" style="fill:#232021"/>
        <path id="prefix__Caminho_5048" d="M93.857 288.418h-2.909c-.147 0-.258-.571-.147-.681a2.52 2.52 0 0 1 .534-.037H96.8c.147 0 .2.018.2.2-.018.516 0 .534-.516.534-.877-.016-1.743-.016-2.627-.016z" class="prefix__cls-2" data-name="Caminho 5048" transform="translate(-86.045 -271.644)"/>
        <path id="prefix__Caminho_5049" d="M209.865 367.408A11.928 11.928 0 0 1 207.6 367c.018-.092.092-.092.147-.129a3.2 3.2 0 0 1 .35-.184c.2-.092.368-.313.571-.295.184.037.35.258.5.405.232.187.457.408.697.611z" class="prefix__cls-4" data-name="Caminho 5049" transform="translate(-181.376 -335.849)"/>
    </g>
</svg>
