<svg xmlns="http://www.w3.org/2000/svg" id="prefix__remove_red_eye-24px" width="24" height="24" viewBox="0 0 24 24">
    <path id="prefix__Path_4854" d="M0 0h24v24H0z" data-name="Path 4854" style="fill:none"/>
    <path id="prefix__Path_4855" d="M12 4.5A11.827 11.827 0 001 12a11.817 11.817 0 0022 0 11.827 11.827 0 00-11-7.5zM12 17a5 5 0 115-5 5 5 0 01-5 5zm0-8a3 3 0 103 3 3 3 0 00-3-3z" data-name="Path 4855" style="fill:#ffbd40"/>
</svg>
