<svg xmlns="http://www.w3.org/2000/svg" width="14.219" height="16" viewBox="0 0 14.219 16">
    <defs>
        <style>
            .prefix__cls-1{fill:#828282}
        </style>
    </defs>
    <g id="prefix___001-invoice" data-name="001-invoice" transform="translate(-28.5)">
        <g id="prefix__Group_5229" data-name="Group 5229" transform="translate(28.5)">
            <g id="prefix__Group_5228" data-name="Group 5228">
                <path id="prefix__Path_4927" d="M109.438 253h-.312a.625.625 0 000 1.25h.313a.625.625 0 100-1.25z" class="prefix__cls-1" data-name="Path 4927" transform="translate(-106 -245.094)"/>
                <path id="prefix__Path_4928" d="M193.094 173h-3.969a.625.625 0 100 1.25h3.969a.625.625 0 100-1.25z" class="prefix__cls-1" data-name="Path 4928" transform="translate(-183.5 -167.594)"/>
                <path id="prefix__Path_4929" d="M37.09 14.75H31a1.251 1.251 0 01-1.25-1.25v-11A1.251 1.251 0 0131 1.25h7.684a1.251 1.251 0 011.25 1.25v3.531a.625.625 0 001.25 0V2.5a2.5 2.5 0 00-2.5-2.5H31a2.5 2.5 0 00-2.5 2.5v11A2.5 2.5 0 0031 16h6.09a.625.625 0 000-1.25z" class="prefix__cls-1" data-name="Path 4929" transform="translate(-28.5)"/>
                <path id="prefix__Path_4930" d="M109.438 333h-.312a.625.625 0 000 1.25h.313a.625.625 0 100-1.25z" class="prefix__cls-1" data-name="Path 4930" transform="translate(-106 -322.594)"/>
                <path id="prefix__Path_4931" d="M193.094 93h-3.969a.625.625 0 100 1.25h3.969a.625.625 0 100-1.25z" class="prefix__cls-1" data-name="Path 4931" transform="translate(-183.5 -90.094)"/>
                <path id="prefix__Path_4932" d="M349.95 256.342h-.573a.513.513 0 01-.508-.517v-.084a.489.489 0 01.508-.491h.542a.3.3 0 01.324.285.625.625 0 101.25 0 1.548 1.548 0 00-1.282-1.508v-.4a.625.625 0 00-1.25 0v.423a1.745 1.745 0 00-.822.452 1.721 1.721 0 00-.519 1.24v.084a1.764 1.764 0 001.758 1.767h.573a.511.511 0 01.511.509v.3a.484.484 0 01-.511.477h-.931a.3.3 0 01-.309-.293.625.625 0 10-1.25 0 1.525 1.525 0 00.462 1.1 1.558 1.558 0 001.039.442v.345a.625.625 0 001.25 0v-.362a1.716 1.716 0 001.5-1.708v-.3a1.762 1.762 0 00-1.762-1.761z" class="prefix__cls-1" data-name="Path 4932" transform="translate(-337.492 -245.094)"/>
                <path id="prefix__Path_4933" d="M191.844 334.25a.625.625 0 100-1.25h-2.719a.625.625 0 100 1.25z" class="prefix__cls-1" data-name="Path 4933" transform="translate(-183.5 -322.594)"/>
                <path id="prefix__Path_4934" d="M109.438 173h-.312a.625.625 0 000 1.25h.313a.625.625 0 100-1.25z" class="prefix__cls-1" data-name="Path 4934" transform="translate(-106 -167.594)"/>
                <path id="prefix__Path_4935" d="M193.719 253.625a.625.625 0 00-.625-.625h-3.969a.625.625 0 100 1.25h3.969a.625.625 0 00.625-.625z" class="prefix__cls-1" data-name="Path 4935" transform="translate(-183.5 -245.094)"/>
                <path id="prefix__Path_4936" d="M109.438 93h-.312a.625.625 0 000 1.25h.313a.625.625 0 100-1.25z" class="prefix__cls-1" data-name="Path 4936" transform="translate(-106 -90.094)"/>
            </g>
        </g>
    </g>
</svg>
