<svg xmlns="http://www.w3.org/2000/svg" width="98.739" height="77.438" viewBox="0 0 98.739 77.438">
    <defs>
        <filter id="prefix__Caminho_5059" width="27.127" height="33.592" x="26.759" y="0" filterUnits="userSpaceOnUse">
            <feOffset dx="1" dy="1"/>
            <feGaussianBlur result="blur" stdDeviation=".25"/>
            <feFlood flood-color="#fda127"/>
            <feComposite in2="blur" operator="in"/>
            <feComposite in="SourceGraphic"/>
        </filter>
        <style>
            .prefix__cls-1{fill:#282828}.prefix__cls-2{fill:#ffd95a}
        </style>
    </defs>
    <g id="prefix__Grupo_5369" data-name="Grupo 5369" transform="translate(-247.198 -161.699)">
        <path id="prefix__Caminho_5053" d="M247.2 370.777v-.131a4.356 4.356 0 0 1 1.484-3.23l10.869-12H250.3a2.683 2.683 0 0 1-2.706-2.662 2.72 2.72 0 0 1 2.706-2.706h14.536c1.877 0 3.23 1.091 3.23 2.662v.131a4.356 4.356 0 0 1-1.484 3.23l-10.913 12h9.69a2.72 2.72 0 0 1 2.707 2.706 2.683 2.683 0 0 1-2.707 2.663h-14.931c-1.877 0-3.228-1.092-3.228-2.663z" class="prefix__cls-1" data-name="Caminho 5053" transform="translate(0 -134.827)"/>
        <path id="prefix__Caminho_5054" d="M320.321 360.772v-.088a12.012 12.012 0 0 1 12.266-12.178 11.711 11.711 0 0 1 7.988 2.619 2.942 2.942 0 0 1 1.047 2.27 2.981 2.981 0 0 1-3.012 2.968 3.124 3.124 0 0 1-1.921-.655 6.323 6.323 0 0 0-4.147-1.484c-3.317 0-5.675 2.925-5.675 6.373v.087c0 3.58 2.313 6.461 5.937 6.461a6.722 6.722 0 0 0 4.365-1.615 3.087 3.087 0 0 1 1.79-.611 2.815 2.815 0 0 1 1.833 4.933 11.508 11.508 0 0 1-8.293 3.012 11.946 11.946 0 0 1-12.178-12.092z" class="prefix__cls-1" data-name="Caminho 5054" transform="translate(-52.345 -133.727)"/>
        <path id="prefix__Caminho_5055" d="M399.438 366.057v-.087c0-5.107 3.885-7.465 9.428-7.465a16.624 16.624 0 0 1 5.718.96v-.393c0-2.75-1.7-4.277-5.02-4.277a15.225 15.225 0 0 0-4.584.655 2.805 2.805 0 0 1-.96.174 2.7 2.7 0 0 1-2.75-2.706 2.751 2.751 0 0 1 1.79-2.576 20.37 20.37 0 0 1 7.464-1.222c3.623 0 6.242.96 7.9 2.619 1.746 1.746 2.532 4.322 2.532 7.464v10.651a3.186 3.186 0 0 1-3.23 3.186 2.971 2.971 0 0 1-3.186-2.75v-.044a9 9 0 0 1-7.072 2.968c-4.407.002-8.03-2.53-8.03-7.157zm15.234-1.528v-1.179a10.286 10.286 0 0 0-4.234-.873c-2.837 0-4.584 1.135-4.584 3.23v.088c0 1.79 1.484 2.837 3.623 2.837 3.1.001 5.195-1.701 5.195-4.102z" class="prefix__cls-1" data-name="Caminho 5055" transform="translate(-108.982 -134.167)"/>
        <path id="prefix__Caminho_5056" d="M484.545 352.438a3.317 3.317 0 1 1 6.635 0v1.048c.96-2.27 2.532-4.365 4.5-4.365a3.205 3.205 0 0 1 .742 6.329c-3.361.786-5.238 3.361-5.238 8.075v6.2a3.317 3.317 0 1 1-6.635 0z" class="prefix__cls-1" data-name="Caminho 5056" transform="translate(-169.906 -134.167)"/>
        <path id="prefix__Caminho_5057" d="M543.366 351.079v-11.087h-.219a2.837 2.837 0 0 1 0-5.675h.219v-2.925a3.317 3.317 0 1 1 6.635 0v2.925h2.925a2.837 2.837 0 0 1 0 5.675H550v10c0 1.528.655 2.27 2.139 2.27.218 0 .654-.044.786-.044a2.766 2.766 0 0 1 2.75 2.75 2.7 2.7 0 0 1-1.7 2.488 9.789 9.789 0 0 1-3.8.655c-4.06-.004-6.809-1.619-6.809-7.032z" class="prefix__cls-1" data-name="Caminho 5057" transform="translate(-209.826 -119.101)"/>
        <path id="prefix__Caminho_5058" d="M449.937 203.314a3 3 0 0 0-2.687-1.661h-22.691a3 3 0 0 0 0 6.01h16.681l-6.353 8.47h-4.141a3 3 0 0 0 0 6.01h5.643a3 3 0 0 0 2.4-1.2l10.86-14.48a3 3 0 0 0 .288-3.149z" class="prefix__cls-2" data-name="Caminho 5058" transform="translate(-124.814 -28.601)"/>
        <circle id="prefix__Elipse_518" cx="3.502" cy="3.502" r="3.502" class="prefix__cls-2" data-name="Elipse 518" transform="translate(298.255 196.906)"/>
        <circle id="prefix__Elipse_519" cx="3.502" cy="3.502" r="3.502" class="prefix__cls-2" data-name="Elipse 519" transform="rotate(-9.217 1364.135 -1625.49)"/>
        <g transform="translate(247.2 161.7)">
            <path id="prefix__Caminho_5059-2" d="M363.758 187.559h-13.413l15.806-21.074a2.991 2.991 0 0 0-2.393-4.786h-19.395a2.991 2.991 0 1 0 0 5.982h13.413l-15.806 21.075a2.991 2.991 0 0 0 2.393 4.786h19.395a2.991 2.991 0 1 0 0-5.982z" data-name="Caminho 5059" transform="translate(-314.61 -161.7)" style="fill:#ffc703"/>
        </g>
    </g>
</svg>
