<svg xmlns="http://www.w3.org/2000/svg" width="32" height="32" viewBox="0 0 32 32">
    <defs>
        <style>
            .prefix__cls-2{fill:none;stroke:#ffa701;stroke-linecap:round;stroke-linejoin:round;stroke-width:2px}
        </style>
    </defs>
    <g id="prefix__Grupo_5172" data-name="Grupo 5172" transform="translate(-867 -470)">
        <g id="prefix__TRASH_ICON" data-name="TRASH ICON" transform="translate(867 470)">
            <circle id="prefix__Elipse_511" cx="16" cy="16" r="16" data-name="Elipse 511" style="fill:#ffda00;opacity:.5"/>
        </g>
        <g id="prefix__Grupo_5171" data-name="Grupo 5171" transform="translate(273 175)">
            <g id="prefix__Grupo_5083" data-name="Grupo 5083" transform="translate(.054 .03)">
                <g id="prefix__Grupo_5082" data-name="Grupo 5082" transform="translate(-57 -8)">
                    <g id="prefix__Grupo_5081" data-name="Grupo 5081">
                        <path id="prefix__Caminho_4825" d="M637.946 314.97l4 4-4 4" class="prefix__cls-2" data-name="Caminho 4825" transform="translate(25)"/>
                        <path id="prefix__Caminho_4826" d="M641.946 314.97l-4 4 4 4" class="prefix__cls-2" data-name="Caminho 4826" transform="translate(29)"/>
                    </g>
                </g>
            </g>
        </g>
    </g>
</svg>
