<svg xmlns="http://www.w3.org/2000/svg" id="Group_4675" width="80" height="80" data-name="Group 4675" viewBox="0 0 80 80">
    <defs>
        <style>
            .cls-1{fill:none}.cls-2{fill:#8cd68f}
        </style>
    </defs>
    <path id="Rectangle_2456" d="M0 0h80v80H0z" class="cls-1" data-name="Rectangle 2456"/>
    <g id="refund" transform="translate(13.649 12.649)">
        <g id="Group_4686" data-name="Group 4686" transform="translate(8.196 8.196)">
            <g id="Group_4685" data-name="Group 4685">
                <path id="Path_3352" d="M97.776 79.62a18.156 18.156 0 1 0 18.156 18.156A18.176 18.176 0 0 0 97.776 79.62zm0 34.6a16.448 16.448 0 1 1 16.448-16.448 16.467 16.467 0 0 1-16.448 16.452z" class="cls-2" data-name="Path 3352" transform="translate(-79.62 -79.62)"/>
            </g>
        </g>
        <g id="Group_4688" data-name="Group 4688" transform="translate(19.123 15.481)">
            <g id="Group_4687" data-name="Group 4687">
                <path id="Path_3353" d="M193.861 160.612v-6.656c2.789.224 4.667 1.522 4.667 2.7a.854.854 0 0 0 1.708 0c0-2.312-2.738-4.157-6.375-4.409v-1a.854.854 0 1 0-1.707 0v1c-3.636.252-6.374 2.1-6.374 4.409 0 3.1 2.944 4.305 6.374 5.262v6.656c-2.789-.224-4.667-1.522-4.667-2.7a.854.854 0 0 0-1.708 0c0 2.312 2.738 4.157 6.375 4.409v1a.854.854 0 0 0 1.707 0v-1c3.636-.252 6.375-2.1 6.375-4.409-.001-3.097-2.945-4.305-6.375-5.262zm-1.707-.475c-3.463-1.023-4.667-1.952-4.667-3.484 0-1.176 1.878-2.473 4.667-2.7zm1.707 8.434v-6.181c3.463 1.023 4.667 1.952 4.667 3.484 0 1.176-1.878 2.473-4.667 2.697z" class="cls-2" data-name="Path 3353" transform="translate(-185.779 -150.393)"/>
            </g>
        </g>
        <g id="Group_4690" data-name="Group 4690" transform="translate(4.553)">
            <g id="Group_4689" data-name="Group 4689">
                <path id="Path_3354" d="M84.664 7.718A26.351 26.351 0 0 0 46.375 8.8l.468-3.273a.854.854 0 0 0-1.69-.241l-.911 6.374a.854.854 0 0 0 1.115.931l5.463-1.821a.854.854 0 1 0-.54-1.62l-2.745.915a24.644 24.644 0 1 1 35.922 33.713A24.483 24.483 0 0 1 66.031 51a.854.854 0 1 0 0 1.707A26.352 26.352 0 0 0 84.664 7.718z" class="cls-2" data-name="Path 3354" transform="translate(-44.233)"/>
            </g>
        </g>
        <g id="Group_4692" data-name="Group 4692" transform="translate(20.956 50.592)">
            <g id="Group_4691" data-name="Group 4691">
                <path id="Path_3355" d="M205.458 491.647c-.29-.042-.583-.089-.869-.14a.854.854 0 0 0-.3 1.68c.306.055.619.106.929.15a.854.854 0 1 0 .242-1.69z" class="cls-2" data-name="Path 3355" transform="translate(-203.585 -491.493)"/>
            </g>
        </g>
        <g id="Group_4694" data-name="Group 4694" transform="translate(15.881 49.12)">
            <g id="Group_4693" data-name="Group 4693">
                <path id="Path_3356" d="M157.058 477.841a24.13 24.13 0 0 1-1.6-.588.854.854 0 1 0-.644 1.581c.561.229 1.137.44 1.712.629a.854.854 0 1 0 .532-1.622z" class="cls-2" data-name="Path 3356" transform="translate(-154.282 -477.19)"/>
            </g>
        </g>
        <g id="Group_4696" data-name="Group 4696" transform="translate(.27 29.224)">
            <g id="Group_4695" data-name="Group 4695">
                <path id="Path_3357" d="M4.63 286.317a24.449 24.449 0 0 1-.305-1.677.854.854 0 0 0-1.689.247c.088.6.2 1.2.327 1.793a.854.854 0 1 0 1.668-.364z" class="cls-2" data-name="Path 3357" transform="translate(-2.626 -283.91)"/>
            </g>
        </g>
        <g id="Group_4698" data-name="Group 4698" transform="translate(.5 18.733)">
            <g id="Group_4697" data-name="Group 4697">
                <path id="Path_3358" d="M6.34 182.02a.854.854 0 0 0-1.049.6c-.16.583-.3 1.18-.421 1.774a.854.854 0 1 0 1.674.336c.111-.555.244-1.113.394-1.659a.854.854 0 0 0-.598-1.051z" class="cls-2" data-name="Path 3358" transform="translate(-4.853 -181.989)"/>
            </g>
        </g>
        <g id="Group_4700" data-name="Group 4700" transform="translate(1.575 34.342)">
            <g id="Group_4699" data-name="Group 4699">
                <path id="Path_3359" d="M17.606 335.761a24.229 24.229 0 0 1-.646-1.576.854.854 0 0 0-1.6.592 26.5 26.5 0 0 0 .691 1.686.854.854 0 0 0 1.556-.7z" class="cls-2" data-name="Path 3359" transform="translate(-15.306 -333.627)"/>
            </g>
        </g>
        <g id="Group_4702" data-name="Group 4702" transform="translate(0 23.946)">
            <g id="Group_4701" data-name="Group 4701">
                <path id="Path_3360" d="M.951 232.635a.853.853 0 0 0-.9.8c-.032.53-.048 1.069-.048 1.6v.218a.854.854 0 0 0 .854.847h.004a.854.854 0 0 0 .847-.86v-.205c0-.5.015-1 .045-1.5a.854.854 0 0 0-.802-.9z" class="cls-2" data-name="Path 3360" transform="translate(0 -232.633)"/>
            </g>
        </g>
        <g id="Group_4704" data-name="Group 4704" transform="translate(11.222 46.628)">
            <g id="Group_4703" data-name="Group 4703">
                <path id="Path_3361" d="M111.8 454.034a25.113 25.113 0 0 1-1.444-.906.854.854 0 0 0-.957 1.414c.5.34 1.021.666 1.544.969a.854.854 0 0 0 .857-1.477z" class="cls-2" data-name="Path 3361" transform="translate(-109.021 -452.981)"/>
            </g>
        </g>
        <g id="Group_4706" data-name="Group 4706" transform="translate(3.913 39.077)">
            <g id="Group_4705" data-name="Group 4705">
                <path id="Path_3362" d="M40.548 381.438a24.95 24.95 0 0 1-.958-1.41.854.854 0 0 0-1.444.911 26.6 26.6 0 0 0 1.024 1.507.854.854 0 0 0 1.378-1.008z" class="cls-2" data-name="Path 3362" transform="translate(-38.014 -379.63)"/>
            </g>
        </g>
        <g id="Group_4708" data-name="Group 4708" transform="translate(7.176 43.231)">
            <g id="Group_4707" data-name="Group 4707">
                <path id="Path_3363" d="M72.413 421.426a24.919 24.919 0 0 1-1.227-1.183.854.854 0 1 0-1.227 1.188c.421.435.862.86 1.312 1.265a.854.854 0 1 0 1.142-1.269z" class="cls-2" data-name="Path 3363" transform="translate(-69.718 -419.983)"/>
            </g>
        </g>
        <g id="Group_4710" data-name="Group 4710" transform="translate(2.078 14.57)">
            <g id="Group_4709" data-name="Group 4709">
                <path id="Path_3364" d="M21.782 141.625a.854.854 0 0 0-1.138.4c-.134.282-.265.57-.388.857a.854.854 0 1 0 1.568.677c.116-.268.238-.537.363-.8a.854.854 0 0 0-.405-1.134z" class="cls-2" data-name="Path 3364" transform="translate(-20.186 -141.542)"/>
            </g>
        </g>
    </g>
</svg>
