<svg xmlns="http://www.w3.org/2000/svg" xmlns:xlink="http://www.w3.org/1999/xlink" width="376" height="660" viewBox="0 0 376 660">
  <defs>
    <linearGradient id="linear-gradient" x1="0.334" y1="0.023" x2="0.317" y2="0.8" gradientUnits="objectBoundingBox">
      <stop offset="0" stop-color="#ffe800"/>
      <stop offset="1" stop-color="#ffda00"/>
    </linearGradient>
    <clipPath id="clip-Login_-_Mobile">
      <rect width="376" height="660"/>
    </clipPath>
  </defs>
  <g id="Login_-_Mobile" data-name="Login - Mobile" clip-path="url(#clip-Login_-_Mobile)">
    <rect width="376" height="660" fill="#f4f4f4"/>
    <path id="Caminho_4843" data-name="Caminho 4843" d="M83.644,640H880.5V260H48Z" transform="translate(638 -215) rotate(90)" fill="url(#linear-gradient)"/>
    <g id="Grupo_5221" data-name="Grupo 5221" transform="translate(5355 -1730)">
      <path id="Caminho_4087" data-name="Caminho 4087" d="M134.607,0c74.225,0,134.611,60.386,134.611,134.609S208.832,269.218,134.607,269.218a11.352,11.352,0,0,1,0-22.7,111.9,111.9,0,1,0-111.9-111.9,11.352,11.352,0,1,1-22.7,0C0,60.386,60.384,0,134.607,0Z" transform="translate(-5606.429 2395.622) rotate(-73)" fill="#ffd95a" opacity="0.72"/>
      <path id="Caminho_4088" data-name="Caminho 4088" d="M1004.914,1121.57c-98.974,0-179.5-80.521-179.5-179.5s80.521-179.493,179.5-179.493a15.137,15.137,0,1,1,0,30.274c-82.278,0-149.219,66.94-149.219,149.219s66.941,149.219,149.219,149.219,149.219-66.938,149.219-149.219a15.138,15.138,0,0,1,30.277,0C1184.41,1041.049,1103.889,1121.57,1004.914,1121.57Z" transform="translate(-6441.733 1363.419)" fill="#fff100" opacity="0.72"/>
      <path id="Caminho_4090" data-name="Caminho 4090" d="M547.714,806.8a85.434,85.434,0,1,1,85.436-85.433A85.53,85.53,0,0,1,547.714,806.8Zm0-148.286a62.852,62.852,0,1,0,62.854,62.854A62.924,62.924,0,0,0,547.714,658.515Z" transform="translate(-5526.501 1678.198)" fill="#ff0"/>
      <path id="Caminho_4091" data-name="Caminho 4091" d="M525.668,772.116a74.143,74.143,0,1,1,74.145-74.141A74.227,74.227,0,0,1,525.668,772.116Zm0-128.687a54.546,54.546,0,1,0,54.546,54.546A54.608,54.608,0,0,0,525.668,643.428Z" transform="translate(-5459.449 1604.256)" fill="#fff"/>
    </g>
    <path id="Caminho_4829" data-name="Caminho 4829" d="M134.607,0c74.225,0,134.611,60.386,134.611,134.609S208.832,269.218,134.607,269.218a11.352,11.352,0,0,1,0-22.7,111.9,111.9,0,1,0-111.9-111.9,11.352,11.352,0,1,1-22.7,0C0,60.386,60.384,0,134.607,0Z" transform="translate(-244.429 150.622) rotate(-73)" fill="none" stroke="#fff" stroke-width="4"/>
    <path id="Caminho_4845" data-name="Caminho 4845" d="M525.668,772.116a74.143,74.143,0,1,1,74.145-74.141A74.227,74.227,0,0,1,525.668,772.116Zm0-128.687a54.546,54.546,0,1,0,54.546,54.546A54.608,54.608,0,0,0,525.668,643.428Z" transform="translate(-149.449 -686.744)" fill="#ffda00"/>
  </g>
</svg>
