<svg xmlns="http://www.w3.org/2000/svg" xmlns:xlink="http://www.w3.org/1999/xlink" width="1440" height="900" viewBox="0 0 1440 900">
  <defs>
    <linearGradient id="linear-gradient" x1="0.5" x2="0.5" y2="1" gradientUnits="objectBoundingBox">
      <stop offset="0" stop-color="#f7f7f7"/>
      <stop offset="1" stop-color="#e2e2e2"/>
    </linearGradient>
    <clipPath id="clip-Create_password_7">
      <rect width="1440" height="900"/>
    </clipPath>
  </defs>
  <g id="Create_password_7" data-name="Create password – 7" clip-path="url(#clip-Create_password_7)">
    <rect width="1440" height="900" fill="url(#linear-gradient)"/>
    <g id="Grupo_5219" data-name="Grupo 5219">
      <path id="Caminho_4827" data-name="Caminho 4827" d="M134.607,0c74.225,0,134.611,60.386,134.611,134.609S208.832,269.218,134.607,269.218a11.352,11.352,0,0,1,0-22.7,111.9,111.9,0,1,0-111.9-111.9,11.352,11.352,0,1,1-22.7,0C0,60.386,60.384,0,134.607,0Z" transform="translate(1255.349 901.622) rotate(-73)" fill="#efefef" opacity="0.46"/>
      <path id="Caminho_4828" data-name="Caminho 4828" d="M1004.914,1121.57c-98.974,0-179.5-80.521-179.5-179.5s80.521-179.493,179.5-179.493a15.137,15.137,0,1,1,0,30.274c-82.278,0-149.219,66.94-149.219,149.219s66.941,149.219,149.219,149.219,149.219-66.938,149.219-149.219a15.138,15.138,0,0,1,30.277,0C1184.41,1041.049,1103.889,1121.57,1004.914,1121.57Z" transform="translate(420.044 -130.581)" fill="#efefef" opacity="0.46"/>
      <path id="Caminho_4813" data-name="Caminho 4813" d="M525.668,772.116a74.143,74.143,0,1,1,74.145-74.141A74.227,74.227,0,0,1,525.668,772.116Zm0-128.687a54.546,54.546,0,1,0,54.546,54.546A54.608,54.608,0,0,0,525.668,643.428Z" transform="translate(925.329 -579.744)" fill="#ffda00"/>
      <path id="Caminho_4829" data-name="Caminho 4829" d="M134.607,0c74.225,0,134.611,60.386,134.611,134.609S208.832,269.218,134.607,269.218a11.352,11.352,0,0,1,0-22.7,111.9,111.9,0,1,0-111.9-111.9,11.352,11.352,0,1,1-22.7,0C0,60.386,60.384,0,134.607,0Z" transform="translate(-184.429 871.622) rotate(-73)" fill="none" stroke="#fff" stroke-width="4"/>
      <path id="Caminho_4830" data-name="Caminho 4830" d="M547.714,806.8a85.434,85.434,0,1,1,85.436-85.433A85.53,85.53,0,0,1,547.714,806.8Zm0-148.286a62.852,62.852,0,1,0,62.854,62.854A62.924,62.924,0,0,0,547.714,658.515Z" transform="translate(-561.501 -566.802)" fill="#ffda00"/>
      <path id="Caminho_4831" data-name="Caminho 4831" d="M525.668,772.116a74.143,74.143,0,1,1,74.145-74.141A74.227,74.227,0,0,1,525.668,772.116Zm0-128.687a54.546,54.546,0,1,0,54.546,54.546A54.608,54.608,0,0,0,525.668,643.428Z" transform="translate(-208.646 -679.744)" fill="#fff"/>
    </g>
  </g>
</svg>
