<svg xmlns="http://www.w3.org/2000/svg" id="search" width="120" height="48" viewBox="0 0 120 48">
    <defs>
        <style>
            .cls-1,.cls-2{fill:none}.cls-1{stroke:rgba(0,0,0,.3);stroke-linecap:round;stroke-linejoin:round;stroke-width:2px}.cls-3{fill:rgba(0,0,0,.3);font-size:18px;font-family:OpenSans-Regular,Open Sans}
        </style>
    </defs>
    <g id="Icon_feather-search" data-name="Icon feather-search" transform="translate(15.001 15)">
        <path id="Union_8" d="M-9810.237-2393.381a8.08 8.08 0 0 1-5.7 2.337 8.021 8.021 0 0 1-8.062-7.979 8.021 8.021 0 0 1 8.063-7.978 8.021 8.021 0 0 1 8.063 7.978 7.912 7.912 0 0 1-2.361 5.641l4.427 4.381z" class="cls-1" data-name="Union 8" transform="translate(9824 2407)"/>
    </g>
    <path id="Rectangle_2387" d="M0 0h48v48H0z" class="cls-2" data-name="Rectangle 2387"/>
    <text id="Search-2" class="cls-3" data-name="Search" transform="translate(63 31)">
        <tspan x="0" y="0">Search</tspan>
    </text>
</svg>
