<svg id="Grupo_4854" data-name="Grupo 4854" xmlns="http://www.w3.org/2000/svg" xmlns:xlink="http://www.w3.org/1999/xlink" width="80" height="66.394" viewBox="0 0 80 66.394">
  <defs>
    <filter id="Caminho_3348" x="0" y="0" width="41.183" height="51.229" filterUnits="userSpaceOnUse">
      <feOffset dx="1" dy="1" input="SourceAlpha"/>
      <feGaussianBlur stdDeviation="0.25" result="blur"/>
      <feFlood flood-color="#fda127"/>
      <feComposite operator="in" in2="blur"/>
      <feComposite in="SourceGraphic"/>
    </filter>
  </defs>
  <path id="Caminho_3347" data-name="Caminho 3347" d="M-1969.172,777.21a4.669,4.669,0,0,0-4.176-2.581h-35.259a4.669,4.669,0,0,0-4.67,4.669,4.669,4.669,0,0,0,4.67,4.669h25.921l-9.871,13.162h-6.434a4.669,4.669,0,0,0-4.67,4.669,4.669,4.669,0,0,0,4.67,4.669h8.769a4.669,4.669,0,0,0,3.735-1.868l16.875-22.5A4.668,4.668,0,0,0-1969.172,777.21Z" transform="translate(2048.679 -756.988)" fill="#fff"/>
  <circle id="Elipse_1" data-name="Elipse 1" cx="5.442" cy="5.442" r="5.442" transform="translate(37.756 54.708)" fill="#fff"/>
  <circle id="Elipse_2" data-name="Elipse 2" cx="5.442" cy="5.442" r="5.442" transform="translate(6.242 55.65) rotate(-9.217)" fill="#fff"/>
  <g transform="matrix(1, 0, 0, 1, 0, 0)" filter="url(#Caminho_3348)">
    <path id="Caminho_3348-2" data-name="Caminho 3348" d="M-2053.512,777.428h-20.842l24.56-32.747a4.647,4.647,0,0,0,.439-4.867,4.647,4.647,0,0,0-4.156-2.569h-30.138a4.648,4.648,0,0,0-4.648,4.648,4.648,4.648,0,0,0,4.648,4.648h20.842l-24.56,32.747a4.648,4.648,0,0,0-.439,4.867,4.648,4.648,0,0,0,4.157,2.569h30.138a4.647,4.647,0,0,0,4.647-4.648A4.647,4.647,0,0,0-2053.512,777.428Z" transform="translate(2088.3 -737.24)" fill="#fff"/>
  </g>
</svg>
