<svg xmlns="http://www.w3.org/2000/svg" width="40" height="36.919" viewBox="0 0 40 36.919">
    <g id="prefix__Grupo_3393" data-name="Grupo 3393" transform="translate(-181 -334.317)">
        <path id="prefix__Icon_ionic-ios-warning" d="M20.767 6.029L3.74 37.1a2.922 2.922 0 0 0 2.605 4.317h34.064a2.929 2.929 0 0 0 2.606-4.317L25.978 6.029a2.985 2.985 0 0 0-5.211 0z" data-name="Icon ionic-ios-warning" transform="translate(177.625 329.817)" style="fill:#ffbb01"/>
        <path id="prefix__Caminho_2414" d="M143.129 332.249a1.684 1.684 0 0 1-1.866-1.866v-.529a1.684 1.684 0 0 1 1.866-1.866h.4a1.684 1.684 0 0 1 1.866 1.866v.529a1.684 1.684 0 0 1-1.866 1.866zm.218-6.873q-1.057 0-1.151-1.182l-.9-11.445a2.137 2.137 0 0 1 .513-1.617 1.914 1.914 0 0 1 1.508-.653 1.961 1.961 0 0 1 1.524.653 2.012 2.012 0 0 1 .5 1.617l-.871 11.445q-.097 1.182-1.123 1.182z" data-name="Caminho 2414" transform="translate(57.321 35.028)" style="fill:rgba(255,255,255,.85)"/>
    </g>
</svg>
