<svg xmlns="http://www.w3.org/2000/svg" width="188.349" height="191.115" viewBox="0 0 188.349 191.115">
    <g id="prefix__Group_5491" data-name="Group 5491" transform="translate(57 -756)">
        <path id="prefix__Path_4091" d="M515.714 752.209a64.19 64.19 0 1 1 64.191-64.188 64.263 64.263 0 0 1-64.191 64.188zm0-111.412a47.224 47.224 0 1 0 47.224 47.223 47.277 47.277 0 0 0-47.224-47.22z" data-name="Path 4091" transform="translate(-478.446 163.248)" style="fill:#fff"/>
        <path id="prefix__Path_4088" d="M664.317 476.732a95.506 95.506 0 1 1 48.87-184.655l.6.16a8.054 8.054 0 0 1-4.171 15.558 79.4 79.4 0 1 0 56.126 97.251 8.055 8.055 0 0 1 15.56 4.171 95.61 95.61 0 0 1-116.985 67.515z" data-name="Path 4088" transform="translate(-650.222 467.125)" style="fill:#fff100"/>
    </g>
</svg>
