<svg xmlns="http://www.w3.org/2000/svg" width="253" height="204" viewBox="0 0 253 204">
    <defs>
        <clipPath id="prefix__clip-path">
            <path id="prefix__Rectangle_2887" d="M0 0H253V204H0z" class="prefix__cls-1" data-name="Rectangle 2887"/>
        </clipPath>
        <style>
            .prefix__cls-1{fill:#fff}
        </style>
    </defs>
    <g id="prefix__Mask_Group_3" data-name="Mask Group 3">
        <path id="prefix__Path_4091" d="M515.714 752.209a64.19 64.19 0 1 1 64.191-64.188 64.263 64.263 0 0 1-64.191 64.188zm0-111.412a47.224 47.224 0 1 0 47.224 47.223 47.277 47.277 0 0 0-47.224-47.22z" class="prefix__cls-1" data-name="Path 4091" transform="translate(-478.446 -532.752)"/>
        <path id="prefix__Path_4088" d="M665.128 476.776a95.506 95.506 0 1 1 48.866-184.656l.6.161a8.054 8.054 0 0 1-4.171 15.558 79.4 79.4 0 1 0 56.126 97.251 8.055 8.055 0 0 1 15.56 4.172 95.611 95.611 0 0 1-116.981 67.514z" data-name="Path 4088" transform="translate(-652.031 -228.918)" style="fill:#fff100"/>
    </g>
</svg>
